%!PS-Adobe-3.0 EPSF-3.0
%%Creator: (MATLAB, The Mathworks, Inc. Version 9.1.0.441655 \(R2016b\). Operating System: Linux)
%%Title: /home/ncaban/Thesis_materials/images/3past_mf.eps
%%CreationDate: 2018-08-24T10:07:09
%%Pages: (atend)
%%BoundingBox:    18     5   388   285
%%LanguageLevel: 3
%%EndComments
%%BeginProlog
%%BeginResource: procset (Apache XML Graphics Std ProcSet) 1.2 0
%%Version: 1.2 0
%%Copyright: (Copyright 2001-2003,2010 The Apache Software Foundation. License terms: http://www.apache.org/licenses/LICENSE-2.0)
/bd{bind def}bind def
/ld{load def}bd
/GR/grestore ld
/M/moveto ld
/LJ/setlinejoin ld
/C/curveto ld
/f/fill ld
/LW/setlinewidth ld
/GC/setgray ld
/t/show ld
/N/newpath ld
/CT/concat ld
/cp/closepath ld
/S/stroke ld
/L/lineto ld
/CC/setcmykcolor ld
/A/ashow ld
/GS/gsave ld
/RC/setrgbcolor ld
/RM/rmoveto ld
/ML/setmiterlimit ld
/re {4 2 roll M
1 index 0 rlineto
0 exch rlineto
neg 0 rlineto
cp } bd
/_ctm matrix def
/_tm matrix def
/BT { _ctm currentmatrix pop matrix _tm copy pop 0 0 moveto } bd
/ET { _ctm setmatrix } bd
/iTm { _ctm setmatrix _tm concat } bd
/Tm { _tm astore pop iTm 0 0 moveto } bd
/ux 0.0 def
/uy 0.0 def
/F {
  /Tp exch def
  /Tf exch def
  Tf findfont Tp scalefont setfont
  /cf Tf def  /cs Tp def
} bd
/ULS {currentpoint /uy exch def /ux exch def} bd
/ULE {
  /Tcx currentpoint pop def
  gsave
  newpath
  cf findfont cs scalefont dup
  /FontMatrix get 0 get /Ts exch def /FontInfo get dup
  /UnderlinePosition get Ts mul /To exch def
  /UnderlineThickness get Ts mul /Tt exch def
  ux uy To add moveto  Tcx uy To add lineto
  Tt setlinewidth stroke
  grestore
} bd
/OLE {
  /Tcx currentpoint pop def
  gsave
  newpath
  cf findfont cs scalefont dup
  /FontMatrix get 0 get /Ts exch def /FontInfo get dup
  /UnderlinePosition get Ts mul /To exch def
  /UnderlineThickness get Ts mul /Tt exch def
  ux uy To add cs add moveto Tcx uy To add cs add lineto
  Tt setlinewidth stroke
  grestore
} bd
/SOE {
  /Tcx currentpoint pop def
  gsave
  newpath
  cf findfont cs scalefont dup
  /FontMatrix get 0 get /Ts exch def /FontInfo get dup
  /UnderlinePosition get Ts mul /To exch def
  /UnderlineThickness get Ts mul /Tt exch def
  ux uy To add cs 10 mul 26 idiv add moveto Tcx uy To add cs 10 mul 26 idiv add lineto
  Tt setlinewidth stroke
  grestore
} bd
/QT {
/Y22 exch store
/X22 exch store
/Y21 exch store
/X21 exch store
currentpoint
/Y21 load 2 mul add 3 div exch
/X21 load 2 mul add 3 div exch
/X21 load 2 mul /X22 load add 3 div
/Y21 load 2 mul /Y22 load add 3 div
/X22 load /Y22 load curveto
} bd
/SSPD {
dup length /d exch dict def
{
/v exch def
/k exch def
currentpagedevice k known {
/cpdv currentpagedevice k get def
v cpdv ne {
/upd false def
/nullv v type /nulltype eq def
/nullcpdv cpdv type /nulltype eq def
nullv nullcpdv or
{
/upd true def
} {
/sametype v type cpdv type eq def
sametype {
v type /arraytype eq {
/vlen v length def
/cpdvlen cpdv length def
vlen cpdvlen eq {
0 1 vlen 1 sub {
/i exch def
/obj v i get def
/cpdobj cpdv i get def
obj cpdobj ne {
/upd true def
exit
} if
} for
} {
/upd true def
} ifelse
} {
v type /dicttype eq {
v {
/dv exch def
/dk exch def
/cpddv cpdv dk get def
dv cpddv ne {
/upd true def
exit
} if
} forall
} {
/upd true def
} ifelse
} ifelse
} if
} ifelse
upd true eq {
d k v put
} if
} if
} if
} forall
d length 0 gt {
d setpagedevice
} if
} bd
/RE { % /NewFontName [NewEncodingArray] /FontName RE -
  findfont dup length dict begin
  {
    1 index /FID ne
    {def} {pop pop} ifelse
  } forall
  /Encoding exch def
  /FontName 1 index def
  currentdict definefont pop
  end
} bind def
%%EndResource
%%BeginResource: procset (Apache XML Graphics EPS ProcSet) 1.0 0
%%Version: 1.0 0
%%Copyright: (Copyright 2002-2003 The Apache Software Foundation. License terms: http://www.apache.org/licenses/LICENSE-2.0)
/BeginEPSF { %def
/b4_Inc_state save def         % Save state for cleanup
/dict_count countdictstack def % Count objects on dict stack
/op_count count 1 sub def      % Count objects on operand stack
userdict begin                 % Push userdict on dict stack
/showpage { } def              % Redefine showpage, { } = null proc
0 setgray 0 setlinecap         % Prepare graphics state
1 setlinewidth 0 setlinejoin
10 setmiterlimit [ ] 0 setdash newpath
/languagelevel where           % If level not equal to 1 then
{pop languagelevel             % set strokeadjust and
1 ne                           % overprint to their defaults.
{false setstrokeadjust false setoverprint
} if
} if
} bd
/EndEPSF { %def
count op_count sub {pop} repeat            % Clean up stacks
countdictstack dict_count sub {end} repeat
b4_Inc_state restore
} bd
%%EndResource
%FOPBeginFontDict
%%IncludeResource: font Courier-Bold
%%IncludeResource: font Helvetica
%%IncludeResource: font Courier-BoldOblique
%%IncludeResource: font Courier-Oblique
%%IncludeResource: font Times-Roman
%%IncludeResource: font Helvetica-BoldOblique
%%IncludeResource: font Helvetica-Bold
%%IncludeResource: font Helvetica-Oblique
%%IncludeResource: font Times-BoldItalic
%%IncludeResource: font Courier
%%IncludeResource: font Times-Italic
%%IncludeResource: font Times-Bold
%%IncludeResource: font Symbol
%%IncludeResource: font ZapfDingbats
%FOPEndFontDict
%%BeginResource: encoding WinAnsiEncoding
/WinAnsiEncoding [
/.notdef /.notdef /.notdef /.notdef /.notdef
/.notdef /.notdef /.notdef /.notdef /.notdef
/.notdef /.notdef /.notdef /.notdef /.notdef
/.notdef /.notdef /.notdef /.notdef /.notdef
/.notdef /.notdef /.notdef /.notdef /.notdef
/.notdef /.notdef /.notdef /.notdef /.notdef
/.notdef /.notdef /space /exclam /quotedbl
/numbersign /dollar /percent /ampersand /quotesingle
/parenleft /parenright /asterisk /plus /comma
/hyphen /period /slash /zero /one
/two /three /four /five /six
/seven /eight /nine /colon /semicolon
/less /equal /greater /question /at
/A /B /C /D /E
/F /G /H /I /J
/K /L /M /N /O
/P /Q /R /S /T
/U /V /W /X /Y
/Z /bracketleft /backslash /bracketright /asciicircum
/underscore /quoteleft /a /b /c
/d /e /f /g /h
/i /j /k /l /m
/n /o /p /q /r
/s /t /u /v /w
/x /y /z /braceleft /bar
/braceright /asciitilde /bullet /Euro /bullet
/quotesinglbase /florin /quotedblbase /ellipsis /dagger
/daggerdbl /circumflex /perthousand /Scaron /guilsinglleft
/OE /bullet /Zcaron /bullet /bullet
/quoteleft /quoteright /quotedblleft /quotedblright /bullet
/endash /emdash /asciitilde /trademark /scaron
/guilsinglright /oe /bullet /zcaron /Ydieresis
/space /exclamdown /cent /sterling /currency
/yen /brokenbar /section /dieresis /copyright
/ordfeminine /guillemotleft /logicalnot /sfthyphen /registered
/macron /degree /plusminus /twosuperior /threesuperior
/acute /mu /paragraph /middot /cedilla
/onesuperior /ordmasculine /guillemotright /onequarter /onehalf
/threequarters /questiondown /Agrave /Aacute /Acircumflex
/Atilde /Adieresis /Aring /AE /Ccedilla
/Egrave /Eacute /Ecircumflex /Edieresis /Igrave
/Iacute /Icircumflex /Idieresis /Eth /Ntilde
/Ograve /Oacute /Ocircumflex /Otilde /Odieresis
/multiply /Oslash /Ugrave /Uacute /Ucircumflex
/Udieresis /Yacute /Thorn /germandbls /agrave
/aacute /acircumflex /atilde /adieresis /aring
/ae /ccedilla /egrave /eacute /ecircumflex
/edieresis /igrave /iacute /icircumflex /idieresis
/eth /ntilde /ograve /oacute /ocircumflex
/otilde /odieresis /divide /oslash /ugrave
/uacute /ucircumflex /udieresis /yacute /thorn
/ydieresis
] def
%%EndResource
%FOPBeginFontReencode
/Courier-Bold findfont
dup length dict begin
  {1 index /FID ne {def} {pop pop} ifelse} forall
  /Encoding WinAnsiEncoding def
  currentdict
end
/Courier-Bold exch definefont pop
/Helvetica findfont
dup length dict begin
  {1 index /FID ne {def} {pop pop} ifelse} forall
  /Encoding WinAnsiEncoding def
  currentdict
end
/Helvetica exch definefont pop
/Courier-BoldOblique findfont
dup length dict begin
  {1 index /FID ne {def} {pop pop} ifelse} forall
  /Encoding WinAnsiEncoding def
  currentdict
end
/Courier-BoldOblique exch definefont pop
/Courier-Oblique findfont
dup length dict begin
  {1 index /FID ne {def} {pop pop} ifelse} forall
  /Encoding WinAnsiEncoding def
  currentdict
end
/Courier-Oblique exch definefont pop
/Times-Roman findfont
dup length dict begin
  {1 index /FID ne {def} {pop pop} ifelse} forall
  /Encoding WinAnsiEncoding def
  currentdict
end
/Times-Roman exch definefont pop
/Helvetica-BoldOblique findfont
dup length dict begin
  {1 index /FID ne {def} {pop pop} ifelse} forall
  /Encoding WinAnsiEncoding def
  currentdict
end
/Helvetica-BoldOblique exch definefont pop
/Helvetica-Bold findfont
dup length dict begin
  {1 index /FID ne {def} {pop pop} ifelse} forall
  /Encoding WinAnsiEncoding def
  currentdict
end
/Helvetica-Bold exch definefont pop
/Helvetica-Oblique findfont
dup length dict begin
  {1 index /FID ne {def} {pop pop} ifelse} forall
  /Encoding WinAnsiEncoding def
  currentdict
end
/Helvetica-Oblique exch definefont pop
/Times-BoldItalic findfont
dup length dict begin
  {1 index /FID ne {def} {pop pop} ifelse} forall
  /Encoding WinAnsiEncoding def
  currentdict
end
/Times-BoldItalic exch definefont pop
/Courier findfont
dup length dict begin
  {1 index /FID ne {def} {pop pop} ifelse} forall
  /Encoding WinAnsiEncoding def
  currentdict
end
/Courier exch definefont pop
/Times-Italic findfont
dup length dict begin
  {1 index /FID ne {def} {pop pop} ifelse} forall
  /Encoding WinAnsiEncoding def
  currentdict
end
/Times-Italic exch definefont pop
/Times-Bold findfont
dup length dict begin
  {1 index /FID ne {def} {pop pop} ifelse} forall
  /Encoding WinAnsiEncoding def
  currentdict
end
/Times-Bold exch definefont pop
%FOPEndFontReencode
%%EndProlog
%%Page: 1 1
%%PageBoundingBox: 0 0 426 308
%%BeginPageSetup
[1 0 0 -1 0 308] CT
%%EndPageSetup
GS
[0.75 0 0 0.75 0 0.5] CT
N
0 0 M
568 0 L
568 410 L
0 410 L
0 0 L
cp
clip
1 GC
N
0 0 568 410 re
f
GR
GS
[0.75 0 0 0.75 0 0.5] CT
1 GC
N
0 0 568 410 re
f
GR
GS
[0.75 0 0 0.75 0 0.5] CT
1 GC
N
74 365 M
514 365 L
514 31 L
74 31 L
cp
f
GR
GS
[0.75 0 0 0.75 0 0.5] CT
0.149 GC
2 setlinecap
1 LJ
0.667 LW
N
74 365 M
514 365 L
S
GR
GS
[0.75 0 0 0.75 0 0.5] CT
0.149 GC
2 setlinecap
1 LJ
0.667 LW
N
74 31 M
514 31 L
S
GR
GS
[0.75 0 0 0.75 0 0.5] CT
0.149 GC
2 setlinecap
1 LJ
0.667 LW
N
110.667 365 M
110.667 360.6 L
S
GR
GS
[0.75 0 0 0.75 0 0.5] CT
0.149 GC
2 setlinecap
1 LJ
0.667 LW
N
147.333 365 M
147.333 360.6 L
S
GR
GS
[0.75 0 0 0.75 0 0.5] CT
0.149 GC
2 setlinecap
1 LJ
0.667 LW
N
184 365 M
184 360.6 L
S
GR
GS
[0.75 0 0 0.75 0 0.5] CT
0.149 GC
2 setlinecap
1 LJ
0.667 LW
N
220.667 365 M
220.667 360.6 L
S
GR
GS
[0.75 0 0 0.75 0 0.5] CT
0.149 GC
2 setlinecap
1 LJ
0.667 LW
N
257.333 365 M
257.333 360.6 L
S
GR
GS
[0.75 0 0 0.75 0 0.5] CT
0.149 GC
2 setlinecap
1 LJ
0.667 LW
N
294 365 M
294 360.6 L
S
GR
GS
[0.75 0 0 0.75 0 0.5] CT
0.149 GC
2 setlinecap
1 LJ
0.667 LW
N
330.667 365 M
330.667 360.6 L
S
GR
GS
[0.75 0 0 0.75 0 0.5] CT
0.149 GC
2 setlinecap
1 LJ
0.667 LW
N
367.333 365 M
367.333 360.6 L
S
GR
GS
[0.75 0 0 0.75 0 0.5] CT
0.149 GC
2 setlinecap
1 LJ
0.667 LW
N
404 365 M
404 360.6 L
S
GR
GS
[0.75 0 0 0.75 0 0.5] CT
0.149 GC
2 setlinecap
1 LJ
0.667 LW
N
440.667 365 M
440.667 360.6 L
S
GR
GS
[0.75 0 0 0.75 0 0.5] CT
0.149 GC
2 setlinecap
1 LJ
0.667 LW
N
477.333 365 M
477.333 360.6 L
S
GR
GS
[0.75 0 0 0.75 0 0.5] CT
0.149 GC
2 setlinecap
1 LJ
0.667 LW
N
110.667 31 M
110.667 35.4 L
S
GR
GS
[0.75 0 0 0.75 0 0.5] CT
0.149 GC
2 setlinecap
1 LJ
0.667 LW
N
147.333 31 M
147.333 35.4 L
S
GR
GS
[0.75 0 0 0.75 0 0.5] CT
0.149 GC
2 setlinecap
1 LJ
0.667 LW
N
184 31 M
184 35.4 L
S
GR
GS
[0.75 0 0 0.75 0 0.5] CT
0.149 GC
2 setlinecap
1 LJ
0.667 LW
N
220.667 31 M
220.667 35.4 L
S
GR
GS
[0.75 0 0 0.75 0 0.5] CT
0.149 GC
2 setlinecap
1 LJ
0.667 LW
N
257.333 31 M
257.333 35.4 L
S
GR
GS
[0.75 0 0 0.75 0 0.5] CT
0.149 GC
2 setlinecap
1 LJ
0.667 LW
N
294 31 M
294 35.4 L
S
GR
GS
[0.75 0 0 0.75 0 0.5] CT
0.149 GC
2 setlinecap
1 LJ
0.667 LW
N
330.667 31 M
330.667 35.4 L
S
GR
GS
[0.75 0 0 0.75 0 0.5] CT
0.149 GC
2 setlinecap
1 LJ
0.667 LW
N
367.333 31 M
367.333 35.4 L
S
GR
GS
[0.75 0 0 0.75 0 0.5] CT
0.149 GC
2 setlinecap
1 LJ
0.667 LW
N
404 31 M
404 35.4 L
S
GR
GS
[0.75 0 0 0.75 0 0.5] CT
0.149 GC
2 setlinecap
1 LJ
0.667 LW
N
440.667 31 M
440.667 35.4 L
S
GR
GS
[0.75 0 0 0.75 0 0.5] CT
0.149 GC
2 setlinecap
1 LJ
0.667 LW
N
477.333 31 M
477.333 35.4 L
S
GR
GS
[0.75 0 0 0.75 83 278.25001] CT
0.149 GC
/Helvetica-Bold 13.333 F
GS
[1 0 0 1 0 0] CT
-5 13 moveto 
1 -1 scale
(0) t 
GR
GR
GS
[0.75 0 0 0.75 110.5 278.25001] CT
0.149 GC
/Helvetica-Bold 13.333 F
GS
[1 0 0 1 0 0] CT
-12 13 moveto 
1 -1 scale
(0.1) t 
GR
GR
GS
[0.75 0 0 0.75 138 278.25001] CT
0.149 GC
/Helvetica-Bold 13.333 F
GS
[1 0 0 1 0 0] CT
-12 13 moveto 
1 -1 scale
(0.2) t 
GR
GR
GS
[0.75 0 0 0.75 165.5 278.25001] CT
0.149 GC
/Helvetica-Bold 13.333 F
GS
[1 0 0 1 0 0] CT
-12 13 moveto 
1 -1 scale
(0.3) t 
GR
GR
GS
[0.75 0 0 0.75 193.00001 278.25001] CT
0.149 GC
/Helvetica-Bold 13.333 F
GS
[1 0 0 1 0 0] CT
-12 13 moveto 
1 -1 scale
(0.4) t 
GR
GR
GS
[0.75 0 0 0.75 220.5 278.25001] CT
0.149 GC
/Helvetica-Bold 13.333 F
GS
[1 0 0 1 0 0] CT
-12 13 moveto 
1 -1 scale
(0.5) t 
GR
GR
GS
[0.75 0 0 0.75 248.00002 278.25001] CT
0.149 GC
/Helvetica-Bold 13.333 F
GS
[1 0 0 1 0 0] CT
-12 13 moveto 
1 -1 scale
(0.6) t 
GR
GR
GS
[0.75 0 0 0.75 275.50001 278.25001] CT
0.149 GC
/Helvetica-Bold 13.333 F
GS
[1 0 0 1 0 0] CT
-12 13 moveto 
1 -1 scale
(0.7) t 
GR
GR
GS
[0.75 0 0 0.75 303 278.25001] CT
0.149 GC
/Helvetica-Bold 13.333 F
GS
[1 0 0 1 0 0] CT
-12 13 moveto 
1 -1 scale
(0.8) t 
GR
GR
GS
[0.75 0 0 0.75 330.49999 278.25001] CT
0.149 GC
/Helvetica-Bold 13.333 F
GS
[1 0 0 1 0 0] CT
-12 13 moveto 
1 -1 scale
(0.9) t 
GR
GR
GS
[0.75 0 0 0.75 358.00001 278.25001] CT
0.149 GC
/Helvetica-Bold 13.333 F
GS
[1 0 0 1 0 0] CT
-5 13 moveto 
1 -1 scale
(1) t 
GR
GR
GS
[0.75 0 0 0.75 220.50016 291.99999] CT
0.149 GC
/Helvetica-Bold 14.667 F
GS
[1 0 0 1 0 0] CT
-152.5 14 moveto 
1 -1 scale
(3rd Previous Correlation Coefficient) t 
GR
GR
GS
[0.75 0 0 0.75 0 0.5] CT
0.149 GC
2 setlinecap
1 LJ
0.667 LW
N
74 365 M
74 31 L
S
GR
GS
[0.75 0 0 0.75 0 0.5] CT
0.149 GC
2 setlinecap
1 LJ
0.667 LW
N
514 365 M
514 31 L
S
GR
GS
[0.75 0 0 0.75 0 0.5] CT
0.149 GC
2 setlinecap
1 LJ
0.667 LW
N
74 337.167 M
78.4 337.167 L
S
GR
GS
[0.75 0 0 0.75 0 0.5] CT
0.149 GC
2 setlinecap
1 LJ
0.667 LW
N
74 281.5 M
78.4 281.5 L
S
GR
GS
[0.75 0 0 0.75 0 0.5] CT
0.149 GC
2 setlinecap
1 LJ
0.667 LW
N
74 225.833 M
78.4 225.833 L
S
GR
GS
[0.75 0 0 0.75 0 0.5] CT
0.149 GC
2 setlinecap
1 LJ
0.667 LW
N
74 170.167 M
78.4 170.167 L
S
GR
GS
[0.75 0 0 0.75 0 0.5] CT
0.149 GC
2 setlinecap
1 LJ
0.667 LW
N
74 114.5 M
78.4 114.5 L
S
GR
GS
[0.75 0 0 0.75 0 0.5] CT
0.149 GC
2 setlinecap
1 LJ
0.667 LW
N
74 58.833 M
78.4 58.833 L
S
GR
GS
[0.75 0 0 0.75 0 0.5] CT
0.149 GC
2 setlinecap
1 LJ
0.667 LW
N
514 337.167 M
509.6 337.167 L
S
GR
GS
[0.75 0 0 0.75 0 0.5] CT
0.149 GC
2 setlinecap
1 LJ
0.667 LW
N
514 281.5 M
509.6 281.5 L
S
GR
GS
[0.75 0 0 0.75 0 0.5] CT
0.149 GC
2 setlinecap
1 LJ
0.667 LW
N
514 225.833 M
509.6 225.833 L
S
GR
GS
[0.75 0 0 0.75 0 0.5] CT
0.149 GC
2 setlinecap
1 LJ
0.667 LW
N
514 170.167 M
509.6 170.167 L
S
GR
GS
[0.75 0 0 0.75 0 0.5] CT
0.149 GC
2 setlinecap
1 LJ
0.667 LW
N
514 114.5 M
509.6 114.5 L
S
GR
GS
[0.75 0 0 0.75 0 0.5] CT
0.149 GC
2 setlinecap
1 LJ
0.667 LW
N
514 58.833 M
509.6 58.833 L
S
GR
GS
[0.75 0 0 0.75 51.5 253.37499] CT
0.149 GC
/Helvetica-Bold 13.333 F
GS
[1 0 0 1 0 0] CT
-10 4.5 moveto 
1 -1 scale
(0) t 
GR
GR
GS
[0.75 0 0 0.75 51.5 211.625] CT
0.149 GC
/Helvetica-Bold 13.333 F
GS
[1 0 0 1 0 0] CT
-24 4.5 moveto 
1 -1 scale
(0.2) t 
GR
GR
GS
[0.75 0 0 0.75 51.5 169.875] CT
0.149 GC
/Helvetica-Bold 13.333 F
GS
[1 0 0 1 0 0] CT
-24 4.5 moveto 
1 -1 scale
(0.4) t 
GR
GR
GS
[0.75 0 0 0.75 51.5 128.12499] CT
0.149 GC
/Helvetica-Bold 13.333 F
GS
[1 0 0 1 0 0] CT
-24 4.5 moveto 
1 -1 scale
(0.6) t 
GR
GR
GS
[0.75 0 0 0.75 51.5 86.375] CT
0.149 GC
/Helvetica-Bold 13.333 F
GS
[1 0 0 1 0 0] CT
-24 4.5 moveto 
1 -1 scale
(0.8) t 
GR
GR
GS
[0.75 0 0 0.75 51.5 44.625] CT
0.149 GC
/Helvetica-Bold 13.333 F
GS
[1 0 0 1 0 0] CT
-10 4.5 moveto 
1 -1 scale
(1) t 
GR
GR
GS
[0 -0.75 0.75 0 30.5 148.99987] CT
0.149 GC
/Helvetica-Bold 14.667 F
GS
[1 0 0 1 0 0] CT
-96.5 -4 moveto 
1 -1 scale
(Degree of Membership) t 
GR
GR
GS
[0.75 0 0 0.75 0 0.5] CT
0 0.447 0.741 RC
1 LJ
4 LW
N
74 337.167 M
77.667 337.167 L
81.333 337.167 L
85 337.167 L
88.667 337.167 L
92.333 337.167 L
96 337.167 L
99.667 337.167 L
103.333 337.167 L
107 337.167 L
110.667 337.167 L
111.4 337.167 L
112.133 337.167 L
112.867 337.167 L
113.6 337.167 L
114.333 337.167 L
115.067 337.167 L
115.8 337.167 L
116.533 337.167 L
117.267 337.167 L
118 337.167 L
118.733 337.167 L
119.467 337.167 L
120.2 337.167 L
120.933 337.167 L
121.667 337.167 L
122.4 337.167 L
123.133 337.167 L
123.867 337.167 L
124.6 337.167 L
125.333 337.167 L
126.067 337.167 L
126.8 337.167 L
127.533 337.167 L
128.267 337.167 L
129 337.167 L
129.733 337.167 L
130.467 337.167 L
131.2 337.167 L
131.933 337.167 L
132.667 337.167 L
133.4 337.167 L
134.133 337.167 L
134.867 337.167 L
135.6 337.167 L
136.333 337.167 L
137.067 337.167 L
137.8 337.167 L
138.533 337.167 L
139.267 337.167 L
140 337.167 L
140.733 337.167 L
141.467 337.167 L
142.2 337.167 L
142.933 337.167 L
143.667 337.167 L
144.4 337.167 L
145.133 337.167 L
145.867 337.167 L
146.6 337.167 L
147.333 337.167 L
148.067 337.167 L
148.8 337.167 L
149.533 337.167 L
150.267 337.167 L
151 337.167 L
151.733 337.167 L
152.467 337.167 L
153.2 337.167 L
153.933 337.167 L
154.667 337.167 L
155.4 337.167 L
156.133 337.167 L
156.867 337.167 L
157.6 337.167 L
158.333 337.167 L
159.067 337.167 L
159.8 337.167 L
160.533 337.167 L
161.267 337.167 L
162 337.167 L
162.733 337.167 L
163.467 337.167 L
164.2 337.167 L
164.933 337.167 L
165.667 337.167 L
166.4 337.167 L
167.133 337.167 L
167.867 337.167 L
168.6 337.167 L
169.333 337.167 L
170.067 337.167 L
170.8 337.167 L
171.533 337.167 L
172.267 337.167 L
173 337.167 L
173.733 337.167 L
174.467 337.167 L
175.2 337.167 L
175.933 337.167 L
176.667 337.167 L
177.4 337.167 L
178.133 337.167 L
178.867 337.167 L
179.6 337.167 L
180.333 337.167 L
181.067 337.167 L
181.8 337.167 L
182.533 337.167 L
183.267 337.167 L
184 337.167 L
184.733 337.167 L
185.467 337.167 L
186.2 337.167 L
186.933 337.167 L
187.667 337.167 L
188.4 337.167 L
189.133 337.167 L
189.867 337.167 L
190.6 337.167 L
191.333 337.167 L
192.067 337.167 L
192.8 337.167 L
193.533 337.167 L
194.267 337.167 L
195 337.167 L
195.733 337.167 L
196.467 337.167 L
197.2 337.167 L
197.933 337.167 L
198.667 337.167 L
199.4 337.167 L
200.133 337.167 L
200.867 337.167 L
201.6 337.167 L
202.333 337.167 L
203.067 337.167 L
203.8 337.167 L
204.533 337.167 L
205.267 337.167 L
206 337.167 L
206.733 337.167 L
207.467 337.167 L
208.2 337.167 L
208.933 337.167 L
209.667 337.167 L
210.4 337.167 L
211.133 337.167 L
211.867 337.167 L
212.6 337.167 L
213.333 337.167 L
214.067 337.167 L
214.8 337.167 L
215.533 337.167 L
216.267 337.167 L
217 337.167 L
217.733 337.167 L
218.467 337.167 L
219.2 337.167 L
219.933 337.167 L
220.667 337.167 L
221.4 337.167 L
222.133 337.167 L
222.867 337.167 L
223.6 337.167 L
224.333 337.167 L
225.067 337.167 L
225.8 337.167 L
226.533 337.167 L
227.267 337.167 L
228 337.167 L
228.733 337.167 L
229.467 337.167 L
230.2 337.167 L
230.933 337.167 L
231.667 337.167 L
232.4 337.167 L
233.133 337.167 L
233.867 337.167 L
234.6 337.167 L
235.333 337.167 L
236.067 337.167 L
236.8 337.167 L
237.533 337.167 L
238.267 337.167 L
239 337.167 L
239.733 337.167 L
240.467 337.167 L
241.2 337.167 L
241.933 337.167 L
242.667 337.167 L
243.4 337.167 L
244.133 337.167 L
244.867 337.167 L
245.6 337.167 L
246.333 337.167 L
247.067 337.167 L
247.8 337.167 L
248.533 337.167 L
249.267 337.167 L
250 337.167 L
250.733 337.167 L
251.467 337.167 L
252.2 337.167 L
252.933 337.167 L
253.667 337.167 L
254.4 337.167 L
255.133 337.167 L
255.867 337.167 L
256.6 337.167 L
257.333 337.167 L
258.067 337.167 L
258.8 337.167 L
259.533 337.167 L
260.267 337.167 L
261 337.167 L
261.733 337.167 L
262.467 337.167 L
263.2 337.167 L
263.933 337.167 L
264.667 337.167 L
265.4 337.167 L
266.133 337.167 L
266.867 337.167 L
267.6 337.167 L
268.333 337.167 L
269.067 337.167 L
269.8 337.167 L
270.533 337.167 L
271.267 337.167 L
272 337.167 L
272.733 337.167 L
273.467 337.167 L
274.2 337.167 L
274.933 337.167 L
275.667 337.167 L
276.4 337.167 L
277.133 337.167 L
277.867 337.167 L
278.6 337.167 L
279.333 337.167 L
280.067 337.167 L
280.8 337.167 L
281.533 337.167 L
282.267 337.167 L
283 337.167 L
283.733 337.167 L
284.467 337.167 L
285.2 337.167 L
285.933 337.167 L
286.667 337.167 L
287.4 337.167 L
288.133 337.167 L
288.867 337.167 L
289.6 337.167 L
290.333 337.167 L
291.067 337.167 L
291.8 337.167 L
292.533 337.167 L
293.267 337.167 L
294 337.167 L
294.733 336.053 L
295.467 334.94 L
296.2 333.827 L
296.933 332.713 L
297.667 331.6 L
298.4 330.487 L
299.133 329.373 L
299.867 328.26 L
300.6 327.147 L
301.333 326.033 L
302.067 324.92 L
302.8 323.807 L
303.533 322.693 L
304.267 321.58 L
305 320.467 L
305.733 319.353 L
306.467 318.24 L
307.2 317.127 L
307.933 316.013 L
308.667 314.9 L
309.4 313.787 L
310.133 312.673 L
310.867 311.56 L
311.6 310.447 L
312.333 309.333 L
313.067 308.22 L
313.8 307.107 L
314.533 305.993 L
315.267 304.88 L
316 303.767 L
316.733 302.653 L
317.467 301.54 L
318.2 300.427 L
318.933 299.313 L
319.667 298.2 L
320.4 297.087 L
321.133 295.973 L
321.867 294.86 L
322.6 293.747 L
323.333 292.633 L
324.067 291.52 L
324.8 290.407 L
325.533 289.293 L
326.267 288.18 L
327 287.067 L
327.733 285.953 L
328.467 284.84 L
329.2 283.727 L
329.933 282.613 L
330.667 281.5 L
331.4 280.387 L
332.133 279.273 L
332.867 278.16 L
333.6 277.047 L
334.333 275.933 L
335.067 274.82 L
335.8 273.707 L
336.533 272.593 L
337.267 271.48 L
338 270.367 L
338.733 269.253 L
339.467 268.14 L
340.2 267.027 L
340.933 265.913 L
341.667 264.8 L
342.4 263.687 L
343.133 262.573 L
343.867 261.46 L
344.6 260.347 L
345.333 259.233 L
346.067 258.12 L
346.8 257.007 L
347.533 255.893 L
348.267 254.78 L
349 253.667 L
349.733 252.553 L
350.467 251.44 L
351.2 250.327 L
351.933 249.213 L
352.667 248.1 L
353.4 246.987 L
354.133 245.873 L
354.867 244.76 L
355.6 243.647 L
356.333 242.533 L
357.067 241.42 L
357.8 240.307 L
358.533 239.193 L
359.267 238.08 L
360 236.967 L
360.733 235.853 L
361.467 234.74 L
362.2 233.627 L
362.933 232.513 L
363.667 231.4 L
364.4 230.287 L
365.133 229.173 L
365.867 228.06 L
366.6 226.947 L
367.333 225.833 L
368.067 224.72 L
368.8 223.607 L
369.533 222.493 L
370.267 221.38 L
371 220.267 L
371.733 219.153 L
372.467 218.04 L
373.2 216.927 L
373.933 215.813 L
374.667 214.7 L
375.4 213.587 L
376.133 212.473 L
376.867 211.36 L
377.6 210.247 L
378.333 209.133 L
379.067 208.02 L
379.8 206.907 L
380.533 205.793 L
381.267 204.68 L
382 203.567 L
382.733 202.453 L
383.467 201.34 L
384.2 200.227 L
384.933 199.113 L
385.667 198 L
386.4 196.887 L
387.133 195.773 L
387.867 194.66 L
388.6 193.547 L
389.333 192.433 L
390.067 191.32 L
390.8 190.207 L
391.533 189.093 L
392.267 187.98 L
393 186.867 L
393.733 185.753 L
394.467 184.64 L
395.2 183.527 L
395.933 182.413 L
396.667 181.3 L
397.4 180.187 L
398.133 179.073 L
398.867 177.96 L
399.6 176.847 L
400.333 175.733 L
401.067 174.62 L
401.8 173.507 L
402.533 172.393 L
403.267 171.28 L
404 170.167 L
404.733 169.053 L
405.467 167.94 L
406.2 166.827 L
406.933 165.713 L
407.667 164.6 L
408.4 163.487 L
409.133 162.373 L
409.867 161.26 L
410.6 160.147 L
411.333 159.033 L
412.067 157.92 L
412.8 156.807 L
413.533 155.693 L
414.267 154.58 L
415 153.467 L
415.733 152.353 L
416.467 151.24 L
417.2 150.127 L
417.933 149.013 L
418.667 147.9 L
419.4 146.787 L
420.133 145.673 L
420.867 144.56 L
421.6 143.447 L
422.333 142.333 L
423.067 141.22 L
423.8 140.107 L
424.533 138.993 L
425.267 137.88 L
426 136.767 L
426.733 135.653 L
427.467 134.54 L
428.2 133.427 L
428.933 132.313 L
429.667 131.2 L
430.4 130.087 L
431.133 128.973 L
431.867 127.86 L
432.6 126.747 L
433.333 125.633 L
434.067 124.52 L
434.8 123.407 L
435.533 122.293 L
436.267 121.18 L
437 120.067 L
437.733 118.953 L
438.467 117.84 L
439.2 116.727 L
439.933 115.613 L
440.667 114.5 L
441.4 113.387 L
442.133 112.273 L
442.867 111.16 L
443.6 110.047 L
444.333 108.933 L
445.067 107.82 L
445.8 106.707 L
446.533 105.593 L
447.267 104.48 L
448 103.367 L
448.733 102.253 L
449.467 101.14 L
450.2 100.027 L
450.933 98.913 L
451.667 97.8 L
452.4 96.687 L
453.133 95.573 L
453.867 94.46 L
454.6 93.347 L
455.333 92.233 L
456.067 91.12 L
456.8 90.007 L
457.533 88.893 L
458.267 87.78 L
459 86.667 L
459.733 85.553 L
460.467 84.44 L
461.2 83.327 L
461.933 82.213 L
462.667 81.1 L
463.4 79.987 L
464.133 78.873 L
464.867 77.76 L
465.6 76.647 L
466.333 75.533 L
467.067 74.42 L
467.8 73.307 L
468.533 72.193 L
469.267 71.08 L
470 69.967 L
470.733 68.853 L
471.467 67.74 L
472.2 66.627 L
472.933 65.513 L
473.667 64.4 L
474.4 63.287 L
475.133 62.173 L
475.867 61.06 L
476.6 59.947 L
477.333 58.833 L
481 58.833 L
484.667 58.833 L
488.333 58.833 L
492 58.833 L
495.667 58.833 L
499.333 58.833 L
503 58.833 L
506.667 58.833 L
510.333 58.833 L
514 58.833 L
S
GR
GS
[0.75 0 0 0.75 0 0.5] CT
1 GC
N
264 69 M
264 44 L
324 44 L
324 69 L
cp
f
GR
GS
[0.75 0 0 0.75 225.75 44.75] CT
/Helvetica-Bold 12 F
GS
[1 0 0 1 0 0] CT
0 0 moveto 
1 -1 scale
(w) t 
GR
GR
GS
[0.75 0 0 0.75 234.75 49.25] CT
/Helvetica-Bold 9.6 F
GS
[1 0 0 1 0 0] CT
0 0 moveto 
1 -1 scale
(5) t 
GR
GR
GS
[0.75 0 0 0.75 0 0.5] CT
0 0.447 0.741 RC
1 LJ
4 LW
N
268 56.5 M
298 56.5 L
S
GR
GS
[0.75 0 0 0.75 0 0.5] CT
0.149 GC
10.0 ML
0.667 LW
N
264 69 M
264 44 L
324 44 L
324 69 L
cp
S
GR
%%Trailer
%%Pages: 1
%%EOF
