%!PS-Adobe-3.0 EPSF-3.0
%%Creator: (MATLAB, The Mathworks, Inc. Version 9.1.0.441655 \(R2016b\). Operating System: Linux)
%%Title: /home/ncaban/Thesis_materials/images/fuzzy_crisp_comp.eps
%%CreationDate: 2018-08-21T09:39:00
%%Pages: (atend)
%%BoundingBox:    18    19   388   288
%%LanguageLevel: 3
%%EndComments
%%BeginProlog
%%BeginResource: procset (Apache XML Graphics Std ProcSet) 1.2 0
%%Version: 1.2 0
%%Copyright: (Copyright 2001-2003,2010 The Apache Software Foundation. License terms: http://www.apache.org/licenses/LICENSE-2.0)
/bd{bind def}bind def
/ld{load def}bd
/GR/grestore ld
/M/moveto ld
/LJ/setlinejoin ld
/C/curveto ld
/f/fill ld
/LW/setlinewidth ld
/GC/setgray ld
/t/show ld
/N/newpath ld
/CT/concat ld
/cp/closepath ld
/S/stroke ld
/L/lineto ld
/CC/setcmykcolor ld
/A/ashow ld
/GS/gsave ld
/RC/setrgbcolor ld
/RM/rmoveto ld
/ML/setmiterlimit ld
/re {4 2 roll M
1 index 0 rlineto
0 exch rlineto
neg 0 rlineto
cp } bd
/_ctm matrix def
/_tm matrix def
/BT { _ctm currentmatrix pop matrix _tm copy pop 0 0 moveto } bd
/ET { _ctm setmatrix } bd
/iTm { _ctm setmatrix _tm concat } bd
/Tm { _tm astore pop iTm 0 0 moveto } bd
/ux 0.0 def
/uy 0.0 def
/F {
  /Tp exch def
  /Tf exch def
  Tf findfont Tp scalefont setfont
  /cf Tf def  /cs Tp def
} bd
/ULS {currentpoint /uy exch def /ux exch def} bd
/ULE {
  /Tcx currentpoint pop def
  gsave
  newpath
  cf findfont cs scalefont dup
  /FontMatrix get 0 get /Ts exch def /FontInfo get dup
  /UnderlinePosition get Ts mul /To exch def
  /UnderlineThickness get Ts mul /Tt exch def
  ux uy To add moveto  Tcx uy To add lineto
  Tt setlinewidth stroke
  grestore
} bd
/OLE {
  /Tcx currentpoint pop def
  gsave
  newpath
  cf findfont cs scalefont dup
  /FontMatrix get 0 get /Ts exch def /FontInfo get dup
  /UnderlinePosition get Ts mul /To exch def
  /UnderlineThickness get Ts mul /Tt exch def
  ux uy To add cs add moveto Tcx uy To add cs add lineto
  Tt setlinewidth stroke
  grestore
} bd
/SOE {
  /Tcx currentpoint pop def
  gsave
  newpath
  cf findfont cs scalefont dup
  /FontMatrix get 0 get /Ts exch def /FontInfo get dup
  /UnderlinePosition get Ts mul /To exch def
  /UnderlineThickness get Ts mul /Tt exch def
  ux uy To add cs 10 mul 26 idiv add moveto Tcx uy To add cs 10 mul 26 idiv add lineto
  Tt setlinewidth stroke
  grestore
} bd
/QT {
/Y22 exch store
/X22 exch store
/Y21 exch store
/X21 exch store
currentpoint
/Y21 load 2 mul add 3 div exch
/X21 load 2 mul add 3 div exch
/X21 load 2 mul /X22 load add 3 div
/Y21 load 2 mul /Y22 load add 3 div
/X22 load /Y22 load curveto
} bd
/SSPD {
dup length /d exch dict def
{
/v exch def
/k exch def
currentpagedevice k known {
/cpdv currentpagedevice k get def
v cpdv ne {
/upd false def
/nullv v type /nulltype eq def
/nullcpdv cpdv type /nulltype eq def
nullv nullcpdv or
{
/upd true def
} {
/sametype v type cpdv type eq def
sametype {
v type /arraytype eq {
/vlen v length def
/cpdvlen cpdv length def
vlen cpdvlen eq {
0 1 vlen 1 sub {
/i exch def
/obj v i get def
/cpdobj cpdv i get def
obj cpdobj ne {
/upd true def
exit
} if
} for
} {
/upd true def
} ifelse
} {
v type /dicttype eq {
v {
/dv exch def
/dk exch def
/cpddv cpdv dk get def
dv cpddv ne {
/upd true def
exit
} if
} forall
} {
/upd true def
} ifelse
} ifelse
} if
} ifelse
upd true eq {
d k v put
} if
} if
} if
} forall
d length 0 gt {
d setpagedevice
} if
} bd
/RE { % /NewFontName [NewEncodingArray] /FontName RE -
  findfont dup length dict begin
  {
    1 index /FID ne
    {def} {pop pop} ifelse
  } forall
  /Encoding exch def
  /FontName 1 index def
  currentdict definefont pop
  end
} bind def
%%EndResource
%%BeginResource: procset (Apache XML Graphics EPS ProcSet) 1.0 0
%%Version: 1.0 0
%%Copyright: (Copyright 2002-2003 The Apache Software Foundation. License terms: http://www.apache.org/licenses/LICENSE-2.0)
/BeginEPSF { %def
/b4_Inc_state save def         % Save state for cleanup
/dict_count countdictstack def % Count objects on dict stack
/op_count count 1 sub def      % Count objects on operand stack
userdict begin                 % Push userdict on dict stack
/showpage { } def              % Redefine showpage, { } = null proc
0 setgray 0 setlinecap         % Prepare graphics state
1 setlinewidth 0 setlinejoin
10 setmiterlimit [ ] 0 setdash newpath
/languagelevel where           % If level not equal to 1 then
{pop languagelevel             % set strokeadjust and
1 ne                           % overprint to their defaults.
{false setstrokeadjust false setoverprint
} if
} if
} bd
/EndEPSF { %def
count op_count sub {pop} repeat            % Clean up stacks
countdictstack dict_count sub {end} repeat
b4_Inc_state restore
} bd
%%EndResource
%FOPBeginFontDict
%%IncludeResource: font Courier-Bold
%%IncludeResource: font Helvetica
%%IncludeResource: font Courier-BoldOblique
%%IncludeResource: font Courier-Oblique
%%IncludeResource: font Times-Roman
%%IncludeResource: font Helvetica-BoldOblique
%%IncludeResource: font Helvetica-Bold
%%IncludeResource: font Helvetica-Oblique
%%IncludeResource: font Times-BoldItalic
%%IncludeResource: font Courier
%%IncludeResource: font Times-Italic
%%IncludeResource: font Times-Bold
%%IncludeResource: font Symbol
%%IncludeResource: font ZapfDingbats
%FOPEndFontDict
%%BeginResource: encoding WinAnsiEncoding
/WinAnsiEncoding [
/.notdef /.notdef /.notdef /.notdef /.notdef
/.notdef /.notdef /.notdef /.notdef /.notdef
/.notdef /.notdef /.notdef /.notdef /.notdef
/.notdef /.notdef /.notdef /.notdef /.notdef
/.notdef /.notdef /.notdef /.notdef /.notdef
/.notdef /.notdef /.notdef /.notdef /.notdef
/.notdef /.notdef /space /exclam /quotedbl
/numbersign /dollar /percent /ampersand /quotesingle
/parenleft /parenright /asterisk /plus /comma
/hyphen /period /slash /zero /one
/two /three /four /five /six
/seven /eight /nine /colon /semicolon
/less /equal /greater /question /at
/A /B /C /D /E
/F /G /H /I /J
/K /L /M /N /O
/P /Q /R /S /T
/U /V /W /X /Y
/Z /bracketleft /backslash /bracketright /asciicircum
/underscore /quoteleft /a /b /c
/d /e /f /g /h
/i /j /k /l /m
/n /o /p /q /r
/s /t /u /v /w
/x /y /z /braceleft /bar
/braceright /asciitilde /bullet /Euro /bullet
/quotesinglbase /florin /quotedblbase /ellipsis /dagger
/daggerdbl /circumflex /perthousand /Scaron /guilsinglleft
/OE /bullet /Zcaron /bullet /bullet
/quoteleft /quoteright /quotedblleft /quotedblright /bullet
/endash /emdash /asciitilde /trademark /scaron
/guilsinglright /oe /bullet /zcaron /Ydieresis
/space /exclamdown /cent /sterling /currency
/yen /brokenbar /section /dieresis /copyright
/ordfeminine /guillemotleft /logicalnot /sfthyphen /registered
/macron /degree /plusminus /twosuperior /threesuperior
/acute /mu /paragraph /middot /cedilla
/onesuperior /ordmasculine /guillemotright /onequarter /onehalf
/threequarters /questiondown /Agrave /Aacute /Acircumflex
/Atilde /Adieresis /Aring /AE /Ccedilla
/Egrave /Eacute /Ecircumflex /Edieresis /Igrave
/Iacute /Icircumflex /Idieresis /Eth /Ntilde
/Ograve /Oacute /Ocircumflex /Otilde /Odieresis
/multiply /Oslash /Ugrave /Uacute /Ucircumflex
/Udieresis /Yacute /Thorn /germandbls /agrave
/aacute /acircumflex /atilde /adieresis /aring
/ae /ccedilla /egrave /eacute /ecircumflex
/edieresis /igrave /iacute /icircumflex /idieresis
/eth /ntilde /ograve /oacute /ocircumflex
/otilde /odieresis /divide /oslash /ugrave
/uacute /ucircumflex /udieresis /yacute /thorn
/ydieresis
] def
%%EndResource
%FOPBeginFontReencode
/Courier-Bold findfont
dup length dict begin
  {1 index /FID ne {def} {pop pop} ifelse} forall
  /Encoding WinAnsiEncoding def
  currentdict
end
/Courier-Bold exch definefont pop
/Helvetica findfont
dup length dict begin
  {1 index /FID ne {def} {pop pop} ifelse} forall
  /Encoding WinAnsiEncoding def
  currentdict
end
/Helvetica exch definefont pop
/Courier-BoldOblique findfont
dup length dict begin
  {1 index /FID ne {def} {pop pop} ifelse} forall
  /Encoding WinAnsiEncoding def
  currentdict
end
/Courier-BoldOblique exch definefont pop
/Courier-Oblique findfont
dup length dict begin
  {1 index /FID ne {def} {pop pop} ifelse} forall
  /Encoding WinAnsiEncoding def
  currentdict
end
/Courier-Oblique exch definefont pop
/Times-Roman findfont
dup length dict begin
  {1 index /FID ne {def} {pop pop} ifelse} forall
  /Encoding WinAnsiEncoding def
  currentdict
end
/Times-Roman exch definefont pop
/Helvetica-BoldOblique findfont
dup length dict begin
  {1 index /FID ne {def} {pop pop} ifelse} forall
  /Encoding WinAnsiEncoding def
  currentdict
end
/Helvetica-BoldOblique exch definefont pop
/Helvetica-Bold findfont
dup length dict begin
  {1 index /FID ne {def} {pop pop} ifelse} forall
  /Encoding WinAnsiEncoding def
  currentdict
end
/Helvetica-Bold exch definefont pop
/Helvetica-Oblique findfont
dup length dict begin
  {1 index /FID ne {def} {pop pop} ifelse} forall
  /Encoding WinAnsiEncoding def
  currentdict
end
/Helvetica-Oblique exch definefont pop
/Times-BoldItalic findfont
dup length dict begin
  {1 index /FID ne {def} {pop pop} ifelse} forall
  /Encoding WinAnsiEncoding def
  currentdict
end
/Times-BoldItalic exch definefont pop
/Courier findfont
dup length dict begin
  {1 index /FID ne {def} {pop pop} ifelse} forall
  /Encoding WinAnsiEncoding def
  currentdict
end
/Courier exch definefont pop
/Times-Italic findfont
dup length dict begin
  {1 index /FID ne {def} {pop pop} ifelse} forall
  /Encoding WinAnsiEncoding def
  currentdict
end
/Times-Italic exch definefont pop
/Times-Bold findfont
dup length dict begin
  {1 index /FID ne {def} {pop pop} ifelse} forall
  /Encoding WinAnsiEncoding def
  currentdict
end
/Times-Bold exch definefont pop
%FOPEndFontReencode
%%EndProlog
%%Page: 1 1
%%PageBoundingBox: 0 0 426 308
%%BeginPageSetup
[1 0 0 -1 0 308] CT
%%EndPageSetup
GS
[0.75 0 0 0.75 0 0.5] CT
N
0 0 M
568 0 L
568 410 L
0 410 L
0 0 L
cp
clip
1 GC
N
0 0 568 410 re
f
GR
GS
[0.75 0 0 0.75 0 0.5] CT
1 GC
N
0 0 568 410 re
f
GR
GS
[0.75 0 0 0.75 0 0.5] CT
1 GC
N
74 365 M
514 365 L
514 31 L
74 31 L
cp
f
GR
GS
[0.75 0 0 0.75 0 0.5] CT
0.149 GC
2 setlinecap
1 LJ
0.667 LW
N
74 365 M
514 365 L
S
GR
GS
[0.75 0 0 0.75 0 0.5] CT
0.149 GC
2 setlinecap
1 LJ
0.667 LW
N
74 31 M
514 31 L
S
GR
GS
[0.75 0 0 0.75 0 0.5] CT
0.149 GC
2 setlinecap
1 LJ
0.667 LW
N
74 365 M
74 360.6 L
S
GR
GS
[0.75 0 0 0.75 0 0.5] CT
0.149 GC
2 setlinecap
1 LJ
0.667 LW
N
118 365 M
118 360.6 L
S
GR
GS
[0.75 0 0 0.75 0 0.5] CT
0.149 GC
2 setlinecap
1 LJ
0.667 LW
N
162 365 M
162 360.6 L
S
GR
GS
[0.75 0 0 0.75 0 0.5] CT
0.149 GC
2 setlinecap
1 LJ
0.667 LW
N
206 365 M
206 360.6 L
S
GR
GS
[0.75 0 0 0.75 0 0.5] CT
0.149 GC
2 setlinecap
1 LJ
0.667 LW
N
250 365 M
250 360.6 L
S
GR
GS
[0.75 0 0 0.75 0 0.5] CT
0.149 GC
2 setlinecap
1 LJ
0.667 LW
N
294 365 M
294 360.6 L
S
GR
GS
[0.75 0 0 0.75 0 0.5] CT
0.149 GC
2 setlinecap
1 LJ
0.667 LW
N
338 365 M
338 360.6 L
S
GR
GS
[0.75 0 0 0.75 0 0.5] CT
0.149 GC
2 setlinecap
1 LJ
0.667 LW
N
382 365 M
382 360.6 L
S
GR
GS
[0.75 0 0 0.75 0 0.5] CT
0.149 GC
2 setlinecap
1 LJ
0.667 LW
N
426 365 M
426 360.6 L
S
GR
GS
[0.75 0 0 0.75 0 0.5] CT
0.149 GC
2 setlinecap
1 LJ
0.667 LW
N
470 365 M
470 360.6 L
S
GR
GS
[0.75 0 0 0.75 0 0.5] CT
0.149 GC
2 setlinecap
1 LJ
0.667 LW
N
514 365 M
514 360.6 L
S
GR
GS
[0.75 0 0 0.75 0 0.5] CT
0.149 GC
2 setlinecap
1 LJ
0.667 LW
N
74 31 M
74 35.4 L
S
GR
GS
[0.75 0 0 0.75 0 0.5] CT
0.149 GC
2 setlinecap
1 LJ
0.667 LW
N
118 31 M
118 35.4 L
S
GR
GS
[0.75 0 0 0.75 0 0.5] CT
0.149 GC
2 setlinecap
1 LJ
0.667 LW
N
162 31 M
162 35.4 L
S
GR
GS
[0.75 0 0 0.75 0 0.5] CT
0.149 GC
2 setlinecap
1 LJ
0.667 LW
N
206 31 M
206 35.4 L
S
GR
GS
[0.75 0 0 0.75 0 0.5] CT
0.149 GC
2 setlinecap
1 LJ
0.667 LW
N
250 31 M
250 35.4 L
S
GR
GS
[0.75 0 0 0.75 0 0.5] CT
0.149 GC
2 setlinecap
1 LJ
0.667 LW
N
294 31 M
294 35.4 L
S
GR
GS
[0.75 0 0 0.75 0 0.5] CT
0.149 GC
2 setlinecap
1 LJ
0.667 LW
N
338 31 M
338 35.4 L
S
GR
GS
[0.75 0 0 0.75 0 0.5] CT
0.149 GC
2 setlinecap
1 LJ
0.667 LW
N
382 31 M
382 35.4 L
S
GR
GS
[0.75 0 0 0.75 0 0.5] CT
0.149 GC
2 setlinecap
1 LJ
0.667 LW
N
426 31 M
426 35.4 L
S
GR
GS
[0.75 0 0 0.75 0 0.5] CT
0.149 GC
2 setlinecap
1 LJ
0.667 LW
N
470 31 M
470 35.4 L
S
GR
GS
[0.75 0 0 0.75 0 0.5] CT
0.149 GC
2 setlinecap
1 LJ
0.667 LW
N
514 31 M
514 35.4 L
S
GR
GS
[0.75 0 0 0.75 55.5 278.25001] CT
0.149 GC
/Helvetica-Bold 13.333 F
GS
[1 0 0 1 0 0] CT
-5 13 moveto 
1 -1 scale
(0) t 
GR
GR
GS
[0.75 0 0 0.75 88.5 278.25001] CT
0.149 GC
/Helvetica-Bold 13.333 F
GS
[1 0 0 1 0 0] CT
-12 13 moveto 
1 -1 scale
(0.1) t 
GR
GR
GS
[0.75 0 0 0.75 121.5 278.25001] CT
0.149 GC
/Helvetica-Bold 13.333 F
GS
[1 0 0 1 0 0] CT
-12 13 moveto 
1 -1 scale
(0.2) t 
GR
GR
GS
[0.75 0 0 0.75 154.5 278.25001] CT
0.149 GC
/Helvetica-Bold 13.333 F
GS
[1 0 0 1 0 0] CT
-12 13 moveto 
1 -1 scale
(0.3) t 
GR
GR
GS
[0.75 0 0 0.75 187.5 278.25001] CT
0.149 GC
/Helvetica-Bold 13.333 F
GS
[1 0 0 1 0 0] CT
-12 13 moveto 
1 -1 scale
(0.4) t 
GR
GR
GS
[0.75 0 0 0.75 220.5 278.25001] CT
0.149 GC
/Helvetica-Bold 13.333 F
GS
[1 0 0 1 0 0] CT
-12 13 moveto 
1 -1 scale
(0.5) t 
GR
GR
GS
[0.75 0 0 0.75 253.5 278.25001] CT
0.149 GC
/Helvetica-Bold 13.333 F
GS
[1 0 0 1 0 0] CT
-12 13 moveto 
1 -1 scale
(0.6) t 
GR
GR
GS
[0.75 0 0 0.75 286.5 278.25001] CT
0.149 GC
/Helvetica-Bold 13.333 F
GS
[1 0 0 1 0 0] CT
-12 13 moveto 
1 -1 scale
(0.7) t 
GR
GR
GS
[0.75 0 0 0.75 319.5 278.25001] CT
0.149 GC
/Helvetica-Bold 13.333 F
GS
[1 0 0 1 0 0] CT
-12 13 moveto 
1 -1 scale
(0.8) t 
GR
GR
GS
[0.75 0 0 0.75 352.5 278.25001] CT
0.149 GC
/Helvetica-Bold 13.333 F
GS
[1 0 0 1 0 0] CT
-12 13 moveto 
1 -1 scale
(0.9) t 
GR
GR
GS
[0.75 0 0 0.75 385.5 278.25001] CT
0.149 GC
/Helvetica-Bold 13.333 F
GS
[1 0 0 1 0 0] CT
-5 13 moveto 
1 -1 scale
(1) t 
GR
GR
GS
[0.75 0 0 0.75 0 0.5] CT
0.149 GC
2 setlinecap
1 LJ
0.667 LW
N
74 365 M
74 31 L
S
GR
GS
[0.75 0 0 0.75 0 0.5] CT
0.149 GC
2 setlinecap
1 LJ
0.667 LW
N
514 365 M
514 31 L
S
GR
GS
[0.75 0 0 0.75 0 0.5] CT
0.149 GC
2 setlinecap
1 LJ
0.667 LW
N
74 365 M
78.4 365 L
S
GR
GS
[0.75 0 0 0.75 0 0.5] CT
0.149 GC
2 setlinecap
1 LJ
0.667 LW
N
74 331.6 M
78.4 331.6 L
S
GR
GS
[0.75 0 0 0.75 0 0.5] CT
0.149 GC
2 setlinecap
1 LJ
0.667 LW
N
74 298.2 M
78.4 298.2 L
S
GR
GS
[0.75 0 0 0.75 0 0.5] CT
0.149 GC
2 setlinecap
1 LJ
0.667 LW
N
74 264.8 M
78.4 264.8 L
S
GR
GS
[0.75 0 0 0.75 0 0.5] CT
0.149 GC
2 setlinecap
1 LJ
0.667 LW
N
74 231.4 M
78.4 231.4 L
S
GR
GS
[0.75 0 0 0.75 0 0.5] CT
0.149 GC
2 setlinecap
1 LJ
0.667 LW
N
74 198 M
78.4 198 L
S
GR
GS
[0.75 0 0 0.75 0 0.5] CT
0.149 GC
2 setlinecap
1 LJ
0.667 LW
N
74 164.6 M
78.4 164.6 L
S
GR
GS
[0.75 0 0 0.75 0 0.5] CT
0.149 GC
2 setlinecap
1 LJ
0.667 LW
N
74 131.2 M
78.4 131.2 L
S
GR
GS
[0.75 0 0 0.75 0 0.5] CT
0.149 GC
2 setlinecap
1 LJ
0.667 LW
N
74 97.8 M
78.4 97.8 L
S
GR
GS
[0.75 0 0 0.75 0 0.5] CT
0.149 GC
2 setlinecap
1 LJ
0.667 LW
N
74 64.4 M
78.4 64.4 L
S
GR
GS
[0.75 0 0 0.75 0 0.5] CT
0.149 GC
2 setlinecap
1 LJ
0.667 LW
N
74 31 M
78.4 31 L
S
GR
GS
[0.75 0 0 0.75 0 0.5] CT
0.149 GC
2 setlinecap
1 LJ
0.667 LW
N
514 365 M
509.6 365 L
S
GR
GS
[0.75 0 0 0.75 0 0.5] CT
0.149 GC
2 setlinecap
1 LJ
0.667 LW
N
514 331.6 M
509.6 331.6 L
S
GR
GS
[0.75 0 0 0.75 0 0.5] CT
0.149 GC
2 setlinecap
1 LJ
0.667 LW
N
514 298.2 M
509.6 298.2 L
S
GR
GS
[0.75 0 0 0.75 0 0.5] CT
0.149 GC
2 setlinecap
1 LJ
0.667 LW
N
514 264.8 M
509.6 264.8 L
S
GR
GS
[0.75 0 0 0.75 0 0.5] CT
0.149 GC
2 setlinecap
1 LJ
0.667 LW
N
514 231.4 M
509.6 231.4 L
S
GR
GS
[0.75 0 0 0.75 0 0.5] CT
0.149 GC
2 setlinecap
1 LJ
0.667 LW
N
514 198 M
509.6 198 L
S
GR
GS
[0.75 0 0 0.75 0 0.5] CT
0.149 GC
2 setlinecap
1 LJ
0.667 LW
N
514 164.6 M
509.6 164.6 L
S
GR
GS
[0.75 0 0 0.75 0 0.5] CT
0.149 GC
2 setlinecap
1 LJ
0.667 LW
N
514 131.2 M
509.6 131.2 L
S
GR
GS
[0.75 0 0 0.75 0 0.5] CT
0.149 GC
2 setlinecap
1 LJ
0.667 LW
N
514 97.8 M
509.6 97.8 L
S
GR
GS
[0.75 0 0 0.75 0 0.5] CT
0.149 GC
2 setlinecap
1 LJ
0.667 LW
N
514 64.4 M
509.6 64.4 L
S
GR
GS
[0.75 0 0 0.75 0 0.5] CT
0.149 GC
2 setlinecap
1 LJ
0.667 LW
N
514 31 M
509.6 31 L
S
GR
GS
[0.75 0 0 0.75 51.5 274.25] CT
0.149 GC
/Helvetica-Bold 13.333 F
GS
[1 0 0 1 0 0] CT
-10 4.5 moveto 
1 -1 scale
(0) t 
GR
GR
GS
[0.75 0 0 0.75 51.5 249.2] CT
0.149 GC
/Helvetica-Bold 13.333 F
GS
[1 0 0 1 0 0] CT
-24 4.5 moveto 
1 -1 scale
(0.1) t 
GR
GR
GS
[0.75 0 0 0.75 51.5 224.15001] CT
0.149 GC
/Helvetica-Bold 13.333 F
GS
[1 0 0 1 0 0] CT
-24 4.5 moveto 
1 -1 scale
(0.2) t 
GR
GR
GS
[0.75 0 0 0.75 51.5 199.09999] CT
0.149 GC
/Helvetica-Bold 13.333 F
GS
[1 0 0 1 0 0] CT
-24 4.5 moveto 
1 -1 scale
(0.3) t 
GR
GR
GS
[0.75 0 0 0.75 51.5 174.05] CT
0.149 GC
/Helvetica-Bold 13.333 F
GS
[1 0 0 1 0 0] CT
-24 4.5 moveto 
1 -1 scale
(0.4) t 
GR
GR
GS
[0.75 0 0 0.75 51.5 149] CT
0.149 GC
/Helvetica-Bold 13.333 F
GS
[1 0 0 1 0 0] CT
-24 4.5 moveto 
1 -1 scale
(0.5) t 
GR
GR
GS
[0.75 0 0 0.75 51.5 123.94999] CT
0.149 GC
/Helvetica-Bold 13.333 F
GS
[1 0 0 1 0 0] CT
-24 4.5 moveto 
1 -1 scale
(0.6) t 
GR
GR
GS
[0.75 0 0 0.75 51.5 98.9] CT
0.149 GC
/Helvetica-Bold 13.333 F
GS
[1 0 0 1 0 0] CT
-24 4.5 moveto 
1 -1 scale
(0.7) t 
GR
GR
GS
[0.75 0 0 0.75 51.5 73.85] CT
0.149 GC
/Helvetica-Bold 13.333 F
GS
[1 0 0 1 0 0] CT
-24 4.5 moveto 
1 -1 scale
(0.8) t 
GR
GR
GS
[0.75 0 0 0.75 51.5 48.80001] CT
0.149 GC
/Helvetica-Bold 13.333 F
GS
[1 0 0 1 0 0] CT
-24 4.5 moveto 
1 -1 scale
(0.9) t 
GR
GR
GS
[0.75 0 0 0.75 51.5 23.75] CT
0.149 GC
/Helvetica-Bold 13.333 F
GS
[1 0 0 1 0 0] CT
-10 4.5 moveto 
1 -1 scale
(1) t 
GR
GR
GS
[0 -0.75 0.75 0 30.5 148.99989] CT
0.149 GC
/Helvetica-Bold 14.667 F
GS
[1 0 0 1 0 0] CT
-96.5 -4 moveto 
1 -1 scale
(Degree of Membership) t 
GR
GR
GS
[0.75 0 0 0.75 0 0.5] CT
0 0.447 0.741 RC
1 LJ
4 LW
N
74 365 M
74.88 365 L
75.76 365 L
76.64 365 L
77.52 365 L
78.4 365 L
79.28 365 L
80.16 365 L
81.04 365 L
81.92 365 L
82.8 365 L
83.68 365 L
84.56 365 L
85.44 365 L
86.32 365 L
87.2 365 L
88.08 365 L
88.96 365 L
89.84 365 L
90.72 365 L
91.6 365 L
92.48 365 L
93.36 365 L
94.24 365 L
95.12 365 L
96 365 L
96.88 365 L
97.76 365 L
98.64 365 L
99.52 365 L
100.4 365 L
101.28 365 L
102.16 365 L
103.04 365 L
103.92 365 L
104.8 365 L
105.68 365 L
106.56 365 L
107.44 365 L
108.32 365 L
109.2 365 L
110.08 365 L
110.96 365 L
111.84 365 L
112.72 365 L
113.6 365 L
114.48 365 L
115.36 365 L
116.24 365 L
117.12 365 L
118 365 L
118.88 365 L
119.76 365 L
120.64 365 L
121.52 365 L
122.4 365 L
123.28 365 L
124.16 365 L
125.04 365 L
125.92 365 L
126.8 365 L
127.68 365 L
128.56 365 L
129.44 365 L
130.32 365 L
131.2 365 L
132.08 365 L
132.96 365 L
133.84 365 L
134.72 365 L
135.6 365 L
136.48 365 L
137.36 365 L
138.24 365 L
139.12 365 L
140 365 L
140.88 365 L
141.76 365 L
142.64 365 L
143.52 365 L
144.4 365 L
145.28 365 L
146.16 365 L
147.04 365 L
147.92 365 L
148.8 365 L
149.68 365 L
150.56 365 L
151.44 365 L
152.32 365 L
153.2 365 L
154.08 365 L
154.96 365 L
155.84 365 L
156.72 365 L
157.6 365 L
158.48 365 L
159.36 365 L
160.24 365 L
161.12 365 L
162 365 L
162.88 365 L
163.76 365 L
164.64 365 L
165.52 365 L
166.4 365 L
167.28 365 L
168.16 365 L
169.04 365 L
169.92 365 L
170.8 365 L
171.68 365 L
172.56 365 L
173.44 365 L
174.32 365 L
175.2 365 L
176.08 365 L
176.96 365 L
177.84 365 L
178.72 365 L
179.6 365 L
180.48 365 L
181.36 365 L
182.24 365 L
183.12 365 L
184 365 L
184.88 365 L
185.76 365 L
186.64 365 L
187.52 365 L
188.4 365 L
189.28 365 L
190.16 365 L
191.04 365 L
191.92 365 L
192.8 365 L
193.68 365 L
194.56 365 L
195.44 365 L
196.32 365 L
197.2 365 L
198.08 365 L
198.96 365 L
199.84 365 L
200.72 365 L
201.6 365 L
202.48 365 L
203.36 365 L
204.24 365 L
205.12 365 L
206 365 L
206.88 365 L
207.76 365 L
208.64 365 L
209.52 365 L
210.4 365 L
211.28 365 L
212.16 365 L
213.04 365 L
213.92 365 L
214.8 365 L
215.68 365 L
216.56 365 L
217.44 365 L
218.32 365 L
219.2 365 L
220.08 365 L
220.96 365 L
221.84 365 L
222.72 365 L
223.6 365 L
224.48 365 L
225.36 365 L
226.24 365 L
227.12 365 L
228 365 L
228.88 365 L
229.76 365 L
230.64 365 L
231.52 365 L
232.4 365 L
233.28 365 L
234.16 365 L
235.04 365 L
235.92 365 L
236.8 365 L
237.68 365 L
238.56 365 L
239.44 365 L
240.32 365 L
241.2 365 L
242.08 365 L
242.96 365 L
243.84 365 L
244.72 365 L
245.6 365 L
246.48 365 L
247.36 365 L
248.24 365 L
249.12 365 L
250 365 L
250.88 365 L
251.76 365 L
252.64 365 L
253.52 365 L
254.4 365 L
255.28 365 L
256.16 365 L
257.04 365 L
257.92 365 L
258.8 365 L
259.68 365 L
260.56 365 L
261.44 365 L
262.32 365 L
263.2 365 L
264.08 365 L
264.96 365 L
265.84 365 L
266.72 365 L
267.6 365 L
268.48 365 L
269.36 365 L
270.24 365 L
271.12 365 L
272 365 L
272.88 365 L
273.76 365 L
274.64 365 L
275.52 365 L
276.4 365 L
277.28 365 L
278.16 365 L
279.04 365 L
279.92 365 L
280.8 365 L
281.68 365 L
282.56 365 L
283.44 365 L
284.32 365 L
285.2 365 L
286.08 365 L
286.96 365 L
287.84 365 L
288.72 365 L
289.6 365 L
290.48 365 L
291.36 365 L
292.24 365 L
293.12 365 L
294 365 L
294.88 31 L
295.76 31 L
296.64 31 L
297.52 31 L
298.4 31 L
299.28 31 L
300.16 31 L
301.04 31 L
301.92 31 L
302.8 31 L
303.68 31 L
304.56 31 L
305.44 31 L
306.32 31 L
307.2 31 L
308.08 31 L
308.96 31 L
309.84 31 L
310.72 31 L
311.6 31 L
312.48 31 L
313.36 31 L
314.24 31 L
315.12 31 L
316 31 L
316.88 31 L
317.76 31 L
318.64 31 L
319.52 31 L
320.4 31 L
321.28 31 L
322.16 31 L
323.04 31 L
323.92 31 L
324.8 31 L
325.68 31 L
326.56 31 L
327.44 31 L
328.32 31 L
329.2 31 L
330.08 31 L
330.96 31 L
331.84 31 L
332.72 31 L
333.6 31 L
334.48 31 L
335.36 31 L
336.24 31 L
337.12 31 L
338 31 L
338.88 31 L
339.76 31 L
340.64 31 L
341.52 31 L
342.4 31 L
343.28 31 L
344.16 31 L
345.04 31 L
345.92 31 L
346.8 31 L
347.68 31 L
348.56 31 L
349.44 31 L
350.32 31 L
351.2 31 L
352.08 31 L
352.96 31 L
353.84 31 L
354.72 31 L
355.6 31 L
356.48 31 L
357.36 31 L
358.24 31 L
359.12 31 L
360 31 L
360.88 31 L
361.76 31 L
362.64 31 L
363.52 31 L
364.4 31 L
365.28 31 L
366.16 31 L
367.04 31 L
367.92 31 L
368.8 31 L
369.68 31 L
370.56 31 L
371.44 31 L
372.32 31 L
373.2 31 L
374.08 31 L
374.96 31 L
375.84 31 L
376.72 31 L
377.6 31 L
378.48 31 L
379.36 31 L
380.24 31 L
381.12 31 L
382 31 L
382.88 31 L
383.76 31 L
384.64 31 L
385.52 31 L
386.4 31 L
387.28 31 L
388.16 31 L
389.04 31 L
389.92 31 L
390.8 31 L
391.68 31 L
392.56 31 L
393.44 31 L
394.32 31 L
395.2 31 L
396.08 31 L
396.96 31 L
397.84 31 L
398.72 31 L
399.6 31 L
400.48 31 L
401.36 31 L
402.24 31 L
403.12 31 L
404 31 L
404.88 31 L
405.76 31 L
406.64 31 L
407.52 31 L
408.4 31 L
409.28 31 L
410.16 31 L
411.04 31 L
411.92 31 L
412.8 31 L
413.68 31 L
414.56 31 L
415.44 31 L
416.32 31 L
417.2 31 L
418.08 31 L
418.96 31 L
419.84 31 L
420.72 31 L
421.6 31 L
422.48 31 L
423.36 31 L
424.24 31 L
425.12 31 L
426 31 L
426.88 31 L
427.76 31 L
428.64 31 L
429.52 31 L
430.4 31 L
431.28 31 L
432.16 31 L
433.04 31 L
433.92 31 L
434.8 31 L
435.68 31 L
436.56 31 L
437.44 31 L
438.32 31 L
439.2 31 L
440.08 31 L
440.96 31 L
441.84 31 L
442.72 31 L
443.6 31 L
444.48 31 L
445.36 31 L
446.24 31 L
447.12 31 L
448 31 L
448.88 31 L
449.76 31 L
450.64 31 L
451.52 31 L
452.4 31 L
453.28 31 L
454.16 31 L
455.04 31 L
455.92 31 L
456.8 31 L
457.68 31 L
458.56 31 L
459.44 31 L
460.32 31 L
461.2 31 L
462.08 31 L
462.96 31 L
463.84 31 L
464.72 31 L
465.6 31 L
466.48 31 L
467.36 31 L
468.24 31 L
469.12 31 L
470 31 L
470.88 31 L
471.76 31 L
472.64 31 L
473.52 31 L
474.4 31 L
475.28 31 L
476.16 31 L
477.04 31 L
477.92 31 L
478.8 31 L
479.68 31 L
480.56 31 L
481.44 31 L
482.32 31 L
483.2 31 L
484.08 31 L
484.96 31 L
485.84 31 L
486.72 31 L
487.6 31 L
488.48 31 L
489.36 31 L
490.24 31 L
491.12 31 L
492 31 L
492.88 31 L
493.76 31 L
494.64 31 L
495.52 31 L
496.4 31 L
497.28 31 L
498.16 31 L
499.04 31 L
499.92 31 L
500.8 31 L
501.68 31 L
502.56 31 L
503.44 31 L
504.32 31 L
505.2 31 L
506.08 31 L
506.96 31 L
507.84 31 L
508.72 31 L
509.6 31 L
510.48 31 L
511.36 31 L
512.24 31 L
513.12 31 L
514 31 L
S
GR
GS
[0.75 0 0 0.75 0 0.5] CT
0.851 0.325 0.098 RC
1 LJ
4 LW
N
74 365 M
74.88 365 L
75.76 365 L
76.64 365 L
77.52 365 L
78.4 365 L
79.28 365 L
80.16 365 L
81.04 365 L
81.92 365 L
82.8 365 L
83.68 365 L
84.56 365 L
85.44 365 L
86.32 365 L
87.2 365 L
88.08 365 L
88.96 365 L
89.84 365 L
90.72 365 L
91.6 365 L
92.48 365 L
93.36 365 L
94.24 365 L
95.12 365 L
96 365 L
96.88 365 L
97.76 365 L
98.64 365 L
99.52 365 L
100.4 365 L
101.28 365 L
102.16 365 L
103.04 365 L
103.92 365 L
104.8 365 L
105.68 365 L
106.56 365 L
107.44 365 L
108.32 365 L
109.2 365 L
110.08 365 L
110.96 365 L
111.84 365 L
112.72 365 L
113.6 365 L
114.48 365 L
115.36 365 L
116.24 365 L
117.12 365 L
118 365 L
118.88 365 L
119.76 365 L
120.64 365 L
121.52 365 L
122.4 365 L
123.28 365 L
124.16 365 L
125.04 365 L
125.92 365 L
126.8 365 L
127.68 365 L
128.56 365 L
129.44 365 L
130.32 365 L
131.2 365 L
132.08 365 L
132.96 365 L
133.84 365 L
134.72 365 L
135.6 365 L
136.48 365 L
137.36 365 L
138.24 365 L
139.12 365 L
140 365 L
140.88 365 L
141.76 365 L
142.64 365 L
143.52 365 L
144.4 365 L
145.28 365 L
146.16 365 L
147.04 365 L
147.92 365 L
148.8 365 L
149.68 365 L
150.56 365 L
151.44 365 L
152.32 365 L
153.2 365 L
154.08 365 L
154.96 365 L
155.84 365 L
156.72 365 L
157.6 365 L
158.48 365 L
159.36 365 L
160.24 365 L
161.12 365 L
162 365 L
162.88 363.887 L
163.76 362.773 L
164.64 361.66 L
165.52 360.547 L
166.4 359.433 L
167.28 358.32 L
168.16 357.207 L
169.04 356.093 L
169.92 354.98 L
170.8 353.867 L
171.68 352.753 L
172.56 351.64 L
173.44 350.527 L
174.32 349.413 L
175.2 348.3 L
176.08 347.187 L
176.96 346.073 L
177.84 344.96 L
178.72 343.847 L
179.6 342.733 L
180.48 341.62 L
181.36 340.507 L
182.24 339.393 L
183.12 338.28 L
184 337.167 L
184.88 336.053 L
185.76 334.94 L
186.64 333.827 L
187.52 332.713 L
188.4 331.6 L
189.28 330.487 L
190.16 329.373 L
191.04 328.26 L
191.92 327.147 L
192.8 326.033 L
193.68 324.92 L
194.56 323.807 L
195.44 322.693 L
196.32 321.58 L
197.2 320.467 L
198.08 319.353 L
198.96 318.24 L
199.84 317.127 L
200.72 316.013 L
201.6 314.9 L
202.48 313.787 L
203.36 312.673 L
204.24 311.56 L
205.12 310.447 L
206 309.333 L
206.88 308.22 L
207.76 307.107 L
208.64 305.993 L
209.52 304.88 L
210.4 303.767 L
211.28 302.653 L
212.16 301.54 L
213.04 300.427 L
213.92 299.313 L
214.8 298.2 L
215.68 297.087 L
216.56 295.973 L
217.44 294.86 L
218.32 293.747 L
219.2 292.633 L
220.08 291.52 L
220.96 290.407 L
221.84 289.293 L
222.72 288.18 L
223.6 287.067 L
224.48 285.953 L
225.36 284.84 L
226.24 283.727 L
227.12 282.613 L
228 281.5 L
228.88 280.387 L
229.76 279.273 L
230.64 278.16 L
231.52 277.047 L
232.4 275.933 L
233.28 274.82 L
234.16 273.707 L
235.04 272.593 L
235.92 271.48 L
236.8 270.367 L
237.68 269.253 L
238.56 268.14 L
239.44 267.027 L
240.32 265.913 L
241.2 264.8 L
242.08 263.687 L
242.96 262.573 L
243.84 261.46 L
244.72 260.347 L
245.6 259.233 L
246.48 258.12 L
247.36 257.007 L
248.24 255.893 L
249.12 254.78 L
250 253.667 L
250.88 252.553 L
251.76 251.44 L
252.64 250.327 L
253.52 249.213 L
254.4 248.1 L
255.28 246.987 L
256.16 245.873 L
257.04 244.76 L
257.92 243.647 L
258.8 242.533 L
259.68 241.42 L
260.56 240.307 L
261.44 239.193 L
262.32 238.08 L
263.2 236.967 L
264.08 235.853 L
264.96 234.74 L
265.84 233.627 L
266.72 232.513 L
267.6 231.4 L
268.48 230.287 L
269.36 229.173 L
270.24 228.06 L
271.12 226.947 L
272 225.833 L
272.88 224.72 L
273.76 223.607 L
274.64 222.493 L
275.52 221.38 L
276.4 220.267 L
277.28 219.153 L
278.16 218.04 L
279.04 216.927 L
279.92 215.813 L
280.8 214.7 L
281.68 213.587 L
282.56 212.473 L
283.44 211.36 L
284.32 210.247 L
285.2 209.133 L
286.08 208.02 L
286.96 206.907 L
287.84 205.793 L
288.72 204.68 L
289.6 203.567 L
290.48 202.453 L
291.36 201.34 L
292.24 200.227 L
293.12 199.113 L
294 198 L
294.88 196.887 L
295.76 195.773 L
296.64 194.66 L
297.52 193.547 L
298.4 192.433 L
299.28 191.32 L
300.16 190.207 L
301.04 189.093 L
301.92 187.98 L
302.8 186.867 L
303.68 185.753 L
304.56 184.64 L
305.44 183.527 L
306.32 182.413 L
307.2 181.3 L
308.08 180.187 L
308.96 179.073 L
309.84 177.96 L
310.72 176.847 L
311.6 175.733 L
312.48 174.62 L
313.36 173.507 L
314.24 172.393 L
315.12 171.28 L
316 170.167 L
316.88 169.053 L
317.76 167.94 L
318.64 166.827 L
319.52 165.713 L
320.4 164.6 L
321.28 163.487 L
322.16 162.373 L
323.04 161.26 L
323.92 160.147 L
324.8 159.033 L
325.68 157.92 L
326.56 156.807 L
327.44 155.693 L
328.32 154.58 L
329.2 153.467 L
330.08 152.353 L
330.96 151.24 L
331.84 150.127 L
332.72 149.013 L
333.6 147.9 L
334.48 146.787 L
335.36 145.673 L
336.24 144.56 L
337.12 143.447 L
338 142.333 L
338.88 141.22 L
339.76 140.107 L
340.64 138.993 L
341.52 137.88 L
342.4 136.767 L
343.28 135.653 L
344.16 134.54 L
345.04 133.427 L
345.92 132.313 L
346.8 131.2 L
347.68 130.087 L
348.56 128.973 L
349.44 127.86 L
350.32 126.747 L
351.2 125.633 L
352.08 124.52 L
352.96 123.407 L
353.84 122.293 L
354.72 121.18 L
355.6 120.067 L
356.48 118.953 L
357.36 117.84 L
358.24 116.727 L
359.12 115.613 L
360 114.5 L
360.88 113.387 L
361.76 112.273 L
362.64 111.16 L
363.52 110.047 L
364.4 108.933 L
365.28 107.82 L
366.16 106.707 L
367.04 105.593 L
367.92 104.48 L
368.8 103.367 L
369.68 102.253 L
370.56 101.14 L
371.44 100.027 L
372.32 98.913 L
373.2 97.8 L
374.08 96.687 L
374.96 95.573 L
375.84 94.46 L
376.72 93.347 L
377.6 92.233 L
378.48 91.12 L
379.36 90.007 L
380.24 88.893 L
381.12 87.78 L
382 86.667 L
382.88 85.553 L
383.76 84.44 L
384.64 83.327 L
385.52 82.213 L
386.4 81.1 L
387.28 79.987 L
388.16 78.873 L
389.04 77.76 L
389.92 76.647 L
390.8 75.533 L
391.68 74.42 L
392.56 73.307 L
393.44 72.193 L
394.32 71.08 L
395.2 69.967 L
396.08 68.853 L
396.96 67.74 L
397.84 66.627 L
398.72 65.513 L
399.6 64.4 L
400.48 63.287 L
401.36 62.173 L
402.24 61.06 L
403.12 59.947 L
404 58.833 L
404.88 57.72 L
405.76 56.607 L
406.64 55.493 L
407.52 54.38 L
408.4 53.267 L
409.28 52.153 L
410.16 51.04 L
411.04 49.927 L
411.92 48.813 L
412.8 47.7 L
413.68 46.587 L
414.56 45.473 L
415.44 44.36 L
416.32 43.247 L
417.2 42.133 L
418.08 41.02 L
418.96 39.907 L
419.84 38.793 L
420.72 37.68 L
421.6 36.567 L
422.48 35.453 L
423.36 34.34 L
424.24 33.227 L
425.12 32.113 L
426 31 L
426.88 31 L
427.76 31 L
428.64 31 L
429.52 31 L
430.4 31 L
431.28 31 L
432.16 31 L
433.04 31 L
433.92 31 L
434.8 31 L
435.68 31 L
436.56 31 L
437.44 31 L
438.32 31 L
439.2 31 L
440.08 31 L
440.96 31 L
441.84 31 L
442.72 31 L
443.6 31 L
444.48 31 L
445.36 31 L
446.24 31 L
447.12 31 L
448 31 L
448.88 31 L
449.76 31 L
450.64 31 L
451.52 31 L
452.4 31 L
453.28 31 L
454.16 31 L
455.04 31 L
455.92 31 L
456.8 31 L
457.68 31 L
458.56 31 L
459.44 31 L
460.32 31 L
461.2 31 L
462.08 31 L
462.96 31 L
463.84 31 L
464.72 31 L
465.6 31 L
466.48 31 L
467.36 31 L
468.24 31 L
469.12 31 L
470 31 L
470.88 31 L
471.76 31 L
472.64 31 L
473.52 31 L
474.4 31 L
475.28 31 L
476.16 31 L
477.04 31 L
477.92 31 L
478.8 31 L
479.68 31 L
480.56 31 L
481.44 31 L
482.32 31 L
483.2 31 L
484.08 31 L
484.96 31 L
485.84 31 L
486.72 31 L
487.6 31 L
488.48 31 L
489.36 31 L
490.24 31 L
491.12 31 L
492 31 L
492.88 31 L
493.76 31 L
494.64 31 L
495.52 31 L
496.4 31 L
497.28 31 L
498.16 31 L
499.04 31 L
499.92 31 L
500.8 31 L
501.68 31 L
502.56 31 L
503.44 31 L
504.32 31 L
505.2 31 L
506.08 31 L
506.96 31 L
507.84 31 L
508.72 31 L
509.6 31 L
510.48 31 L
511.36 31 L
512.24 31 L
513.12 31 L
514 31 L
S
GR
GS
[0.75 0 0 0.75 0 0.5] CT
1 GC
N
275 352 M
275 317 L
501 317 L
501 352 L
cp
f
GR
GS
[0.75 0 0 0.75 234 245.47827] CT
/Helvetica-Bold 12 F
GS
[1 0 0 1 0 0] CT
0 4.5 moveto 
1 -1 scale
(crisp membership function) t 
GR
GR
GS
[0.75 0 0 0.75 0 0.5] CT
0 0.447 0.741 RC
1 LJ
4 LW
N
279 326.638 M
309 326.638 L
S
GR
GS
[0.75 0 0 0.75 234 257.27173] CT
/Helvetica-Bold 12 F
GS
[1 0 0 1 0 0] CT
0 4.5 moveto 
1 -1 scale
(fuzzy membership function) t 
GR
GR
GS
[0.75 0 0 0.75 0 0.5] CT
0.851 0.325 0.098 RC
1 LJ
4 LW
N
279 342.362 M
309 342.362 L
S
GR
GS
[0.75 0 0 0.75 0 0.5] CT
0.149 GC
10.0 ML
0.667 LW
N
275 352 M
275 317 L
501 317 L
501 352 L
cp
S
GR
%%Trailer
%%Pages: 1
%%EOF
