%!PS-Adobe-3.0 EPSF-3.0
%%Creator: (MATLAB, The Mathworks, Inc. Version 9.1.0.441655 \(R2016b\). Operating System: Linux)
%%Title: /home/ncaban/Thesis_materials/images/location_20min.eps
%%CreationDate: 2018-08-30T12:11:30
%%Pages: (atend)
%%BoundingBox:    12     3   387   285
%%LanguageLevel: 3
%%EndComments
%%BeginProlog
%%BeginResource: procset (Apache XML Graphics Std ProcSet) 1.2 0
%%Version: 1.2 0
%%Copyright: (Copyright 2001-2003,2010 The Apache Software Foundation. License terms: http://www.apache.org/licenses/LICENSE-2.0)
/bd{bind def}bind def
/ld{load def}bd
/GR/grestore ld
/M/moveto ld
/LJ/setlinejoin ld
/C/curveto ld
/f/fill ld
/LW/setlinewidth ld
/GC/setgray ld
/t/show ld
/N/newpath ld
/CT/concat ld
/cp/closepath ld
/S/stroke ld
/L/lineto ld
/CC/setcmykcolor ld
/A/ashow ld
/GS/gsave ld
/RC/setrgbcolor ld
/RM/rmoveto ld
/ML/setmiterlimit ld
/re {4 2 roll M
1 index 0 rlineto
0 exch rlineto
neg 0 rlineto
cp } bd
/_ctm matrix def
/_tm matrix def
/BT { _ctm currentmatrix pop matrix _tm copy pop 0 0 moveto } bd
/ET { _ctm setmatrix } bd
/iTm { _ctm setmatrix _tm concat } bd
/Tm { _tm astore pop iTm 0 0 moveto } bd
/ux 0.0 def
/uy 0.0 def
/F {
  /Tp exch def
  /Tf exch def
  Tf findfont Tp scalefont setfont
  /cf Tf def  /cs Tp def
} bd
/ULS {currentpoint /uy exch def /ux exch def} bd
/ULE {
  /Tcx currentpoint pop def
  gsave
  newpath
  cf findfont cs scalefont dup
  /FontMatrix get 0 get /Ts exch def /FontInfo get dup
  /UnderlinePosition get Ts mul /To exch def
  /UnderlineThickness get Ts mul /Tt exch def
  ux uy To add moveto  Tcx uy To add lineto
  Tt setlinewidth stroke
  grestore
} bd
/OLE {
  /Tcx currentpoint pop def
  gsave
  newpath
  cf findfont cs scalefont dup
  /FontMatrix get 0 get /Ts exch def /FontInfo get dup
  /UnderlinePosition get Ts mul /To exch def
  /UnderlineThickness get Ts mul /Tt exch def
  ux uy To add cs add moveto Tcx uy To add cs add lineto
  Tt setlinewidth stroke
  grestore
} bd
/SOE {
  /Tcx currentpoint pop def
  gsave
  newpath
  cf findfont cs scalefont dup
  /FontMatrix get 0 get /Ts exch def /FontInfo get dup
  /UnderlinePosition get Ts mul /To exch def
  /UnderlineThickness get Ts mul /Tt exch def
  ux uy To add cs 10 mul 26 idiv add moveto Tcx uy To add cs 10 mul 26 idiv add lineto
  Tt setlinewidth stroke
  grestore
} bd
/QT {
/Y22 exch store
/X22 exch store
/Y21 exch store
/X21 exch store
currentpoint
/Y21 load 2 mul add 3 div exch
/X21 load 2 mul add 3 div exch
/X21 load 2 mul /X22 load add 3 div
/Y21 load 2 mul /Y22 load add 3 div
/X22 load /Y22 load curveto
} bd
/SSPD {
dup length /d exch dict def
{
/v exch def
/k exch def
currentpagedevice k known {
/cpdv currentpagedevice k get def
v cpdv ne {
/upd false def
/nullv v type /nulltype eq def
/nullcpdv cpdv type /nulltype eq def
nullv nullcpdv or
{
/upd true def
} {
/sametype v type cpdv type eq def
sametype {
v type /arraytype eq {
/vlen v length def
/cpdvlen cpdv length def
vlen cpdvlen eq {
0 1 vlen 1 sub {
/i exch def
/obj v i get def
/cpdobj cpdv i get def
obj cpdobj ne {
/upd true def
exit
} if
} for
} {
/upd true def
} ifelse
} {
v type /dicttype eq {
v {
/dv exch def
/dk exch def
/cpddv cpdv dk get def
dv cpddv ne {
/upd true def
exit
} if
} forall
} {
/upd true def
} ifelse
} ifelse
} if
} ifelse
upd true eq {
d k v put
} if
} if
} if
} forall
d length 0 gt {
d setpagedevice
} if
} bd
/RE { % /NewFontName [NewEncodingArray] /FontName RE -
  findfont dup length dict begin
  {
    1 index /FID ne
    {def} {pop pop} ifelse
  } forall
  /Encoding exch def
  /FontName 1 index def
  currentdict definefont pop
  end
} bind def
%%EndResource
%%BeginResource: procset (Apache XML Graphics EPS ProcSet) 1.0 0
%%Version: 1.0 0
%%Copyright: (Copyright 2002-2003 The Apache Software Foundation. License terms: http://www.apache.org/licenses/LICENSE-2.0)
/BeginEPSF { %def
/b4_Inc_state save def         % Save state for cleanup
/dict_count countdictstack def % Count objects on dict stack
/op_count count 1 sub def      % Count objects on operand stack
userdict begin                 % Push userdict on dict stack
/showpage { } def              % Redefine showpage, { } = null proc
0 setgray 0 setlinecap         % Prepare graphics state
1 setlinewidth 0 setlinejoin
10 setmiterlimit [ ] 0 setdash newpath
/languagelevel where           % If level not equal to 1 then
{pop languagelevel             % set strokeadjust and
1 ne                           % overprint to their defaults.
{false setstrokeadjust false setoverprint
} if
} if
} bd
/EndEPSF { %def
count op_count sub {pop} repeat            % Clean up stacks
countdictstack dict_count sub {end} repeat
b4_Inc_state restore
} bd
%%EndResource
%FOPBeginFontDict
%%IncludeResource: font Courier-Bold
%%IncludeResource: font Helvetica
%%IncludeResource: font Courier-BoldOblique
%%IncludeResource: font Courier-Oblique
%%IncludeResource: font Times-Roman
%%IncludeResource: font Helvetica-BoldOblique
%%IncludeResource: font Helvetica-Bold
%%IncludeResource: font Helvetica-Oblique
%%IncludeResource: font Times-BoldItalic
%%IncludeResource: font Courier
%%IncludeResource: font Times-Italic
%%IncludeResource: font Times-Bold
%%IncludeResource: font Symbol
%%IncludeResource: font ZapfDingbats
%FOPEndFontDict
%%BeginResource: encoding WinAnsiEncoding
/WinAnsiEncoding [
/.notdef /.notdef /.notdef /.notdef /.notdef
/.notdef /.notdef /.notdef /.notdef /.notdef
/.notdef /.notdef /.notdef /.notdef /.notdef
/.notdef /.notdef /.notdef /.notdef /.notdef
/.notdef /.notdef /.notdef /.notdef /.notdef
/.notdef /.notdef /.notdef /.notdef /.notdef
/.notdef /.notdef /space /exclam /quotedbl
/numbersign /dollar /percent /ampersand /quotesingle
/parenleft /parenright /asterisk /plus /comma
/hyphen /period /slash /zero /one
/two /three /four /five /six
/seven /eight /nine /colon /semicolon
/less /equal /greater /question /at
/A /B /C /D /E
/F /G /H /I /J
/K /L /M /N /O
/P /Q /R /S /T
/U /V /W /X /Y
/Z /bracketleft /backslash /bracketright /asciicircum
/underscore /quoteleft /a /b /c
/d /e /f /g /h
/i /j /k /l /m
/n /o /p /q /r
/s /t /u /v /w
/x /y /z /braceleft /bar
/braceright /asciitilde /bullet /Euro /bullet
/quotesinglbase /florin /quotedblbase /ellipsis /dagger
/daggerdbl /circumflex /perthousand /Scaron /guilsinglleft
/OE /bullet /Zcaron /bullet /bullet
/quoteleft /quoteright /quotedblleft /quotedblright /bullet
/endash /emdash /asciitilde /trademark /scaron
/guilsinglright /oe /bullet /zcaron /Ydieresis
/space /exclamdown /cent /sterling /currency
/yen /brokenbar /section /dieresis /copyright
/ordfeminine /guillemotleft /logicalnot /sfthyphen /registered
/macron /degree /plusminus /twosuperior /threesuperior
/acute /mu /paragraph /middot /cedilla
/onesuperior /ordmasculine /guillemotright /onequarter /onehalf
/threequarters /questiondown /Agrave /Aacute /Acircumflex
/Atilde /Adieresis /Aring /AE /Ccedilla
/Egrave /Eacute /Ecircumflex /Edieresis /Igrave
/Iacute /Icircumflex /Idieresis /Eth /Ntilde
/Ograve /Oacute /Ocircumflex /Otilde /Odieresis
/multiply /Oslash /Ugrave /Uacute /Ucircumflex
/Udieresis /Yacute /Thorn /germandbls /agrave
/aacute /acircumflex /atilde /adieresis /aring
/ae /ccedilla /egrave /eacute /ecircumflex
/edieresis /igrave /iacute /icircumflex /idieresis
/eth /ntilde /ograve /oacute /ocircumflex
/otilde /odieresis /divide /oslash /ugrave
/uacute /ucircumflex /udieresis /yacute /thorn
/ydieresis
] def
%%EndResource
%FOPBeginFontReencode
/Courier-Bold findfont
dup length dict begin
  {1 index /FID ne {def} {pop pop} ifelse} forall
  /Encoding WinAnsiEncoding def
  currentdict
end
/Courier-Bold exch definefont pop
/Helvetica findfont
dup length dict begin
  {1 index /FID ne {def} {pop pop} ifelse} forall
  /Encoding WinAnsiEncoding def
  currentdict
end
/Helvetica exch definefont pop
/Courier-BoldOblique findfont
dup length dict begin
  {1 index /FID ne {def} {pop pop} ifelse} forall
  /Encoding WinAnsiEncoding def
  currentdict
end
/Courier-BoldOblique exch definefont pop
/Courier-Oblique findfont
dup length dict begin
  {1 index /FID ne {def} {pop pop} ifelse} forall
  /Encoding WinAnsiEncoding def
  currentdict
end
/Courier-Oblique exch definefont pop
/Times-Roman findfont
dup length dict begin
  {1 index /FID ne {def} {pop pop} ifelse} forall
  /Encoding WinAnsiEncoding def
  currentdict
end
/Times-Roman exch definefont pop
/Helvetica-BoldOblique findfont
dup length dict begin
  {1 index /FID ne {def} {pop pop} ifelse} forall
  /Encoding WinAnsiEncoding def
  currentdict
end
/Helvetica-BoldOblique exch definefont pop
/Helvetica-Bold findfont
dup length dict begin
  {1 index /FID ne {def} {pop pop} ifelse} forall
  /Encoding WinAnsiEncoding def
  currentdict
end
/Helvetica-Bold exch definefont pop
/Helvetica-Oblique findfont
dup length dict begin
  {1 index /FID ne {def} {pop pop} ifelse} forall
  /Encoding WinAnsiEncoding def
  currentdict
end
/Helvetica-Oblique exch definefont pop
/Times-BoldItalic findfont
dup length dict begin
  {1 index /FID ne {def} {pop pop} ifelse} forall
  /Encoding WinAnsiEncoding def
  currentdict
end
/Times-BoldItalic exch definefont pop
/Courier findfont
dup length dict begin
  {1 index /FID ne {def} {pop pop} ifelse} forall
  /Encoding WinAnsiEncoding def
  currentdict
end
/Courier exch definefont pop
/Times-Italic findfont
dup length dict begin
  {1 index /FID ne {def} {pop pop} ifelse} forall
  /Encoding WinAnsiEncoding def
  currentdict
end
/Times-Italic exch definefont pop
/Times-Bold findfont
dup length dict begin
  {1 index /FID ne {def} {pop pop} ifelse} forall
  /Encoding WinAnsiEncoding def
  currentdict
end
/Times-Bold exch definefont pop
%FOPEndFontReencode
%%EndProlog
%%Page: 1 1
%%PageBoundingBox: 0 0 426 308
%%BeginPageSetup
[1 0 0 -1 0 308] CT
%%EndPageSetup
GS
[0.75 0 0 0.75 0 0.5] CT
N
0 0 M
568 0 L
568 410 L
0 410 L
0 0 L
cp
clip
1 GC
N
0 0 568 410 re
f
GR
GS
[0.75 0 0 0.75 0 0.5] CT
1 GC
N
0 0 568 410 re
f
GR
GS
[0.75 0 0 0.75 0 0.5] CT
1 GC
N
73.999 365 M
514.001 365 L
514.001 31 L
73.999 31 L
cp
f
GR
GS
[0.75 0 0 0.75 0 0.5] CT
0.149 GC
2 setlinecap
1 LJ
0.667 LW
N
73.999 365 M
514.001 365 L
S
GR
GS
[0.75 0 0 0.75 0 0.5] CT
0.149 GC
2 setlinecap
1 LJ
0.667 LW
N
73.999 31 M
514.001 31 L
S
GR
GS
[0.75 0 0 0.75 0 0.5] CT
0.149 GC
2 setlinecap
1 LJ
0.667 LW
N
116.222 365 M
116.222 360.6 L
S
GR
GS
[0.75 0 0 0.75 0 0.5] CT
0.149 GC
2 setlinecap
1 LJ
0.667 LW
N
160.665 365 M
160.665 360.6 L
S
GR
GS
[0.75 0 0 0.75 0 0.5] CT
0.149 GC
2 setlinecap
1 LJ
0.667 LW
N
205.112 365 M
205.112 360.6 L
S
GR
GS
[0.75 0 0 0.75 0 0.5] CT
0.149 GC
2 setlinecap
1 LJ
0.667 LW
N
249.556 365 M
249.556 360.6 L
S
GR
GS
[0.75 0 0 0.75 0 0.5] CT
0.149 GC
2 setlinecap
1 LJ
0.667 LW
N
294 365 M
294 360.6 L
S
GR
GS
[0.75 0 0 0.75 0 0.5] CT
0.149 GC
2 setlinecap
1 LJ
0.667 LW
N
338.444 365 M
338.444 360.6 L
S
GR
GS
[0.75 0 0 0.75 0 0.5] CT
0.149 GC
2 setlinecap
1 LJ
0.667 LW
N
382.888 365 M
382.888 360.6 L
S
GR
GS
[0.75 0 0 0.75 0 0.5] CT
0.149 GC
2 setlinecap
1 LJ
0.667 LW
N
427.335 365 M
427.335 360.6 L
S
GR
GS
[0.75 0 0 0.75 0 0.5] CT
0.149 GC
2 setlinecap
1 LJ
0.667 LW
N
471.778 365 M
471.778 360.6 L
S
GR
GS
[0.75 0 0 0.75 0 0.5] CT
0.149 GC
2 setlinecap
1 LJ
0.667 LW
N
116.222 31 M
116.222 35.4 L
S
GR
GS
[0.75 0 0 0.75 0 0.5] CT
0.149 GC
2 setlinecap
1 LJ
0.667 LW
N
160.665 31 M
160.665 35.4 L
S
GR
GS
[0.75 0 0 0.75 0 0.5] CT
0.149 GC
2 setlinecap
1 LJ
0.667 LW
N
205.112 31 M
205.112 35.4 L
S
GR
GS
[0.75 0 0 0.75 0 0.5] CT
0.149 GC
2 setlinecap
1 LJ
0.667 LW
N
249.556 31 M
249.556 35.4 L
S
GR
GS
[0.75 0 0 0.75 0 0.5] CT
0.149 GC
2 setlinecap
1 LJ
0.667 LW
N
294 31 M
294 35.4 L
S
GR
GS
[0.75 0 0 0.75 0 0.5] CT
0.149 GC
2 setlinecap
1 LJ
0.667 LW
N
338.444 31 M
338.444 35.4 L
S
GR
GS
[0.75 0 0 0.75 0 0.5] CT
0.149 GC
2 setlinecap
1 LJ
0.667 LW
N
382.888 31 M
382.888 35.4 L
S
GR
GS
[0.75 0 0 0.75 0 0.5] CT
0.149 GC
2 setlinecap
1 LJ
0.667 LW
N
427.335 31 M
427.335 35.4 L
S
GR
GS
[0.75 0 0 0.75 0 0.5] CT
0.149 GC
2 setlinecap
1 LJ
0.667 LW
N
471.778 31 M
471.778 35.4 L
S
GR
GS
[0.75 0 0 0.75 87.16616 278.24985] CT
0.149 GC
/Helvetica-Bold 13.333 F
GS
[1 0 0 1 0 0] CT
-19 13 moveto 
1 -1 scale
(-81.4) t 
GR
GR
GS
[0.75 0 0 0.75 120.49899 278.24985] CT
0.149 GC
/Helvetica-Bold 13.333 F
GS
[1 0 0 1 0 0] CT
-19 13 moveto 
1 -1 scale
(-81.3) t 
GR
GR
GS
[0.75 0 0 0.75 153.83435 278.24985] CT
0.149 GC
/Helvetica-Bold 13.333 F
GS
[1 0 0 1 0 0] CT
-19 13 moveto 
1 -1 scale
(-81.2) t 
GR
GR
GS
[0.75 0 0 0.75 187.16717 278.24985] CT
0.149 GC
/Helvetica-Bold 13.333 F
GS
[1 0 0 1 0 0] CT
-19 13 moveto 
1 -1 scale
(-81.1) t 
GR
GR
GS
[0.75 0 0 0.75 220.5 278.24985] CT
0.149 GC
/Helvetica-Bold 13.333 F
GS
[1 0 0 1 0 0] CT
-12 13 moveto 
1 -1 scale
(-81) t 
GR
GR
GS
[0.75 0 0 0.75 253.83282 278.24985] CT
0.149 GC
/Helvetica-Bold 13.333 F
GS
[1 0 0 1 0 0] CT
-19 13 moveto 
1 -1 scale
(-80.9) t 
GR
GR
GS
[0.75 0 0 0.75 287.16566 278.24985] CT
0.149 GC
/Helvetica-Bold 13.333 F
GS
[1 0 0 1 0 0] CT
-19 13 moveto 
1 -1 scale
(-80.8) t 
GR
GR
GS
[0.75 0 0 0.75 320.50101 278.24985] CT
0.149 GC
/Helvetica-Bold 13.333 F
GS
[1 0 0 1 0 0] CT
-19 13 moveto 
1 -1 scale
(-80.7) t 
GR
GR
GS
[0.75 0 0 0.75 353.83383 278.24985] CT
0.149 GC
/Helvetica-Bold 13.333 F
GS
[1 0 0 1 0 0] CT
-19 13 moveto 
1 -1 scale
(-80.6) t 
GR
GR
GS
[0.75 0 0 0.75 220.5 292.00008] CT
0.149 GC
/Helvetica-Bold 14.667 F
GS
[1 0 0 1 0 0] CT
-43 14 moveto 
1 -1 scale
(Longitude) t 
GR
GR
GS
[0.75 0 0 0.75 0 0.5] CT
0.149 GC
2 setlinecap
1 LJ
0.667 LW
N
73.999 365 M
73.999 31 L
S
GR
GS
[0.75 0 0 0.75 0 0.5] CT
0.149 GC
2 setlinecap
1 LJ
0.667 LW
N
514.001 365 M
514.001 31 L
S
GR
GS
[0.75 0 0 0.75 0 0.5] CT
0.149 GC
2 setlinecap
1 LJ
0.667 LW
N
73.999 332.95 M
78.4 332.95 L
S
GR
GS
[0.75 0 0 0.75 0 0.5] CT
0.149 GC
2 setlinecap
1 LJ
0.667 LW
N
73.999 299.212 M
78.4 299.212 L
S
GR
GS
[0.75 0 0 0.75 0 0.5] CT
0.149 GC
2 setlinecap
1 LJ
0.667 LW
N
73.999 265.475 M
78.4 265.475 L
S
GR
GS
[0.75 0 0 0.75 0 0.5] CT
0.149 GC
2 setlinecap
1 LJ
0.667 LW
N
73.999 231.737 M
78.4 231.737 L
S
GR
GS
[0.75 0 0 0.75 0 0.5] CT
0.149 GC
2 setlinecap
1 LJ
0.667 LW
N
73.999 198 M
78.4 198 L
S
GR
GS
[0.75 0 0 0.75 0 0.5] CT
0.149 GC
2 setlinecap
1 LJ
0.667 LW
N
73.999 164.263 M
78.4 164.263 L
S
GR
GS
[0.75 0 0 0.75 0 0.5] CT
0.149 GC
2 setlinecap
1 LJ
0.667 LW
N
73.999 130.525 M
78.4 130.525 L
S
GR
GS
[0.75 0 0 0.75 0 0.5] CT
0.149 GC
2 setlinecap
1 LJ
0.667 LW
N
73.999 96.788 M
78.4 96.788 L
S
GR
GS
[0.75 0 0 0.75 0 0.5] CT
0.149 GC
2 setlinecap
1 LJ
0.667 LW
N
73.999 63.05 M
78.4 63.05 L
S
GR
GS
[0.75 0 0 0.75 0 0.5] CT
0.149 GC
2 setlinecap
1 LJ
0.667 LW
N
514.001 332.95 M
509.6 332.95 L
S
GR
GS
[0.75 0 0 0.75 0 0.5] CT
0.149 GC
2 setlinecap
1 LJ
0.667 LW
N
514.001 299.212 M
509.6 299.212 L
S
GR
GS
[0.75 0 0 0.75 0 0.5] CT
0.149 GC
2 setlinecap
1 LJ
0.667 LW
N
514.001 265.475 M
509.6 265.475 L
S
GR
GS
[0.75 0 0 0.75 0 0.5] CT
0.149 GC
2 setlinecap
1 LJ
0.667 LW
N
514.001 231.737 M
509.6 231.737 L
S
GR
GS
[0.75 0 0 0.75 0 0.5] CT
0.149 GC
2 setlinecap
1 LJ
0.667 LW
N
514.001 198 M
509.6 198 L
S
GR
GS
[0.75 0 0 0.75 0 0.5] CT
0.149 GC
2 setlinecap
1 LJ
0.667 LW
N
514.001 164.263 M
509.6 164.263 L
S
GR
GS
[0.75 0 0 0.75 0 0.5] CT
0.149 GC
2 setlinecap
1 LJ
0.667 LW
N
514.001 130.525 M
509.6 130.525 L
S
GR
GS
[0.75 0 0 0.75 0 0.5] CT
0.149 GC
2 setlinecap
1 LJ
0.667 LW
N
514.001 96.788 M
509.6 96.788 L
S
GR
GS
[0.75 0 0 0.75 0 0.5] CT
0.149 GC
2 setlinecap
1 LJ
0.667 LW
N
514.001 63.05 M
509.6 63.05 L
S
GR
GS
[0.75 0 0 0.75 51.49874 250.21221] CT
0.149 GC
/Helvetica-Bold 13.333 F
GS
[1 0 0 1 0 0] CT
-33 4.5 moveto 
1 -1 scale
(22.9) t 
GR
GR
GS
[0.75 0 0 0.75 51.49874 224.9091] CT
0.149 GC
/Helvetica-Bold 13.333 F
GS
[1 0 0 1 0 0] CT
-19 4.5 moveto 
1 -1 scale
(23) t 
GR
GR
GS
[0.75 0 0 0.75 51.49874 199.60596] CT
0.149 GC
/Helvetica-Bold 13.333 F
GS
[1 0 0 1 0 0] CT
-33 4.5 moveto 
1 -1 scale
(23.1) t 
GR
GR
GS
[0.75 0 0 0.75 51.49874 174.30284] CT
0.149 GC
/Helvetica-Bold 13.333 F
GS
[1 0 0 1 0 0] CT
-33 4.5 moveto 
1 -1 scale
(23.2) t 
GR
GR
GS
[0.75 0 0 0.75 51.49874 149.00019] CT
0.149 GC
/Helvetica-Bold 13.333 F
GS
[1 0 0 1 0 0] CT
-33 4.5 moveto 
1 -1 scale
(23.3) t 
GR
GR
GS
[0.75 0 0 0.75 51.49874 123.69707] CT
0.149 GC
/Helvetica-Bold 13.333 F
GS
[1 0 0 1 0 0] CT
-33 4.5 moveto 
1 -1 scale
(23.4) t 
GR
GR
GS
[0.75 0 0 0.75 51.49874 98.39394] CT
0.149 GC
/Helvetica-Bold 13.333 F
GS
[1 0 0 1 0 0] CT
-33 4.5 moveto 
1 -1 scale
(23.5) t 
GR
GR
GS
[0.75 0 0 0.75 51.49874 73.09081] CT
0.149 GC
/Helvetica-Bold 13.333 F
GS
[1 0 0 1 0 0] CT
-33 4.5 moveto 
1 -1 scale
(23.6) t 
GR
GR
GS
[0.75 0 0 0.75 51.49874 47.78769] CT
0.149 GC
/Helvetica-Bold 13.333 F
GS
[1 0 0 1 0 0] CT
-33 4.5 moveto 
1 -1 scale
(23.7) t 
GR
GR
GS
[0 -0.75 0.75 0 23.75063 148.99971] CT
0.149 GC
/Helvetica-Bold 14.667 F
GS
[1 0 0 1 0 0] CT
-35.5 -4 moveto 
1 -1 scale
(Latitude) t 
GR
GR
GS
[0.75 0 0 0.75 0 0.5] CT
1 0 0 RC
N
225.112 125.465 M
225.112 128.839 L
229.557 128.839 L
229.557 125.465 L
cp
f
GR
GS
[0.75 0 0 0.75 0 0.5] CT
1 0 0 RC
N
225.112 128.839 M
225.112 132.212 L
229.557 132.212 L
229.557 128.839 L
cp
f
GR
GS
[0.75 0 0 0.75 0 0.5] CT
1 0 0 RC
N
225.112 132.212 M
225.112 135.586 L
229.557 135.586 L
229.557 132.212 L
cp
f
GR
GS
[0.75 0 0 0.75 0 0.5] CT
1 0 0 RC
N
225.112 135.586 M
225.112 138.959 L
229.557 138.959 L
229.557 135.586 L
cp
f
GR
GS
[0.75 0 0 0.75 0 0.5] CT
1 0 0 RC
N
229.557 125.465 M
229.557 128.839 L
233.999 128.839 L
233.999 125.465 L
cp
f
GR
GS
[0.75 0 0 0.75 0 0.5] CT
1 0 0 RC
N
229.557 128.839 M
229.557 132.212 L
233.999 132.212 L
233.999 128.839 L
cp
f
GR
GS
[0.75 0 0 0.75 0 0.5] CT
1 0 0 RC
N
229.557 132.212 M
229.557 135.586 L
233.999 135.586 L
233.999 132.212 L
cp
f
GR
GS
[0.75 0 0 0.75 0 0.5] CT
1 0 0 RC
N
229.557 135.586 M
229.557 138.959 L
233.999 138.959 L
233.999 135.586 L
cp
f
GR
GS
[0.75 0 0 0.75 0 0.5] CT
1 0 0 RC
N
233.999 125.465 M
233.999 128.839 L
238.444 128.839 L
238.444 125.465 L
cp
f
GR
GS
[0.75 0 0 0.75 0 0.5] CT
1 0 0 RC
N
233.999 128.839 M
233.999 132.212 L
238.444 132.212 L
238.444 128.839 L
cp
f
GR
GS
[0.75 0 0 0.75 0 0.5] CT
1 0 0 RC
N
233.999 132.212 M
233.999 135.586 L
238.444 135.586 L
238.444 132.212 L
cp
f
GR
GS
[0.75 0 0 0.75 0 0.5] CT
1 0 0 RC
N
233.999 135.586 M
233.999 138.959 L
238.444 138.959 L
238.444 135.586 L
cp
f
GR
GS
[0.75 0 0 0.75 0 0.5] CT
1 0 0 RC
N
238.444 125.465 M
238.444 128.839 L
242.89 128.839 L
242.89 125.465 L
cp
f
GR
GS
[0.75 0 0 0.75 0 0.5] CT
1 0 0 RC
N
238.444 128.839 M
238.444 132.212 L
242.89 132.212 L
242.89 128.839 L
cp
f
GR
GS
[0.75 0 0 0.75 0 0.5] CT
1 0 0 RC
N
238.444 132.212 M
238.444 135.586 L
242.89 135.586 L
242.89 132.212 L
cp
f
GR
GS
[0.75 0 0 0.75 0 0.5] CT
1 0 0 RC
N
238.444 135.586 M
238.444 138.959 L
242.89 138.959 L
242.89 135.586 L
cp
f
GR
GS
[0.75 0 0 0.75 0 0.5] CT
1 0 0 RC
N
349.556 243.545 M
349.556 246.919 L
354.001 246.919 L
354.001 243.545 L
cp
f
GR
GS
[0.75 0 0 0.75 0 0.5] CT
1 0 0 RC
N
349.556 246.919 M
349.556 250.293 L
354.001 250.293 L
354.001 246.919 L
cp
f
GR
GS
[0.75 0 0 0.75 0 0.5] CT
1 0 0 RC
N
349.556 250.293 M
349.556 253.667 L
354.001 253.667 L
354.001 250.293 L
cp
f
GR
GS
[0.75 0 0 0.75 0 0.5] CT
1 0 0 RC
N
349.556 253.667 M
349.556 257.04 L
354.001 257.04 L
354.001 253.667 L
cp
f
GR
GS
[0.75 0 0 0.75 0 0.5] CT
1 0 0 RC
N
354.001 219.929 M
354.001 223.303 L
358.443 223.303 L
358.443 219.929 L
cp
f
GR
GS
[0.75 0 0 0.75 0 0.5] CT
1 0 0 RC
N
354.001 223.303 M
354.001 226.677 L
358.443 226.677 L
358.443 223.303 L
cp
f
GR
GS
[0.75 0 0 0.75 0 0.5] CT
1 0 0 RC
N
354.001 226.677 M
354.001 230.051 L
358.443 230.051 L
358.443 226.677 L
cp
f
GR
GS
[0.75 0 0 0.75 0 0.5] CT
1 0 0 RC
N
354.001 230.051 M
354.001 233.424 L
358.443 233.424 L
358.443 230.051 L
cp
f
GR
GS
[0.75 0 0 0.75 0 0.5] CT
1 0 0 RC
N
354.001 243.545 M
354.001 246.919 L
358.443 246.919 L
358.443 243.545 L
cp
f
GR
GS
[0.75 0 0 0.75 0 0.5] CT
1 0 0 RC
N
354.001 246.919 M
354.001 250.293 L
358.443 250.293 L
358.443 246.919 L
cp
f
GR
GS
[0.75 0 0 0.75 0 0.5] CT
1 0 0 RC
N
354.001 250.293 M
354.001 253.667 L
358.443 253.667 L
358.443 250.293 L
cp
f
GR
GS
[0.75 0 0 0.75 0 0.5] CT
1 0 0 RC
N
354.001 253.667 M
354.001 257.04 L
358.443 257.04 L
358.443 253.667 L
cp
f
GR
GS
[0.75 0 0 0.75 0 0.5] CT
1 0 0 RC
N
358.443 243.545 M
358.443 246.919 L
362.888 246.919 L
362.888 243.545 L
cp
f
GR
GS
[0.75 0 0 0.75 0 0.5] CT
1 0 0 RC
N
358.443 246.919 M
358.443 250.293 L
362.888 250.293 L
362.888 246.919 L
cp
f
GR
GS
[0.75 0 0 0.75 0 0.5] CT
1 0 0 RC
N
358.443 250.293 M
358.443 253.667 L
362.888 253.667 L
362.888 250.293 L
cp
f
GR
GS
[0.75 0 0 0.75 0 0.5] CT
1 0 0 RC
N
358.443 253.667 M
358.443 257.04 L
362.888 257.04 L
362.888 253.667 L
cp
f
GR
GS
[0.75 0 0 0.75 0 0.5] CT
0.208 0.165 0.525 RC
N
371.779 31 M
371.779 34.374 L
376.221 34.374 L
376.221 31 L
cp
f
GR
GS
[0.75 0 0 0.75 0 0.5] CT
1 LJ
2.667 LW
N
106.161 83.139 M
97.284 92.301 L
99.437 81.045 L
S
GR
GS
[0.75 0 0 0.75 0 0.5] CT
1 LJ
2.667 LW
N
110.881 117.257 M
104.13 127.247 L
103.892 116.021 L
S
GR
GS
[0.75 0 0 0.75 0 0.5] CT
1 LJ
2.667 LW
N
116.601 150.213 M
112.726 160.622 L
109.691 150.054 L
S
GR
GS
[0.75 0 0 0.75 0 0.5] CT
1 LJ
2.667 LW
N
118.056 183.568 M
114.957 193.997 L
111.223 183.688 L
S
GR
GS
[0.75 0 0 0.75 0 0.5] CT
1 LJ
2.667 LW
N
123.03 215.936 M
122.596 226.405 L
116.489 217.013 L
S
GR
GS
[0.75 0 0 0.75 0 0.5] CT
1 LJ
2.667 LW
N
128.649 246.929 M
131.511 256.88 L
122.817 249.122 L
S
GR
GS
[0.75 0 0 0.75 0 0.5] CT
1 LJ
2.667 LW
N
130.945 274.122 M
136.448 281.311 L
127.137 276.935 L
S
GR
GS
[0.75 0 0 0.75 0 0.5] CT
1 LJ
2.667 LW
N
130.08 301.201 M
136.767 305.139 L
128.425 304.052 L
S
GR
GS
[0.75 0 0 0.75 0 0.5] CT
1 LJ
2.667 LW
N
130.341 332.53 M
137.723 335.372 L
129.446 335.501 L
S
GR
GS
[0.75 0 0 0.75 0 0.5] CT
1 LJ
2.667 LW
N
130.463 365.023 M
130.52 365.04 L
S
GR
GS
[0.75 0 0 0.75 0 0.5] CT
1 LJ
2.667 LW
N
146 81.432 M
135.359 89.159 L
139.957 78.541 L
S
GR
GS
[0.75 0 0 0.75 0 0.5] CT
1 LJ
2.667 LW
N
151.503 115.066 M
143.481 123.501 L
145.332 113.192 L
S
GR
GS
[0.75 0 0 0.75 0 0.5] CT
1 LJ
2.667 LW
N
157.424 147.921 M
152.395 156.755 L
151.357 147.163 L
S
GR
GS
[0.75 0 0 0.75 0 0.5] CT
1 LJ
2.667 LW
N
159.106 181.337 M
154.942 190.251 L
153.09 180.898 L
S
GR
GS
[0.75 0 0 0.75 0 0.5] CT
1 LJ
2.667 LW
N
165.921 213.698 M
165.29 222.9 L
160.143 214.555 L
S
GR
GS
[0.75 0 0 0.75 0 0.5] CT
1 LJ
2.667 LW
N
173.086 244.875 M
176.436 253.858 L
167.912 247.128 L
S
GR
GS
[0.75 0 0 0.75 0 0.5] CT
1 LJ
2.667 LW
N
174.992 273.009 M
180.573 279.619 L
171.55 275.781 L
S
GR
GS
[0.75 0 0 0.75 0 0.5] CT
1 LJ
2.667 LW
N
174.591 300.948 M
181.37 304.776 L
173.015 303.819 L
S
GR
GS
[0.75 0 0 0.75 0 0.5] CT
1 LJ
2.667 LW
N
174.544 333.046 M
181.689 336.097 L
173.493 335.957 L
S
GR
GS
[0.75 0 0 0.75 0 0.5] CT
1 LJ
2.667 LW
N
174.446 362.847 M
182.485 364.033 L
178.166 365.04 L
S
GR
GS
[0.75 0 0 0.75 0 0.5] CT
1 LJ
2.667 LW
N
187.28 77.947 M
175.982 83.6 L
182.445 74.577 L
S
GR
GS
[0.75 0 0 0.75 0 0.5] CT
1 LJ
2.667 LW
N
192.149 110.325 M
183.465 116.008 L
187.602 107.892 L
S
GR
GS
[0.75 0 0 0.75 0 0.5] CT
1 LJ
2.667 LW
N
196.72 143.553 M
190.311 149.625 L
192.204 141.977 L
S
GR
GS
[0.75 0 0 0.75 0 0.5] CT
1 LJ
2.667 LW
N
199.707 177.011 M
194.77 183.362 L
195.191 175.994 L
S
GR
GS
[0.75 0 0 0.75 0 0.5] CT
1 LJ
2.667 LW
N
207.537 209.606 M
206.55 216.495 L
203.149 210.064 L
S
GR
GS
[0.75 0 0 0.75 0 0.5] CT
1 LJ
2.667 LW
N
216.353 240.957 M
220.083 247.936 L
212.464 243.111 L
S
GR
GS
[0.75 0 0 0.75 0 0.5] CT
1 LJ
2.667 LW
N
219.323 269.65 M
225.654 274.664 L
216.96 272.501 L
S
GR
GS
[0.75 0 0 0.75 0 0.5] CT
1 LJ
2.667 LW
N
218.818 298.256 M
226.132 300.788 L
218.106 301.167 L
S
GR
GS
[0.75 0 0 0.75 0 0.5] CT
1 LJ
2.667 LW
N
218.805 331.255 M
226.292 333.438 L
218.333 334.186 L
S
GR
GS
[0.75 0 0 0.75 0 0.5] CT
1 LJ
2.667 LW
N
218.733 361.875 M
226.929 362.583 L
219.259 364.886 L
S
GR
GS
[0.75 0 0 0.75 0 0.5] CT
1 LJ
2.667 LW
N
230.395 76.427 M
218.835 81.183 L
226.085 72.858 L
S
GR
GS
[0.75 0 0 0.75 0 0.5] CT
1 LJ
2.667 LW
N
235.847 109.737 M
226.956 115.042 L
231.514 107.185 L
S
GR
GS
[0.75 0 0 0.75 0 0.5] CT
1 LJ
2.667 LW
N
237.01 141.968 M
229.025 146.724 L
233.124 139.675 L
S
GR
GS
[0.75 0 0 0.75 0 0.5] CT
1 LJ
2.667 LW
N
241.788 173.122 M
236.668 177.32 L
238.583 171.786 L
S
GR
GS
[0.75 0 0 0.75 0 0.5] CT
1 LJ
2.667 LW
N
248.993 204.542 M
247.81 208.64 L
246.315 204.602 L
S
GR
GS
[0.75 0 0 0.75 0 0.5] CT
1 LJ
2.667 LW
N
257.65 235.579 M
261.183 239.598 L
255.575 237.314 L
S
GR
GS
[0.75 0 0 0.75 0 0.5] CT
1 LJ
2.667 LW
N
261.756 264.577 M
268.348 266.93 L
261.072 267.209 L
S
GR
GS
[0.75 0 0 0.75 0 0.5] CT
1 LJ
2.667 LW
N
261.39 294.732 M
268.667 295.35 L
261.862 297.404 L
S
GR
GS
[0.75 0 0 0.75 0 0.5] CT
1 LJ
2.667 LW
N
261.302 326.587 M
268.986 326.308 L
262.377 329.299 L
S
GR
GS
[0.75 0 0 0.75 0 0.5] CT
1 LJ
2.667 LW
N
261.936 357.553 M
270.576 356.057 L
263.879 360.464 L
S
GR
GS
[0.75 0 0 0.75 0 0.5] CT
1 LJ
2.667 LW
N
270.8 70.229 M
258.823 71.515 L
268.596 66.101 L
S
GR
GS
[0.75 0 0 0.75 0 0.5] CT
1 LJ
2.667 LW
N
275.479 104.104 M
265.67 106.098 L
273.089 100.834 L
S
GR
GS
[0.75 0 0 0.75 0 0.5] CT
1 LJ
2.667 LW
N
278.307 137.906 M
269.806 140.319 L
275.812 135.155 L
S
GR
GS
[0.75 0 0 0.75 0 0.5] CT
1 LJ
2.667 LW
N
285.211 171.492 M
279.996 174.782 L
282.559 170.016 L
S
GR
GS
[0.75 0 0 0.75 0 0.5] CT
1 LJ
2.667 LW
N
293.105 203.833 M
291.938 207.552 L
290.663 203.853 L
S
GR
GS
[0.75 0 0 0.75 0 0.5] CT
1 LJ
2.667 LW
N
300.955 233.22 M
304.515 235.972 L
299.666 234.816 L
S
GR
GS
[0.75 0 0 0.75 0 0.5] CT
1 LJ
2.667 LW
N
302.44 259.421 M
308.496 258.833 L
303.515 261.515 L
S
GR
GS
[0.75 0 0 0.75 0 0.5] CT
1 LJ
2.667 LW
N
301.751 290.264 M
308.177 288.22 L
303.776 292.318 L
S
GR
GS
[0.75 0 0 0.75 0 0.5] CT
1 LJ
2.667 LW
N
302.986 320.927 M
310.724 317.606 L
305.956 323.299 L
S
GR
GS
[0.75 0 0 0.75 0 0.5] CT
1 LJ
2.667 LW
N
304.044 353.826 M
312.473 350.256 L
307.248 356.418 L
S
GR
GS
[0.75 0 0 0.75 0 0.5] CT
1 LJ
2.667 LW
N
311.782 63.566 M
299.764 61.243 L
311.809 58.999 L
S
GR
GS
[0.75 0 0 0.75 0 0.5] CT
1 LJ
2.667 LW
N
313.823 97.194 M
302.789 95.101 L
313.823 93.007 L
S
GR
GS
[0.75 0 0 0.75 0 0.5] CT
1 LJ
2.667 LW
N
319.93 130.526 M
311.863 129.08 L
319.876 127.475 L
S
GR
GS
[0.75 0 0 0.75 0 0.5] CT
1 LJ
2.667 LW
N
326.952 164.182 M
322.212 163.664 L
326.718 162.427 L
S
GR
GS
[0.75 0 0 0.75 0 0.5] CT
1 LJ
2.667 LW
N
334.792 197.515 M
333.836 197.884 L
334.453 197.216 L
S
GR
GS
[0.75 0 0 0.75 0 0.5] CT
1 LJ
2.667 LW
N
342.906 227.864 M
346.572 227.755 L
343.405 229.16 L
S
GR
GS
[0.75 0 0 0.75 0 0.5] CT
1 LJ
2.667 LW
N
344.646 258.315 M
349.915 256.899 L
346.144 260.03 L
S
GR
GS
[0.75 0 0 0.75 0 0.5] CT
1 LJ
2.667 LW
N
345.48 289.838 M
351.665 287.495 L
347.66 291.772 L
S
GR
GS
[0.75 0 0 0.75 0 0.5] CT
1 LJ
2.667 LW
N
346.355 319.63 M
353.892 315.552 L
349.769 321.843 L
S
GR
GS
[0.75 0 0 0.75 0 0.5] CT
1 LJ
2.667 LW
N
346.344 351.971 M
354.211 347.235 L
350.207 354.224 L
S
GR
GS
[0.75 0 0 0.75 0 0.5] CT
1 LJ
2.667 LW
N
353.747 58.948 M
341.662 54.113 L
355.32 54.063 L
S
GR
GS
[0.75 0 0 0.75 0 0.5] CT
1 LJ
2.667 LW
N
355.296 90.239 M
344.527 84.466 L
357.609 85.713 L
S
GR
GS
[0.75 0 0 0.75 0 0.5] CT
1 LJ
2.667 LW
N
361.674 121.901 M
354.398 116.028 L
364.458 118.61 L
S
GR
GS
[0.75 0 0 0.75 0 0.5] CT
1 LJ
2.667 LW
N
368.571 154.089 M
364.906 148.436 L
371.643 152.115 L
S
GR
GS
[0.75 0 0 0.75 0 0.5] CT
1 LJ
2.667 LW
N
376.174 185.307 M
376.686 179.515 L
379.826 184.809 L
S
GR
GS
[0.75 0 0 0.75 0 0.5] CT
1 LJ
2.667 LW
N
381.979 216.776 M
385.76 210.714 L
386.18 217.414 L
S
GR
GS
[0.75 0 0 0.75 0 0.5] CT
1 LJ
2.667 LW
N
383.111 250.161 M
387.513 244.09 L
387.394 251.019 L
S
GR
GS
[0.75 0 0 0.75 0 0.5] CT
1 LJ
2.667 LW
N
385.793 283.073 M
391.653 276.981 L
390.259 284.449 L
S
GR
GS
[0.75 0 0 0.75 0 0.5] CT
1 LJ
2.667 LW
N
388.381 316.732 M
395.471 310.96 L
392.792 318.587 L
S
GR
GS
[0.75 0 0 0.75 0 0.5] CT
1 LJ
2.667 LW
N
389.91 351.231 M
397.543 346.027 L
394.037 353.344 L
S
GR
GS
[0.75 0 0 0.75 0 0.5] CT
1 LJ
2.667 LW
N
395.539 57.963 M
382.443 52.3 L
397.509 52.619 L
S
GR
GS
[0.75 0 0 0.75 0 0.5] CT
1 LJ
2.667 LW
N
399.197 89.55 M
388.337 83.379 L
401.744 84.944 L
S
GR
GS
[0.75 0 0 0.75 0 0.5] CT
1 LJ
2.667 LW
N
405.216 119.683 M
398.048 112.645 L
408.739 116.293 L
S
GR
GS
[0.75 0 0 0.75 0 0.5] CT
1 LJ
2.667 LW
N
410.645 147.488 M
407.441 138.405 L
415.897 145.275 L
S
GR
GS
[0.75 0 0 0.75 0 0.5] CT
1 LJ
2.667 LW
N
416.294 176.012 M
416.993 165.254 L
423.045 174.996 L
S
GR
GS
[0.75 0 0 0.75 0 0.5] CT
1 LJ
2.667 LW
N
420 209.896 M
422.404 199.717 L
426.595 209.557 L
S
GR
GS
[0.75 0 0 0.75 0 0.5] CT
1 LJ
2.667 LW
N
422.038 244.183 M
425.27 234.542 L
428.396 244.203 L
S
GR
GS
[0.75 0 0 0.75 0 0.5] CT
1 LJ
2.667 LW
N
425.992 280.263 M
430.525 272.267 L
431.482 280.942 L
S
GR
GS
[0.75 0 0 0.75 0 0.5] CT
1 LJ
2.667 LW
N
428.894 315.209 M
434.503 308.18 L
433.913 316.386 L
S
GR
GS
[0.75 0 0 0.75 0 0.5] CT
1 LJ
2.667 LW
N
430.892 349.911 M
437.212 343.61 L
435.544 351.426 L
S
GR
GS
[0.75 0 0 0.75 0 0.5] CT
1 LJ
2.667 LW
N
439.301 53.752 M
426.891 46.016 L
442.638 48.408 L
S
GR
GS
[0.75 0 0 0.75 0 0.5] CT
1 LJ
2.667 LW
N
442.322 84.084 M
432.143 75.161 L
446.656 79.398 L
S
GR
GS
[0.75 0 0 0.75 0 0.5] CT
1 LJ
2.667 LW
N
447.727 114.439 M
440.898 104.669 L
452.983 110.85 L
S
GR
GS
[0.75 0 0 0.75 0 0.5] CT
1 LJ
2.667 LW
N
453.977 144.633 M
450.928 134.055 L
460.175 142.3 L
S
GR
GS
[0.75 0 0 0.75 0 0.5] CT
1 LJ
2.667 LW
N
460.195 175.324 M
460.799 164.167 L
467.184 174.227 L
S
GR
GS
[0.75 0 0 0.75 0 0.5] CT
1 LJ
2.667 LW
N
461.328 208.709 M
462.552 197.541 L
468.394 207.831 L
S
GR
GS
[0.75 0 0 0.75 0 0.5] CT
1 LJ
2.667 LW
N
463.328 242.094 M
465.577 231.038 L
470.449 241.596 L
S
GR
GS
[0.75 0 0 0.75 0 0.5] CT
1 LJ
2.667 LW
N
467.058 277.456 M
470.67 267.675 L
473.545 277.595 L
S
GR
GS
[0.75 0 0 0.75 0 0.5] CT
1 LJ
2.667 LW
N
470.517 314.487 M
474.969 306.73 L
475.847 315.165 L
S
GR
GS
[0.75 0 0 0.75 0 0.5] CT
1 LJ
2.667 LW
N
472.419 349.937 M
477.356 343.247 L
477.146 350.914 L
S
GR
GS
[0.75 0 0 0.75 0 0.5] CT
1 LJ
2.667 LW
N
484.111 51.335 M
472.446 42.511 L
488.21 46.13 L
S
GR
GS
[0.75 0 0 0.75 0 0.5] CT
1 LJ
2.667 LW
N
486.268 81.007 M
476.587 70.568 L
491.598 76.321 L
S
GR
GS
[0.75 0 0 0.75 0 0.5] CT
1 LJ
2.667 LW
N
490.248 110.591 M
483.433 98.747 L
496.789 106.762 L
S
GR
GS
[0.75 0 0 0.75 0 0.5] CT
1 LJ
2.667 LW
N
495.392 140.642 M
491.869 127.771 L
502.957 137.871 L
S
GR
GS
[0.75 0 0 0.75 0 0.5] CT
1 LJ
2.667 LW
N
500.567 172.909 M
499.831 160.058 L
508.447 171.135 L
S
GR
GS
[0.75 0 0 0.75 0 0.5] CT
1 LJ
2.667 LW
N
501.754 206.619 M
501.581 193.916 L
509.607 205.063 L
S
GR
GS
[0.75 0 0 0.75 0 0.5] CT
1 LJ
2.667 LW
N
506.443 241.232 M
508.267 229.587 L
513.876 240.514 L
S
GR
GS
[0.75 0 0 0.75 0 0.5] CT
1 LJ
2.667 LW
N
511.143 277.243 M
514.054 268.966 L
S
GR
GS
[0.75 0 0 0.75 0 0.5] CT
1 LJ
2.667 LW
N
513.974 314.415 M
514.054 314.257 L
S
GR
GS
[0.75 0 0 0.75 0 0.5] CT
1 LJ
2.667 LW
N
114.001 61.364 M
97.284 92.301 L
S
GR
GS
[0.75 0 0 0.75 0 0.5] CT
1 LJ
2.667 LW
N
114.001 95.101 M
104.13 127.247 L
S
GR
GS
[0.75 0 0 0.75 0 0.5] CT
1 LJ
2.667 LW
N
114.001 128.839 M
112.726 160.622 L
S
GR
GS
[0.75 0 0 0.75 0 0.5] CT
1 LJ
2.667 LW
N
114.001 162.576 M
114.957 193.997 L
S
GR
GS
[0.75 0 0 0.75 0 0.5] CT
1 LJ
2.667 LW
N
114.001 196.313 M
122.596 226.405 L
S
GR
GS
[0.75 0 0 0.75 0 0.5] CT
1 LJ
2.667 LW
N
114.001 230.051 M
131.511 256.88 L
S
GR
GS
[0.75 0 0 0.75 0 0.5] CT
1 LJ
2.667 LW
N
114.001 263.788 M
136.448 281.311 L
S
GR
GS
[0.75 0 0 0.75 0 0.5] CT
1 LJ
2.667 LW
N
114.001 297.526 M
136.767 305.139 L
S
GR
GS
[0.75 0 0 0.75 0 0.5] CT
1 LJ
2.667 LW
N
114.001 331.262 M
137.723 335.372 L
S
GR
GS
[0.75 0 0 0.75 0 0.5] CT
1 LJ
2.667 LW
N
114.001 365 M
114.42 365.04 L
S
GR
GS
[0.75 0 0 0.75 0 0.5] CT
1 LJ
2.667 LW
N
158.444 61.364 M
135.359 89.159 L
S
GR
GS
[0.75 0 0 0.75 0 0.5] CT
1 LJ
2.667 LW
N
158.444 95.101 M
143.481 123.501 L
S
GR
GS
[0.75 0 0 0.75 0 0.5] CT
1 LJ
2.667 LW
N
158.444 128.839 M
152.395 156.755 L
S
GR
GS
[0.75 0 0 0.75 0 0.5] CT
1 LJ
2.667 LW
N
158.444 162.576 M
154.942 190.251 L
S
GR
GS
[0.75 0 0 0.75 0 0.5] CT
1 LJ
2.667 LW
N
158.444 196.313 M
165.29 222.9 L
S
GR
GS
[0.75 0 0 0.75 0 0.5] CT
1 LJ
2.667 LW
N
158.444 230.051 M
176.436 253.858 L
S
GR
GS
[0.75 0 0 0.75 0 0.5] CT
1 LJ
2.667 LW
N
158.444 263.788 M
180.573 279.619 L
S
GR
GS
[0.75 0 0 0.75 0 0.5] CT
1 LJ
2.667 LW
N
158.444 297.526 M
181.37 304.776 L
S
GR
GS
[0.75 0 0 0.75 0 0.5] CT
1 LJ
2.667 LW
N
158.444 331.262 M
181.689 336.097 L
S
GR
GS
[0.75 0 0 0.75 0 0.5] CT
1 LJ
2.667 LW
N
158.444 365 M
182.485 364.033 L
S
GR
GS
[0.75 0 0 0.75 0 0.5] CT
1 LJ
2.667 LW
N
202.888 61.364 M
175.982 83.6 L
S
GR
GS
[0.75 0 0 0.75 0 0.5] CT
1 LJ
2.667 LW
N
202.888 95.101 M
183.465 116.008 L
S
GR
GS
[0.75 0 0 0.75 0 0.5] CT
1 LJ
2.667 LW
N
202.888 128.839 M
190.311 149.625 L
S
GR
GS
[0.75 0 0 0.75 0 0.5] CT
1 LJ
2.667 LW
N
202.888 162.576 M
194.77 183.362 L
S
GR
GS
[0.75 0 0 0.75 0 0.5] CT
1 LJ
2.667 LW
N
202.888 196.313 M
206.55 216.495 L
S
GR
GS
[0.75 0 0 0.75 0 0.5] CT
1 LJ
2.667 LW
N
202.888 230.051 M
220.083 247.936 L
S
GR
GS
[0.75 0 0 0.75 0 0.5] CT
1 LJ
2.667 LW
N
202.888 263.788 M
225.654 274.664 L
S
GR
GS
[0.75 0 0 0.75 0 0.5] CT
1 LJ
2.667 LW
N
202.888 297.526 M
226.132 300.788 L
S
GR
GS
[0.75 0 0 0.75 0 0.5] CT
1 LJ
2.667 LW
N
202.888 331.262 M
226.292 333.438 L
S
GR
GS
[0.75 0 0 0.75 0 0.5] CT
1 LJ
2.667 LW
N
202.888 365 M
226.929 362.583 L
S
GR
GS
[0.75 0 0 0.75 0 0.5] CT
1 LJ
2.667 LW
N
247.332 61.364 M
218.835 81.183 L
S
GR
GS
[0.75 0 0 0.75 0 0.5] CT
1 LJ
2.667 LW
N
247.332 95.101 M
226.956 115.042 L
S
GR
GS
[0.75 0 0 0.75 0 0.5] CT
1 LJ
2.667 LW
N
247.332 128.839 M
229.025 146.724 L
S
GR
GS
[0.75 0 0 0.75 0 0.5] CT
1 LJ
2.667 LW
N
247.332 162.576 M
236.668 177.32 L
S
GR
GS
[0.75 0 0 0.75 0 0.5] CT
1 LJ
2.667 LW
N
247.332 196.313 M
247.81 208.64 L
S
GR
GS
[0.75 0 0 0.75 0 0.5] CT
1 LJ
2.667 LW
N
247.332 230.051 M
261.183 239.598 L
S
GR
GS
[0.75 0 0 0.75 0 0.5] CT
1 LJ
2.667 LW
N
247.332 263.788 M
268.348 266.93 L
S
GR
GS
[0.75 0 0 0.75 0 0.5] CT
1 LJ
2.667 LW
N
247.332 297.526 M
268.667 295.35 L
S
GR
GS
[0.75 0 0 0.75 0 0.5] CT
1 LJ
2.667 LW
N
247.332 331.262 M
268.986 326.308 L
S
GR
GS
[0.75 0 0 0.75 0 0.5] CT
1 LJ
2.667 LW
N
247.332 365 M
270.576 356.057 L
S
GR
GS
[0.75 0 0 0.75 0 0.5] CT
1 LJ
2.667 LW
N
291.779 61.364 M
258.823 71.515 L
S
GR
GS
[0.75 0 0 0.75 0 0.5] CT
1 LJ
2.667 LW
N
291.779 95.101 M
265.67 106.098 L
S
GR
GS
[0.75 0 0 0.75 0 0.5] CT
1 LJ
2.667 LW
N
291.779 128.839 M
269.806 140.319 L
S
GR
GS
[0.75 0 0 0.75 0 0.5] CT
1 LJ
2.667 LW
N
291.779 162.576 M
279.996 174.782 L
S
GR
GS
[0.75 0 0 0.75 0 0.5] CT
1 LJ
2.667 LW
N
291.779 196.313 M
291.938 207.552 L
S
GR
GS
[0.75 0 0 0.75 0 0.5] CT
1 LJ
2.667 LW
N
291.779 230.051 M
304.515 235.972 L
S
GR
GS
[0.75 0 0 0.75 0 0.5] CT
1 LJ
2.667 LW
N
291.779 263.788 M
308.496 258.833 L
S
GR
GS
[0.75 0 0 0.75 0 0.5] CT
1 LJ
2.667 LW
N
291.779 297.526 M
308.177 288.22 L
S
GR
GS
[0.75 0 0 0.75 0 0.5] CT
1 LJ
2.667 LW
N
291.779 331.262 M
310.724 317.606 L
S
GR
GS
[0.75 0 0 0.75 0 0.5] CT
1 LJ
2.667 LW
N
291.779 365 M
312.473 350.256 L
S
GR
GS
[0.75 0 0 0.75 0 0.5] CT
1 LJ
2.667 LW
N
336.223 61.364 M
299.764 61.243 L
S
GR
GS
[0.75 0 0 0.75 0 0.5] CT
1 LJ
2.667 LW
N
336.223 95.101 M
302.789 95.101 L
S
GR
GS
[0.75 0 0 0.75 0 0.5] CT
1 LJ
2.667 LW
N
336.223 128.839 M
311.863 129.08 L
S
GR
GS
[0.75 0 0 0.75 0 0.5] CT
1 LJ
2.667 LW
N
336.223 162.576 M
322.212 163.664 L
S
GR
GS
[0.75 0 0 0.75 0 0.5] CT
1 LJ
2.667 LW
N
336.223 196.313 M
333.836 197.884 L
S
GR
GS
[0.75 0 0 0.75 0 0.5] CT
1 LJ
2.667 LW
N
336.223 230.051 M
346.572 227.755 L
S
GR
GS
[0.75 0 0 0.75 0 0.5] CT
1 LJ
2.667 LW
N
336.223 263.788 M
349.915 256.899 L
S
GR
GS
[0.75 0 0 0.75 0 0.5] CT
1 LJ
2.667 LW
N
336.223 297.526 M
351.665 287.495 L
S
GR
GS
[0.75 0 0 0.75 0 0.5] CT
1 LJ
2.667 LW
N
336.223 331.262 M
353.892 315.552 L
S
GR
GS
[0.75 0 0 0.75 0 0.5] CT
1 LJ
2.667 LW
N
336.223 365 M
354.211 347.235 L
S
GR
GS
[0.75 0 0 0.75 0 0.5] CT
1 LJ
2.667 LW
N
380.667 61.364 M
341.662 54.113 L
S
GR
GS
[0.75 0 0 0.75 0 0.5] CT
1 LJ
2.667 LW
N
380.667 95.101 M
344.527 84.466 L
S
GR
GS
[0.75 0 0 0.75 0 0.5] CT
1 LJ
2.667 LW
N
380.667 128.839 M
354.398 116.028 L
S
GR
GS
[0.75 0 0 0.75 0 0.5] CT
1 LJ
2.667 LW
N
380.667 162.576 M
364.906 148.436 L
S
GR
GS
[0.75 0 0 0.75 0 0.5] CT
1 LJ
2.667 LW
N
380.667 196.313 M
376.686 179.515 L
S
GR
GS
[0.75 0 0 0.75 0 0.5] CT
1 LJ
2.667 LW
N
380.667 230.051 M
385.76 210.714 L
S
GR
GS
[0.75 0 0 0.75 0 0.5] CT
1 LJ
2.667 LW
N
380.667 263.788 M
387.513 244.09 L
S
GR
GS
[0.75 0 0 0.75 0 0.5] CT
1 LJ
2.667 LW
N
380.667 297.526 M
391.653 276.981 L
S
GR
GS
[0.75 0 0 0.75 0 0.5] CT
1 LJ
2.667 LW
N
380.667 331.262 M
395.471 310.96 L
S
GR
GS
[0.75 0 0 0.75 0 0.5] CT
1 LJ
2.667 LW
N
380.667 365 M
397.543 346.027 L
S
GR
GS
[0.75 0 0 0.75 0 0.5] CT
1 LJ
2.667 LW
N
425.11 61.364 M
382.443 52.3 L
S
GR
GS
[0.75 0 0 0.75 0 0.5] CT
1 LJ
2.667 LW
N
425.11 95.101 M
388.337 83.379 L
S
GR
GS
[0.75 0 0 0.75 0 0.5] CT
1 LJ
2.667 LW
N
425.11 128.839 M
398.048 112.645 L
S
GR
GS
[0.75 0 0 0.75 0 0.5] CT
1 LJ
2.667 LW
N
425.11 162.576 M
407.441 138.405 L
S
GR
GS
[0.75 0 0 0.75 0 0.5] CT
1 LJ
2.667 LW
N
425.11 196.313 M
416.993 165.254 L
S
GR
GS
[0.75 0 0 0.75 0 0.5] CT
1 LJ
2.667 LW
N
425.11 230.051 M
422.404 199.717 L
S
GR
GS
[0.75 0 0 0.75 0 0.5] CT
1 LJ
2.667 LW
N
425.11 263.788 M
425.27 234.542 L
S
GR
GS
[0.75 0 0 0.75 0 0.5] CT
1 LJ
2.667 LW
N
425.11 297.526 M
430.525 272.267 L
S
GR
GS
[0.75 0 0 0.75 0 0.5] CT
1 LJ
2.667 LW
N
425.11 331.262 M
434.503 308.18 L
S
GR
GS
[0.75 0 0 0.75 0 0.5] CT
1 LJ
2.667 LW
N
425.11 365 M
437.212 343.61 L
S
GR
GS
[0.75 0 0 0.75 0 0.5] CT
1 LJ
2.667 LW
N
469.554 61.364 M
426.891 46.016 L
S
GR
GS
[0.75 0 0 0.75 0 0.5] CT
1 LJ
2.667 LW
N
469.554 95.101 M
432.143 75.161 L
S
GR
GS
[0.75 0 0 0.75 0 0.5] CT
1 LJ
2.667 LW
N
469.554 128.839 M
440.898 104.669 L
S
GR
GS
[0.75 0 0 0.75 0 0.5] CT
1 LJ
2.667 LW
N
469.554 162.576 M
450.928 134.055 L
S
GR
GS
[0.75 0 0 0.75 0 0.5] CT
1 LJ
2.667 LW
N
469.554 196.313 M
460.799 164.167 L
S
GR
GS
[0.75 0 0 0.75 0 0.5] CT
1 LJ
2.667 LW
N
469.554 230.051 M
462.552 197.541 L
S
GR
GS
[0.75 0 0 0.75 0 0.5] CT
1 LJ
2.667 LW
N
469.554 263.788 M
465.577 231.038 L
S
GR
GS
[0.75 0 0 0.75 0 0.5] CT
1 LJ
2.667 LW
N
469.554 297.526 M
470.67 267.675 L
S
GR
GS
[0.75 0 0 0.75 0 0.5] CT
1 LJ
2.667 LW
N
469.554 331.262 M
474.969 306.73 L
S
GR
GS
[0.75 0 0 0.75 0 0.5] CT
1 LJ
2.667 LW
N
469.554 365 M
477.356 343.247 L
S
GR
GS
[0.75 0 0 0.75 0 0.5] CT
1 LJ
2.667 LW
N
514.001 61.364 M
472.446 42.511 L
S
GR
GS
[0.75 0 0 0.75 0 0.5] CT
1 LJ
2.667 LW
N
514.001 95.101 M
476.587 70.568 L
S
GR
GS
[0.75 0 0 0.75 0 0.5] CT
1 LJ
2.667 LW
N
514.001 128.839 M
483.433 98.747 L
S
GR
GS
[0.75 0 0 0.75 0 0.5] CT
1 LJ
2.667 LW
N
514.001 162.576 M
491.869 127.771 L
S
GR
GS
[0.75 0 0 0.75 0 0.5] CT
1 LJ
2.667 LW
N
514.001 196.313 M
499.831 160.058 L
S
GR
GS
[0.75 0 0 0.75 0 0.5] CT
1 LJ
2.667 LW
N
514.001 230.051 M
501.581 193.916 L
S
GR
GS
[0.75 0 0 0.75 0 0.5] CT
1 LJ
2.667 LW
N
514.001 263.788 M
508.267 229.587 L
S
GR
GS
[0.75 0 0 0.75 0 0.5] CT
1 LJ
2.667 LW
N
514.001 297.526 M
514.054 295.026 L
S
GR
GS
[0.75 0 0 0.75 0 0.5] CT
1 LJ
2.667 LW
N
514.001 331.262 M
514.054 330.936 L
S
GR
GS
[0.75 0 0 0.75 0 0.5] CT
1 LJ
2.667 LW
N
514.001 365 M
514.054 364.773 L
S
GR
%%Trailer
%%Pages: 1
%%EOF
