%!PS-Adobe-3.0 EPSF-3.0
%%Creator: (MATLAB, The Mathworks, Inc. Version 9.1.0.441655 \(R2016b\). Operating System: Linux)
%%Title: /home/ncaban/Thesis_materials/images/location_40min.eps
%%CreationDate: 2018-08-30T12:11:31
%%Pages: (atend)
%%BoundingBox:    11     3   382   293
%%LanguageLevel: 3
%%EndComments
%%BeginProlog
%%BeginResource: procset (Apache XML Graphics Std ProcSet) 1.2 0
%%Version: 1.2 0
%%Copyright: (Copyright 2001-2003,2010 The Apache Software Foundation. License terms: http://www.apache.org/licenses/LICENSE-2.0)
/bd{bind def}bind def
/ld{load def}bd
/GR/grestore ld
/M/moveto ld
/LJ/setlinejoin ld
/C/curveto ld
/f/fill ld
/LW/setlinewidth ld
/GC/setgray ld
/t/show ld
/N/newpath ld
/CT/concat ld
/cp/closepath ld
/S/stroke ld
/L/lineto ld
/CC/setcmykcolor ld
/A/ashow ld
/GS/gsave ld
/RC/setrgbcolor ld
/RM/rmoveto ld
/ML/setmiterlimit ld
/re {4 2 roll M
1 index 0 rlineto
0 exch rlineto
neg 0 rlineto
cp } bd
/_ctm matrix def
/_tm matrix def
/BT { _ctm currentmatrix pop matrix _tm copy pop 0 0 moveto } bd
/ET { _ctm setmatrix } bd
/iTm { _ctm setmatrix _tm concat } bd
/Tm { _tm astore pop iTm 0 0 moveto } bd
/ux 0.0 def
/uy 0.0 def
/F {
  /Tp exch def
  /Tf exch def
  Tf findfont Tp scalefont setfont
  /cf Tf def  /cs Tp def
} bd
/ULS {currentpoint /uy exch def /ux exch def} bd
/ULE {
  /Tcx currentpoint pop def
  gsave
  newpath
  cf findfont cs scalefont dup
  /FontMatrix get 0 get /Ts exch def /FontInfo get dup
  /UnderlinePosition get Ts mul /To exch def
  /UnderlineThickness get Ts mul /Tt exch def
  ux uy To add moveto  Tcx uy To add lineto
  Tt setlinewidth stroke
  grestore
} bd
/OLE {
  /Tcx currentpoint pop def
  gsave
  newpath
  cf findfont cs scalefont dup
  /FontMatrix get 0 get /Ts exch def /FontInfo get dup
  /UnderlinePosition get Ts mul /To exch def
  /UnderlineThickness get Ts mul /Tt exch def
  ux uy To add cs add moveto Tcx uy To add cs add lineto
  Tt setlinewidth stroke
  grestore
} bd
/SOE {
  /Tcx currentpoint pop def
  gsave
  newpath
  cf findfont cs scalefont dup
  /FontMatrix get 0 get /Ts exch def /FontInfo get dup
  /UnderlinePosition get Ts mul /To exch def
  /UnderlineThickness get Ts mul /Tt exch def
  ux uy To add cs 10 mul 26 idiv add moveto Tcx uy To add cs 10 mul 26 idiv add lineto
  Tt setlinewidth stroke
  grestore
} bd
/QT {
/Y22 exch store
/X22 exch store
/Y21 exch store
/X21 exch store
currentpoint
/Y21 load 2 mul add 3 div exch
/X21 load 2 mul add 3 div exch
/X21 load 2 mul /X22 load add 3 div
/Y21 load 2 mul /Y22 load add 3 div
/X22 load /Y22 load curveto
} bd
/SSPD {
dup length /d exch dict def
{
/v exch def
/k exch def
currentpagedevice k known {
/cpdv currentpagedevice k get def
v cpdv ne {
/upd false def
/nullv v type /nulltype eq def
/nullcpdv cpdv type /nulltype eq def
nullv nullcpdv or
{
/upd true def
} {
/sametype v type cpdv type eq def
sametype {
v type /arraytype eq {
/vlen v length def
/cpdvlen cpdv length def
vlen cpdvlen eq {
0 1 vlen 1 sub {
/i exch def
/obj v i get def
/cpdobj cpdv i get def
obj cpdobj ne {
/upd true def
exit
} if
} for
} {
/upd true def
} ifelse
} {
v type /dicttype eq {
v {
/dv exch def
/dk exch def
/cpddv cpdv dk get def
dv cpddv ne {
/upd true def
exit
} if
} forall
} {
/upd true def
} ifelse
} ifelse
} if
} ifelse
upd true eq {
d k v put
} if
} if
} if
} forall
d length 0 gt {
d setpagedevice
} if
} bd
/RE { % /NewFontName [NewEncodingArray] /FontName RE -
  findfont dup length dict begin
  {
    1 index /FID ne
    {def} {pop pop} ifelse
  } forall
  /Encoding exch def
  /FontName 1 index def
  currentdict definefont pop
  end
} bind def
%%EndResource
%%BeginResource: procset (Apache XML Graphics EPS ProcSet) 1.0 0
%%Version: 1.0 0
%%Copyright: (Copyright 2002-2003 The Apache Software Foundation. License terms: http://www.apache.org/licenses/LICENSE-2.0)
/BeginEPSF { %def
/b4_Inc_state save def         % Save state for cleanup
/dict_count countdictstack def % Count objects on dict stack
/op_count count 1 sub def      % Count objects on operand stack
userdict begin                 % Push userdict on dict stack
/showpage { } def              % Redefine showpage, { } = null proc
0 setgray 0 setlinecap         % Prepare graphics state
1 setlinewidth 0 setlinejoin
10 setmiterlimit [ ] 0 setdash newpath
/languagelevel where           % If level not equal to 1 then
{pop languagelevel             % set strokeadjust and
1 ne                           % overprint to their defaults.
{false setstrokeadjust false setoverprint
} if
} if
} bd
/EndEPSF { %def
count op_count sub {pop} repeat            % Clean up stacks
countdictstack dict_count sub {end} repeat
b4_Inc_state restore
} bd
%%EndResource
%FOPBeginFontDict
%%IncludeResource: font Courier-Bold
%%IncludeResource: font Helvetica
%%IncludeResource: font Courier-BoldOblique
%%IncludeResource: font Courier-Oblique
%%IncludeResource: font Times-Roman
%%IncludeResource: font Helvetica-BoldOblique
%%IncludeResource: font Helvetica-Bold
%%IncludeResource: font Helvetica-Oblique
%%IncludeResource: font Times-BoldItalic
%%IncludeResource: font Courier
%%IncludeResource: font Times-Italic
%%IncludeResource: font Times-Bold
%%IncludeResource: font Symbol
%%IncludeResource: font ZapfDingbats
%FOPEndFontDict
%%BeginResource: encoding WinAnsiEncoding
/WinAnsiEncoding [
/.notdef /.notdef /.notdef /.notdef /.notdef
/.notdef /.notdef /.notdef /.notdef /.notdef
/.notdef /.notdef /.notdef /.notdef /.notdef
/.notdef /.notdef /.notdef /.notdef /.notdef
/.notdef /.notdef /.notdef /.notdef /.notdef
/.notdef /.notdef /.notdef /.notdef /.notdef
/.notdef /.notdef /space /exclam /quotedbl
/numbersign /dollar /percent /ampersand /quotesingle
/parenleft /parenright /asterisk /plus /comma
/hyphen /period /slash /zero /one
/two /three /four /five /six
/seven /eight /nine /colon /semicolon
/less /equal /greater /question /at
/A /B /C /D /E
/F /G /H /I /J
/K /L /M /N /O
/P /Q /R /S /T
/U /V /W /X /Y
/Z /bracketleft /backslash /bracketright /asciicircum
/underscore /quoteleft /a /b /c
/d /e /f /g /h
/i /j /k /l /m
/n /o /p /q /r
/s /t /u /v /w
/x /y /z /braceleft /bar
/braceright /asciitilde /bullet /Euro /bullet
/quotesinglbase /florin /quotedblbase /ellipsis /dagger
/daggerdbl /circumflex /perthousand /Scaron /guilsinglleft
/OE /bullet /Zcaron /bullet /bullet
/quoteleft /quoteright /quotedblleft /quotedblright /bullet
/endash /emdash /asciitilde /trademark /scaron
/guilsinglright /oe /bullet /zcaron /Ydieresis
/space /exclamdown /cent /sterling /currency
/yen /brokenbar /section /dieresis /copyright
/ordfeminine /guillemotleft /logicalnot /sfthyphen /registered
/macron /degree /plusminus /twosuperior /threesuperior
/acute /mu /paragraph /middot /cedilla
/onesuperior /ordmasculine /guillemotright /onequarter /onehalf
/threequarters /questiondown /Agrave /Aacute /Acircumflex
/Atilde /Adieresis /Aring /AE /Ccedilla
/Egrave /Eacute /Ecircumflex /Edieresis /Igrave
/Iacute /Icircumflex /Idieresis /Eth /Ntilde
/Ograve /Oacute /Ocircumflex /Otilde /Odieresis
/multiply /Oslash /Ugrave /Uacute /Ucircumflex
/Udieresis /Yacute /Thorn /germandbls /agrave
/aacute /acircumflex /atilde /adieresis /aring
/ae /ccedilla /egrave /eacute /ecircumflex
/edieresis /igrave /iacute /icircumflex /idieresis
/eth /ntilde /ograve /oacute /ocircumflex
/otilde /odieresis /divide /oslash /ugrave
/uacute /ucircumflex /udieresis /yacute /thorn
/ydieresis
] def
%%EndResource
%FOPBeginFontReencode
/Courier-Bold findfont
dup length dict begin
  {1 index /FID ne {def} {pop pop} ifelse} forall
  /Encoding WinAnsiEncoding def
  currentdict
end
/Courier-Bold exch definefont pop
/Helvetica findfont
dup length dict begin
  {1 index /FID ne {def} {pop pop} ifelse} forall
  /Encoding WinAnsiEncoding def
  currentdict
end
/Helvetica exch definefont pop
/Courier-BoldOblique findfont
dup length dict begin
  {1 index /FID ne {def} {pop pop} ifelse} forall
  /Encoding WinAnsiEncoding def
  currentdict
end
/Courier-BoldOblique exch definefont pop
/Courier-Oblique findfont
dup length dict begin
  {1 index /FID ne {def} {pop pop} ifelse} forall
  /Encoding WinAnsiEncoding def
  currentdict
end
/Courier-Oblique exch definefont pop
/Times-Roman findfont
dup length dict begin
  {1 index /FID ne {def} {pop pop} ifelse} forall
  /Encoding WinAnsiEncoding def
  currentdict
end
/Times-Roman exch definefont pop
/Helvetica-BoldOblique findfont
dup length dict begin
  {1 index /FID ne {def} {pop pop} ifelse} forall
  /Encoding WinAnsiEncoding def
  currentdict
end
/Helvetica-BoldOblique exch definefont pop
/Helvetica-Bold findfont
dup length dict begin
  {1 index /FID ne {def} {pop pop} ifelse} forall
  /Encoding WinAnsiEncoding def
  currentdict
end
/Helvetica-Bold exch definefont pop
/Helvetica-Oblique findfont
dup length dict begin
  {1 index /FID ne {def} {pop pop} ifelse} forall
  /Encoding WinAnsiEncoding def
  currentdict
end
/Helvetica-Oblique exch definefont pop
/Times-BoldItalic findfont
dup length dict begin
  {1 index /FID ne {def} {pop pop} ifelse} forall
  /Encoding WinAnsiEncoding def
  currentdict
end
/Times-BoldItalic exch definefont pop
/Courier findfont
dup length dict begin
  {1 index /FID ne {def} {pop pop} ifelse} forall
  /Encoding WinAnsiEncoding def
  currentdict
end
/Courier exch definefont pop
/Times-Italic findfont
dup length dict begin
  {1 index /FID ne {def} {pop pop} ifelse} forall
  /Encoding WinAnsiEncoding def
  currentdict
end
/Times-Italic exch definefont pop
/Times-Bold findfont
dup length dict begin
  {1 index /FID ne {def} {pop pop} ifelse} forall
  /Encoding WinAnsiEncoding def
  currentdict
end
/Times-Bold exch definefont pop
%FOPEndFontReencode
%%EndProlog
%%Page: 1 1
%%PageBoundingBox: 0 0 420 315
%%BeginPageSetup
[1 0 0 -1 0 315] CT
%%EndPageSetup
GS
[0.75 0 0 0.75 0 0] CT
1 GC
N
0 0 560 420 re
f
GR
GS
[0.75 0 0 0.75 0 0] CT
1 GC
N
0 0 560 420 re
f
GR
GS
[0.75 0 0 0.75 0 0] CT
1 GC
N
72.999 374 M
507.001 374 L
507.001 31 L
72.999 31 L
cp
f
GR
GS
[0.75 0 0 0.75 0 0] CT
0.149 GC
2 setlinecap
1 LJ
0.667 LW
N
72.999 374 M
507.001 374 L
S
GR
GS
[0.75 0 0 0.75 0 0] CT
0.149 GC
2 setlinecap
1 LJ
0.667 LW
N
72.999 31 M
507.001 31 L
S
GR
GS
[0.75 0 0 0.75 0 0] CT
0.149 GC
2 setlinecap
1 LJ
0.667 LW
N
114.646 374 M
114.646 369.66 L
S
GR
GS
[0.75 0 0 0.75 0 0] CT
0.149 GC
2 setlinecap
1 LJ
0.667 LW
N
158.484 374 M
158.484 369.66 L
S
GR
GS
[0.75 0 0 0.75 0 0] CT
0.149 GC
2 setlinecap
1 LJ
0.667 LW
N
202.325 374 M
202.325 369.66 L
S
GR
GS
[0.75 0 0 0.75 0 0] CT
0.149 GC
2 setlinecap
1 LJ
0.667 LW
N
246.162 374 M
246.162 369.66 L
S
GR
GS
[0.75 0 0 0.75 0 0] CT
0.149 GC
2 setlinecap
1 LJ
0.667 LW
N
290 374 M
290 369.66 L
S
GR
GS
[0.75 0 0 0.75 0 0] CT
0.149 GC
2 setlinecap
1 LJ
0.667 LW
N
333.838 374 M
333.838 369.66 L
S
GR
GS
[0.75 0 0 0.75 0 0] CT
0.149 GC
2 setlinecap
1 LJ
0.667 LW
N
377.675 374 M
377.675 369.66 L
S
GR
GS
[0.75 0 0 0.75 0 0] CT
0.149 GC
2 setlinecap
1 LJ
0.667 LW
N
421.516 374 M
421.516 369.66 L
S
GR
GS
[0.75 0 0 0.75 0 0] CT
0.149 GC
2 setlinecap
1 LJ
0.667 LW
N
465.354 374 M
465.354 369.66 L
S
GR
GS
[0.75 0 0 0.75 0 0] CT
0.149 GC
2 setlinecap
1 LJ
0.667 LW
N
114.646 31 M
114.646 35.34 L
S
GR
GS
[0.75 0 0 0.75 0 0] CT
0.149 GC
2 setlinecap
1 LJ
0.667 LW
N
158.484 31 M
158.484 35.34 L
S
GR
GS
[0.75 0 0 0.75 0 0] CT
0.149 GC
2 setlinecap
1 LJ
0.667 LW
N
202.325 31 M
202.325 35.34 L
S
GR
GS
[0.75 0 0 0.75 0 0] CT
0.149 GC
2 setlinecap
1 LJ
0.667 LW
N
246.162 31 M
246.162 35.34 L
S
GR
GS
[0.75 0 0 0.75 0 0] CT
0.149 GC
2 setlinecap
1 LJ
0.667 LW
N
290 31 M
290 35.34 L
S
GR
GS
[0.75 0 0 0.75 0 0] CT
0.149 GC
2 setlinecap
1 LJ
0.667 LW
N
333.838 31 M
333.838 35.34 L
S
GR
GS
[0.75 0 0 0.75 0 0] CT
0.149 GC
2 setlinecap
1 LJ
0.667 LW
N
377.675 31 M
377.675 35.34 L
S
GR
GS
[0.75 0 0 0.75 0 0] CT
0.149 GC
2 setlinecap
1 LJ
0.667 LW
N
421.516 31 M
421.516 35.34 L
S
GR
GS
[0.75 0 0 0.75 0 0] CT
0.149 GC
2 setlinecap
1 LJ
0.667 LW
N
465.354 31 M
465.354 35.34 L
S
GR
GS
[0.75 0 0 0.75 85.98435 284.50008] CT
0.149 GC
/Helvetica-Bold 13.333 F
GS
[1 0 0 1 0 0] CT
-19 13 moveto 
1 -1 scale
(-81.4) t 
GR
GR
GS
[0.75 0 0 0.75 118.86263 284.50008] CT
0.149 GC
/Helvetica-Bold 13.333 F
GS
[1 0 0 1 0 0] CT
-19 13 moveto 
1 -1 scale
(-81.3) t 
GR
GR
GS
[0.75 0 0 0.75 151.74343 284.50008] CT
0.149 GC
/Helvetica-Bold 13.333 F
GS
[1 0 0 1 0 0] CT
-19 13 moveto 
1 -1 scale
(-81.2) t 
GR
GR
GS
[0.75 0 0 0.75 184.62172 284.50008] CT
0.149 GC
/Helvetica-Bold 13.333 F
GS
[1 0 0 1 0 0] CT
-19 13 moveto 
1 -1 scale
(-81.1) t 
GR
GR
GS
[0.75 0 0 0.75 217.5 284.50008] CT
0.149 GC
/Helvetica-Bold 13.333 F
GS
[1 0 0 1 0 0] CT
-12 13 moveto 
1 -1 scale
(-81) t 
GR
GR
GS
[0.75 0 0 0.75 250.37828 284.50008] CT
0.149 GC
/Helvetica-Bold 13.333 F
GS
[1 0 0 1 0 0] CT
-19 13 moveto 
1 -1 scale
(-80.9) t 
GR
GR
GS
[0.75 0 0 0.75 283.25656 284.50008] CT
0.149 GC
/Helvetica-Bold 13.333 F
GS
[1 0 0 1 0 0] CT
-19 13 moveto 
1 -1 scale
(-80.8) t 
GR
GR
GS
[0.75 0 0 0.75 316.13736 284.50008] CT
0.149 GC
/Helvetica-Bold 13.333 F
GS
[1 0 0 1 0 0] CT
-19 13 moveto 
1 -1 scale
(-80.7) t 
GR
GR
GS
[0.75 0 0 0.75 349.01566 284.50008] CT
0.149 GC
/Helvetica-Bold 13.333 F
GS
[1 0 0 1 0 0] CT
-19 13 moveto 
1 -1 scale
(-80.6) t 
GR
GR
GS
[0.75 0 0 0.75 217.5 298.25011] CT
0.149 GC
/Helvetica-Bold 14.667 F
GS
[1 0 0 1 0 0] CT
-43 14 moveto 
1 -1 scale
(Longitude) t 
GR
GR
GS
[0.75 0 0 0.75 0 0] CT
0.149 GC
2 setlinecap
1 LJ
0.667 LW
N
72.999 374 M
72.999 31 L
S
GR
GS
[0.75 0 0 0.75 0 0] CT
0.149 GC
2 setlinecap
1 LJ
0.667 LW
N
507.001 374 M
507.001 31 L
S
GR
GS
[0.75 0 0 0.75 0 0] CT
0.149 GC
2 setlinecap
1 LJ
0.667 LW
N
72.999 341.086 M
77.34 341.086 L
S
GR
GS
[0.75 0 0 0.75 0 0] CT
0.149 GC
2 setlinecap
1 LJ
0.667 LW
N
72.999 306.439 M
77.34 306.439 L
S
GR
GS
[0.75 0 0 0.75 0 0] CT
0.149 GC
2 setlinecap
1 LJ
0.667 LW
N
72.999 271.793 M
77.34 271.793 L
S
GR
GS
[0.75 0 0 0.75 0 0] CT
0.149 GC
2 setlinecap
1 LJ
0.667 LW
N
72.999 237.146 M
77.34 237.146 L
S
GR
GS
[0.75 0 0 0.75 0 0] CT
0.149 GC
2 setlinecap
1 LJ
0.667 LW
N
72.999 202.5 M
77.34 202.5 L
S
GR
GS
[0.75 0 0 0.75 0 0] CT
0.149 GC
2 setlinecap
1 LJ
0.667 LW
N
72.999 167.854 M
77.34 167.854 L
S
GR
GS
[0.75 0 0 0.75 0 0] CT
0.149 GC
2 setlinecap
1 LJ
0.667 LW
N
72.999 133.207 M
77.34 133.207 L
S
GR
GS
[0.75 0 0 0.75 0 0] CT
0.149 GC
2 setlinecap
1 LJ
0.667 LW
N
72.999 98.56 M
77.34 98.56 L
S
GR
GS
[0.75 0 0 0.75 0 0] CT
0.149 GC
2 setlinecap
1 LJ
0.667 LW
N
72.999 63.914 M
77.34 63.914 L
S
GR
GS
[0.75 0 0 0.75 0 0] CT
0.149 GC
2 setlinecap
1 LJ
0.667 LW
N
507.001 341.086 M
502.66 341.086 L
S
GR
GS
[0.75 0 0 0.75 0 0] CT
0.149 GC
2 setlinecap
1 LJ
0.667 LW
N
507.001 306.439 M
502.66 306.439 L
S
GR
GS
[0.75 0 0 0.75 0 0] CT
0.149 GC
2 setlinecap
1 LJ
0.667 LW
N
507.001 271.793 M
502.66 271.793 L
S
GR
GS
[0.75 0 0 0.75 0 0] CT
0.149 GC
2 setlinecap
1 LJ
0.667 LW
N
507.001 237.146 M
502.66 237.146 L
S
GR
GS
[0.75 0 0 0.75 0 0] CT
0.149 GC
2 setlinecap
1 LJ
0.667 LW
N
507.001 202.5 M
502.66 202.5 L
S
GR
GS
[0.75 0 0 0.75 0 0] CT
0.149 GC
2 setlinecap
1 LJ
0.667 LW
N
507.001 167.854 M
502.66 167.854 L
S
GR
GS
[0.75 0 0 0.75 0 0] CT
0.149 GC
2 setlinecap
1 LJ
0.667 LW
N
507.001 133.207 M
502.66 133.207 L
S
GR
GS
[0.75 0 0 0.75 0 0] CT
0.149 GC
2 setlinecap
1 LJ
0.667 LW
N
507.001 98.56 M
502.66 98.56 L
S
GR
GS
[0.75 0 0 0.75 0 0] CT
0.149 GC
2 setlinecap
1 LJ
0.667 LW
N
507.001 63.914 M
502.66 63.914 L
S
GR
GS
[0.75 0 0 0.75 50.74812 255.8145] CT
0.149 GC
/Helvetica-Bold 13.333 F
GS
[1 0 0 1 0 0] CT
-33 4.5 moveto 
1 -1 scale
(22.9) t 
GR
GR
GS
[0.75 0 0 0.75 50.74812 229.82954] CT
0.149 GC
/Helvetica-Bold 13.333 F
GS
[1 0 0 1 0 0] CT
-19 4.5 moveto 
1 -1 scale
(23) t 
GR
GR
GS
[0.75 0 0 0.75 50.74812 203.84459] CT
0.149 GC
/Helvetica-Bold 13.333 F
GS
[1 0 0 1 0 0] CT
-33 4.5 moveto 
1 -1 scale
(23.1) t 
GR
GR
GS
[0.75 0 0 0.75 50.74812 177.85965] CT
0.149 GC
/Helvetica-Bold 13.333 F
GS
[1 0 0 1 0 0] CT
-33 4.5 moveto 
1 -1 scale
(23.2) t 
GR
GR
GS
[0.75 0 0 0.75 50.74812 151.87519] CT
0.149 GC
/Helvetica-Bold 13.333 F
GS
[1 0 0 1 0 0] CT
-33 4.5 moveto 
1 -1 scale
(23.3) t 
GR
GR
GS
[0.75 0 0 0.75 50.74812 125.89025] CT
0.149 GC
/Helvetica-Bold 13.333 F
GS
[1 0 0 1 0 0] CT
-33 4.5 moveto 
1 -1 scale
(23.4) t 
GR
GR
GS
[0.75 0 0 0.75 50.74812 99.90531] CT
0.149 GC
/Helvetica-Bold 13.333 F
GS
[1 0 0 1 0 0] CT
-33 4.5 moveto 
1 -1 scale
(23.5) t 
GR
GR
GS
[0.75 0 0 0.75 50.74812 73.92035] CT
0.149 GC
/Helvetica-Bold 13.333 F
GS
[1 0 0 1 0 0] CT
-33 4.5 moveto 
1 -1 scale
(23.6) t 
GR
GR
GS
[0.75 0 0 0.75 50.74812 47.93541] CT
0.149 GC
/Helvetica-Bold 13.333 F
GS
[1 0 0 1 0 0] CT
-33 4.5 moveto 
1 -1 scale
(23.7) t 
GR
GR
GS
[0 -0.75 0.75 0 22.99961 151.8747] CT
0.149 GC
/Helvetica-Bold 14.667 F
GS
[1 0 0 1 0 0] CT
-35.5 -4 moveto 
1 -1 scale
(Latitude) t 
GR
GR
GS
[0.75 0 0 0.75 0 0] CT
1 0 0 RC
N
178.213 193.838 M
178.213 197.303 L
182.595 197.303 L
182.595 193.838 L
cp
f
GR
GS
[0.75 0 0 0.75 0 0] CT
1 0 0 RC
N
178.213 197.303 M
178.213 200.768 L
182.595 200.768 L
182.595 197.303 L
cp
f
GR
GS
[0.75 0 0 0.75 0 0] CT
1 0 0 RC
N
182.595 193.838 M
182.595 197.303 L
186.98 197.303 L
186.98 193.838 L
cp
f
GR
GS
[0.75 0 0 0.75 0 0] CT
1 0 0 RC
N
182.595 197.303 M
182.595 200.768 L
186.98 200.768 L
186.98 197.303 L
cp
f
GR
GS
[0.75 0 0 0.75 0 0] CT
1 0 0 RC
N
186.98 183.445 M
186.98 186.909 L
191.364 186.909 L
191.364 183.445 L
cp
f
GR
GS
[0.75 0 0 0.75 0 0] CT
1 0 0 RC
N
186.98 186.909 M
186.98 190.374 L
191.364 190.374 L
191.364 186.909 L
cp
f
GR
GS
[0.75 0 0 0.75 0 0] CT
1 0 0 RC
N
186.98 193.838 M
186.98 197.303 L
191.364 197.303 L
191.364 193.838 L
cp
f
GR
GS
[0.75 0 0 0.75 0 0] CT
1 0 0 RC
N
186.98 197.303 M
186.98 200.768 L
191.364 200.768 L
191.364 197.303 L
cp
f
GR
GS
[0.75 0 0 0.75 0 0] CT
1 0 0 RC
N
191.364 183.445 M
191.364 186.909 L
195.749 186.909 L
195.749 183.445 L
cp
f
GR
GS
[0.75 0 0 0.75 0 0] CT
1 0 0 RC
N
191.364 186.909 M
191.364 190.374 L
195.749 190.374 L
195.749 186.909 L
cp
f
GR
GS
[0.75 0 0 0.75 0 0] CT
1 0 0 RC
N
195.749 183.445 M
195.749 186.909 L
200.131 186.909 L
200.131 183.445 L
cp
f
GR
GS
[0.75 0 0 0.75 0 0] CT
1 0 0 RC
N
195.749 186.909 M
195.749 190.374 L
200.131 190.374 L
200.131 186.909 L
cp
f
GR
GS
[0.75 0 0 0.75 0 0] CT
1 0 0 RC
N
200.131 183.445 M
200.131 186.909 L
204.515 186.909 L
204.515 183.445 L
cp
f
GR
GS
[0.75 0 0 0.75 0 0] CT
1 0 0 RC
N
200.131 186.909 M
200.131 190.374 L
204.515 190.374 L
204.515 186.909 L
cp
f
GR
GS
[0.75 0 0 0.75 0 0] CT
0.208 0.165 0.525 RC
N
239.587 31 M
239.587 34.465 L
243.968 34.465 L
243.968 31 L
cp
f
GR
GS
[0.75 0 0 0.75 0 0] CT
1 0 0 RC
N
353.564 162.656 M
353.564 166.121 L
357.949 166.121 L
357.949 162.656 L
cp
f
GR
GS
[0.75 0 0 0.75 0 0] CT
1 0 0 RC
N
353.564 166.121 M
353.564 169.586 L
357.949 169.586 L
357.949 166.121 L
cp
f
GR
GS
[0.75 0 0 0.75 0 0] CT
1 0 0 RC
N
353.564 169.586 M
353.564 173.05 L
357.949 173.05 L
357.949 169.586 L
cp
f
GR
GS
[0.75 0 0 0.75 0 0] CT
1 0 0 RC
N
353.564 173.05 M
353.564 176.515 L
357.949 176.515 L
357.949 173.05 L
cp
f
GR
GS
[0.75 0 0 0.75 0 0] CT
1 0 0 RC
N
366.719 179.98 M
366.719 183.445 L
371.1 183.445 L
371.1 179.98 L
cp
f
GR
GS
[0.75 0 0 0.75 0 0] CT
1 0 0 RC
N
366.719 183.445 M
366.719 186.909 L
371.1 186.909 L
371.1 183.445 L
cp
f
GR
GS
[0.75 0 0 0.75 0 0] CT
1 0 0 RC
N
366.719 186.909 M
366.719 190.374 L
371.1 190.374 L
371.1 186.909 L
cp
f
GR
GS
[0.75 0 0 0.75 0 0] CT
1 0 0 RC
N
366.719 190.374 M
366.719 193.838 L
371.1 193.838 L
371.1 190.374 L
cp
f
GR
GS
[0.75 0 0 0.75 0 0] CT
1 0 0 RC
N
371.1 179.98 M
371.1 183.445 L
375.485 183.445 L
375.485 179.98 L
cp
f
GR
GS
[0.75 0 0 0.75 0 0] CT
1 0 0 RC
N
371.1 183.445 M
371.1 186.909 L
375.485 186.909 L
375.485 183.445 L
cp
f
GR
GS
[0.75 0 0 0.75 0 0] CT
1 0 0 RC
N
371.1 186.909 M
371.1 190.374 L
375.485 190.374 L
375.485 186.909 L
cp
f
GR
GS
[0.75 0 0 0.75 0 0] CT
1 0 0 RC
N
371.1 190.374 M
371.1 193.838 L
375.485 193.838 L
375.485 190.374 L
cp
f
GR
GS
[0.75 0 0 0.75 0 0] CT
1 0 0 RC
N
375.485 179.98 M
375.485 183.445 L
379.869 183.445 L
379.869 179.98 L
cp
f
GR
GS
[0.75 0 0 0.75 0 0] CT
1 0 0 RC
N
375.485 183.445 M
375.485 186.909 L
379.869 186.909 L
379.869 183.445 L
cp
f
GR
GS
[0.75 0 0 0.75 0 0] CT
1 0 0 RC
N
375.485 186.909 M
375.485 190.374 L
379.869 190.374 L
379.869 186.909 L
cp
f
GR
GS
[0.75 0 0 0.75 0 0] CT
1 0 0 RC
N
375.485 190.374 M
375.485 193.838 L
379.869 193.838 L
379.869 190.374 L
cp
f
GR
GS
[0.75 0 0 0.75 0 0] CT
1 LJ
2.667 LW
N
104.722 84.544 M
95.966 93.953 L
98.09 82.393 L
S
GR
GS
[0.75 0 0 0.75 0 0] CT
1 LJ
2.667 LW
N
109.378 119.581 M
102.719 129.841 L
102.485 118.312 L
S
GR
GS
[0.75 0 0 0.75 0 0] CT
1 LJ
2.667 LW
N
115.02 153.426 M
111.198 164.115 L
108.204 153.262 L
S
GR
GS
[0.75 0 0 0.75 0 0] CT
1 LJ
2.667 LW
N
116.455 187.679 M
113.398 198.389 L
109.716 187.802 L
S
GR
GS
[0.75 0 0 0.75 0 0] CT
1 LJ
2.667 LW
N
121.362 220.92 M
120.934 231.671 L
114.91 222.025 L
S
GR
GS
[0.75 0 0 0.75 0 0] CT
1 LJ
2.667 LW
N
126.904 252.748 M
129.727 262.966 L
121.151 255 L
S
GR
GS
[0.75 0 0 0.75 0 0] CT
1 LJ
2.667 LW
N
129.168 280.674 M
134.596 288.056 L
125.412 283.561 L
S
GR
GS
[0.75 0 0 0.75 0 0] CT
1 LJ
2.667 LW
N
128.315 308.481 M
134.911 312.526 L
126.683 311.409 L
S
GR
GS
[0.75 0 0 0.75 0 0] CT
1 LJ
2.667 LW
N
128.573 340.655 M
135.854 343.573 L
127.69 343.706 L
S
GR
GS
[0.75 0 0 0.75 0 0] CT
1 LJ
2.667 LW
N
128.693 374.024 M
128.749 374.041 L
S
GR
GS
[0.75 0 0 0.75 0 0] CT
1 LJ
2.667 LW
N
144.018 82.791 M
133.523 90.726 L
138.058 79.822 L
S
GR
GS
[0.75 0 0 0.75 0 0] CT
1 LJ
2.667 LW
N
149.446 117.331 M
141.533 125.993 L
143.359 115.406 L
S
GR
GS
[0.75 0 0 0.75 0 0] CT
1 LJ
2.667 LW
N
155.286 151.072 M
150.326 160.143 L
149.303 150.293 L
S
GR
GS
[0.75 0 0 0.75 0 0] CT
1 LJ
2.667 LW
N
156.945 185.388 M
152.838 194.542 L
151.012 184.937 L
S
GR
GS
[0.75 0 0 0.75 0 0] CT
1 LJ
2.667 LW
N
163.668 218.621 M
163.046 228.071 L
157.968 219.501 L
S
GR
GS
[0.75 0 0 0.75 0 0] CT
1 LJ
2.667 LW
N
170.735 250.638 M
174.039 259.863 L
165.631 252.952 L
S
GR
GS
[0.75 0 0 0.75 0 0] CT
1 LJ
2.667 LW
N
172.614 279.53 M
178.12 286.318 L
169.22 282.377 L
S
GR
GS
[0.75 0 0 0.75 0 0] CT
1 LJ
2.667 LW
N
172.22 308.222 M
178.906 312.154 L
170.665 311.17 L
S
GR
GS
[0.75 0 0 0.75 0 0] CT
1 LJ
2.667 LW
N
172.173 341.184 M
179.22 344.318 L
171.136 344.175 L
S
GR
GS
[0.75 0 0 0.75 0 0] CT
1 LJ
2.667 LW
N
172.076 371.789 M
180.006 373.007 L
175.746 374.041 L
S
GR
GS
[0.75 0 0 0.75 0 0] CT
1 LJ
2.667 LW
N
184.735 79.212 M
173.591 85.017 L
179.966 75.751 L
S
GR
GS
[0.75 0 0 0.75 0 0] CT
1 LJ
2.667 LW
N
189.538 112.462 M
180.973 118.299 L
185.053 109.964 L
S
GR
GS
[0.75 0 0 0.75 0 0] CT
1 LJ
2.667 LW
N
194.047 146.586 M
187.725 152.821 L
189.592 144.968 L
S
GR
GS
[0.75 0 0 0.75 0 0] CT
1 LJ
2.667 LW
N
196.993 180.945 M
192.124 187.468 L
192.538 179.901 L
S
GR
GS
[0.75 0 0 0.75 0 0] CT
1 LJ
2.667 LW
N
204.716 214.418 M
203.743 221.494 L
200.388 214.889 L
S
GR
GS
[0.75 0 0 0.75 0 0] CT
1 LJ
2.667 LW
N
213.412 246.615 M
217.091 253.782 L
209.576 248.826 L
S
GR
GS
[0.75 0 0 0.75 0 0] CT
1 LJ
2.667 LW
N
216.342 276.08 M
222.586 281.23 L
214.011 279.008 L
S
GR
GS
[0.75 0 0 0.75 0 0] CT
1 LJ
2.667 LW
N
215.843 305.457 M
223.058 308.058 L
215.141 308.447 L
S
GR
GS
[0.75 0 0 0.75 0 0] CT
1 LJ
2.667 LW
N
215.83 339.345 M
223.215 341.588 L
215.365 342.355 L
S
GR
GS
[0.75 0 0 0.75 0 0] CT
1 LJ
2.667 LW
N
215.76 370.791 M
223.844 371.518 L
216.278 373.883 L
S
GR
GS
[0.75 0 0 0.75 0 0] CT
1 LJ
2.667 LW
N
227.262 77.651 M
215.86 82.535 L
223.011 73.986 L
S
GR
GS
[0.75 0 0 0.75 0 0] CT
1 LJ
2.667 LW
N
232.64 111.859 M
223.87 117.306 L
228.366 109.237 L
S
GR
GS
[0.75 0 0 0.75 0 0] CT
1 LJ
2.667 LW
N
233.787 144.959 M
225.911 149.843 L
229.954 142.603 L
S
GR
GS
[0.75 0 0 0.75 0 0] CT
1 LJ
2.667 LW
N
238.5 176.952 M
233.449 181.263 L
235.339 175.579 L
S
GR
GS
[0.75 0 0 0.75 0 0] CT
1 LJ
2.667 LW
N
245.607 209.218 M
244.44 213.426 L
242.965 209.28 L
S
GR
GS
[0.75 0 0 0.75 0 0] CT
1 LJ
2.667 LW
N
254.146 241.092 M
257.631 245.219 L
252.099 242.874 L
S
GR
GS
[0.75 0 0 0.75 0 0] CT
1 LJ
2.667 LW
N
258.196 270.871 M
264.698 273.288 L
257.521 273.574 L
S
GR
GS
[0.75 0 0 0.75 0 0] CT
1 LJ
2.667 LW
N
257.835 301.838 M
265.012 302.473 L
258.3 304.582 L
S
GR
GS
[0.75 0 0 0.75 0 0] CT
1 LJ
2.667 LW
N
257.748 334.552 M
265.327 334.265 L
258.808 337.337 L
S
GR
GS
[0.75 0 0 0.75 0 0] CT
1 LJ
2.667 LW
N
258.373 366.352 M
266.895 364.816 L
260.29 369.342 L
S
GR
GS
[0.75 0 0 0.75 0 0] CT
1 LJ
2.667 LW
N
267.116 71.286 M
255.303 72.607 L
264.942 67.047 L
S
GR
GS
[0.75 0 0 0.75 0 0] CT
1 LJ
2.667 LW
N
271.732 106.074 M
262.056 108.122 L
269.374 102.716 L
S
GR
GS
[0.75 0 0 0.75 0 0] CT
1 LJ
2.667 LW
N
274.521 140.787 M
266.136 143.265 L
272.06 137.961 L
S
GR
GS
[0.75 0 0 0.75 0 0] CT
1 LJ
2.667 LW
N
281.331 175.277 M
276.187 178.656 L
278.715 173.762 L
S
GR
GS
[0.75 0 0 0.75 0 0] CT
1 LJ
2.667 LW
N
289.117 208.491 M
287.966 212.31 L
286.709 208.511 L
S
GR
GS
[0.75 0 0 0.75 0 0] CT
1 LJ
2.667 LW
N
296.86 238.669 M
300.372 241.495 L
295.589 240.308 L
S
GR
GS
[0.75 0 0 0.75 0 0] CT
1 LJ
2.667 LW
N
298.325 265.576 M
304.298 264.972 L
299.385 267.727 L
S
GR
GS
[0.75 0 0 0.75 0 0] CT
1 LJ
2.667 LW
N
297.646 297.25 M
303.984 295.151 L
299.642 299.359 L
S
GR
GS
[0.75 0 0 0.75 0 0] CT
1 LJ
2.667 LW
N
298.863 328.739 M
306.496 325.329 L
301.793 331.176 L
S
GR
GS
[0.75 0 0 0.75 0 0] CT
1 LJ
2.667 LW
N
299.907 362.525 M
308.221 358.859 L
303.067 365.186 L
S
GR
GS
[0.75 0 0 0.75 0 0] CT
1 LJ
2.667 LW
N
307.539 64.443 M
295.686 62.058 L
307.566 59.754 L
S
GR
GS
[0.75 0 0 0.75 0 0] CT
1 LJ
2.667 LW
N
309.553 98.978 M
298.669 96.828 L
309.553 94.678 L
S
GR
GS
[0.75 0 0 0.75 0 0] CT
1 LJ
2.667 LW
N
315.576 133.208 M
307.619 131.723 L
315.523 130.075 L
S
GR
GS
[0.75 0 0 0.75 0 0] CT
1 LJ
2.667 LW
N
322.503 167.77 M
317.827 167.238 L
322.272 165.968 L
S
GR
GS
[0.75 0 0 0.75 0 0] CT
1 LJ
2.667 LW
N
330.236 202.002 M
329.292 202.381 L
329.901 201.695 L
S
GR
GS
[0.75 0 0 0.75 0 0] CT
1 LJ
2.667 LW
N
338.239 233.169 M
341.855 233.056 L
338.731 234.5 L
S
GR
GS
[0.75 0 0 0.75 0 0] CT
1 LJ
2.667 LW
N
339.955 264.44 M
345.152 262.987 L
341.433 266.202 L
S
GR
GS
[0.75 0 0 0.75 0 0] CT
1 LJ
2.667 LW
N
340.778 296.812 M
346.878 294.406 L
342.928 298.799 L
S
GR
GS
[0.75 0 0 0.75 0 0] CT
1 LJ
2.667 LW
N
341.641 327.408 M
349.076 323.22 L
345.009 329.68 L
S
GR
GS
[0.75 0 0 0.75 0 0] CT
1 LJ
2.667 LW
N
341.631 360.619 M
349.39 355.756 L
345.44 362.934 L
S
GR
GS
[0.75 0 0 0.75 0 0] CT
1 LJ
2.667 LW
N
348.932 59.701 M
337.012 54.736 L
350.484 54.684 L
S
GR
GS
[0.75 0 0 0.75 0 0] CT
1 LJ
2.667 LW
N
350.46 91.835 M
339.838 85.907 L
352.741 87.187 L
S
GR
GS
[0.75 0 0 0.75 0 0] CT
1 LJ
2.667 LW
N
356.752 124.35 M
349.574 118.319 L
359.497 120.971 L
S
GR
GS
[0.75 0 0 0.75 0 0] CT
1 LJ
2.667 LW
N
363.555 157.406 M
359.939 151.601 L
366.585 155.379 L
S
GR
GS
[0.75 0 0 0.75 0 0] CT
1 LJ
2.667 LW
N
371.053 189.465 M
371.558 183.517 L
374.655 188.954 L
S
GR
GS
[0.75 0 0 0.75 0 0] CT
1 LJ
2.667 LW
N
376.779 221.782 M
380.508 215.557 L
380.923 222.437 L
S
GR
GS
[0.75 0 0 0.75 0 0] CT
1 LJ
2.667 LW
N
377.896 256.066 M
382.237 249.831 L
382.12 256.947 L
S
GR
GS
[0.75 0 0 0.75 0 0] CT
1 LJ
2.667 LW
N
380.542 289.865 M
386.321 283.609 L
384.947 291.278 L
S
GR
GS
[0.75 0 0 0.75 0 0] CT
1 LJ
2.667 LW
N
383.094 324.432 M
390.087 318.503 L
387.445 326.336 L
S
GR
GS
[0.75 0 0 0.75 0 0] CT
1 LJ
2.667 LW
N
384.602 359.86 M
392.131 354.515 L
388.672 362.03 L
S
GR
GS
[0.75 0 0 0.75 0 0] CT
1 LJ
2.667 LW
N
390.154 58.689 M
377.237 52.874 L
392.097 53.201 L
S
GR
GS
[0.75 0 0 0.75 0 0] CT
1 LJ
2.667 LW
N
393.763 91.127 M
383.05 84.79 L
396.275 86.397 L
S
GR
GS
[0.75 0 0 0.75 0 0] CT
1 LJ
2.667 LW
N
399.7 122.073 M
392.629 114.845 L
403.175 118.592 L
S
GR
GS
[0.75 0 0 0.75 0 0] CT
1 LJ
2.667 LW
N
405.054 150.627 M
401.894 141.3 L
410.235 148.355 L
S
GR
GS
[0.75 0 0 0.75 0 0] CT
1 LJ
2.667 LW
N
410.626 179.92 M
411.315 168.872 L
417.286 178.876 L
S
GR
GS
[0.75 0 0 0.75 0 0] CT
1 LJ
2.667 LW
N
414.282 214.717 M
416.653 204.263 L
420.787 214.369 L
S
GR
GS
[0.75 0 0 0.75 0 0] CT
1 LJ
2.667 LW
N
416.292 249.928 M
419.48 240.027 L
422.563 249.948 L
S
GR
GS
[0.75 0 0 0.75 0 0] CT
1 LJ
2.667 LW
N
420.192 286.98 M
424.664 278.768 L
425.607 287.676 L
S
GR
GS
[0.75 0 0 0.75 0 0] CT
1 LJ
2.667 LW
N
423.055 322.868 M
428.587 315.649 L
428.005 324.076 L
S
GR
GS
[0.75 0 0 0.75 0 0] CT
1 LJ
2.667 LW
N
425.025 358.504 M
431.259 352.033 L
429.614 360.06 L
S
GR
GS
[0.75 0 0 0.75 0 0] CT
1 LJ
2.667 LW
N
433.32 54.366 M
421.078 46.42 L
436.611 48.877 L
S
GR
GS
[0.75 0 0 0.75 0 0] CT
1 LJ
2.667 LW
N
436.3 85.514 M
426.259 76.351 L
440.574 80.702 L
S
GR
GS
[0.75 0 0 0.75 0 0] CT
1 LJ
2.667 LW
N
441.631 116.688 M
434.895 106.654 L
446.815 113.002 L
S
GR
GS
[0.75 0 0 0.75 0 0] CT
1 LJ
2.667 LW
N
447.795 147.695 M
444.788 136.832 L
453.909 145.3 L
S
GR
GS
[0.75 0 0 0.75 0 0] CT
1 LJ
2.667 LW
N
453.929 179.213 M
454.524 167.755 L
460.822 178.086 L
S
GR
GS
[0.75 0 0 0.75 0 0] CT
1 LJ
2.667 LW
N
455.046 213.497 M
456.254 202.029 L
462.016 212.596 L
S
GR
GS
[0.75 0 0 0.75 0 0] CT
1 LJ
2.667 LW
N
457.019 247.782 M
459.237 236.428 L
464.043 247.271 L
S
GR
GS
[0.75 0 0 0.75 0 0] CT
1 LJ
2.667 LW
N
460.699 284.097 M
464.261 274.053 L
467.097 284.24 L
S
GR
GS
[0.75 0 0 0.75 0 0] CT
1 LJ
2.667 LW
N
464.11 322.125 M
468.501 314.16 L
469.368 322.822 L
S
GR
GS
[0.75 0 0 0.75 0 0] CT
1 LJ
2.667 LW
N
465.986 358.531 M
470.856 351.661 L
470.649 359.534 L
S
GR
GS
[0.75 0 0 0.75 0 0] CT
1 LJ
2.667 LW
N
477.519 51.883 M
466.013 42.821 L
481.562 46.538 L
S
GR
GS
[0.75 0 0 0.75 0 0] CT
1 LJ
2.667 LW
N
479.646 82.355 M
470.097 71.634 L
484.903 77.542 L
S
GR
GS
[0.75 0 0 0.75 0 0] CT
1 LJ
2.667 LW
N
483.572 112.736 M
476.85 100.572 L
490.024 108.804 L
S
GR
GS
[0.75 0 0 0.75 0 0] CT
1 LJ
2.667 LW
N
488.646 143.597 M
485.171 130.379 L
496.108 140.75 L
S
GR
GS
[0.75 0 0 0.75 0 0] CT
1 LJ
2.667 LW
N
493.75 176.733 M
493.024 163.536 L
501.523 174.911 L
S
GR
GS
[0.75 0 0 0.75 0 0] CT
1 LJ
2.667 LW
N
494.921 211.351 M
494.75 198.306 L
502.667 209.754 L
S
GR
GS
[0.75 0 0 0.75 0 0] CT
1 LJ
2.667 LW
N
499.546 246.897 M
501.345 234.938 L
506.877 246.16 L
S
GR
GS
[0.75 0 0 0.75 0 0] CT
1 LJ
2.667 LW
N
504.182 283.878 M
507.053 275.378 L
S
GR
GS
[0.75 0 0 0.75 0 0] CT
1 LJ
2.667 LW
N
506.974 322.051 M
507.053 321.89 L
S
GR
GS
[0.75 0 0 0.75 0 0] CT
1 LJ
2.667 LW
N
112.455 62.182 M
95.966 93.953 L
S
GR
GS
[0.75 0 0 0.75 0 0] CT
1 LJ
2.667 LW
N
112.455 96.828 M
102.719 129.841 L
S
GR
GS
[0.75 0 0 0.75 0 0] CT
1 LJ
2.667 LW
N
112.455 131.475 M
111.198 164.115 L
S
GR
GS
[0.75 0 0 0.75 0 0] CT
1 LJ
2.667 LW
N
112.455 166.121 M
113.398 198.389 L
S
GR
GS
[0.75 0 0 0.75 0 0] CT
1 LJ
2.667 LW
N
112.455 200.768 M
120.934 231.671 L
S
GR
GS
[0.75 0 0 0.75 0 0] CT
1 LJ
2.667 LW
N
112.455 235.414 M
129.727 262.966 L
S
GR
GS
[0.75 0 0 0.75 0 0] CT
1 LJ
2.667 LW
N
112.455 270.061 M
134.596 288.056 L
S
GR
GS
[0.75 0 0 0.75 0 0] CT
1 LJ
2.667 LW
N
112.455 304.707 M
134.911 312.526 L
S
GR
GS
[0.75 0 0 0.75 0 0] CT
1 LJ
2.667 LW
N
112.455 339.353 M
135.854 343.573 L
S
GR
GS
[0.75 0 0 0.75 0 0] CT
1 LJ
2.667 LW
N
112.455 374 M
112.869 374.041 L
S
GR
GS
[0.75 0 0 0.75 0 0] CT
1 LJ
2.667 LW
N
156.293 62.182 M
133.523 90.726 L
S
GR
GS
[0.75 0 0 0.75 0 0] CT
1 LJ
2.667 LW
N
156.293 96.828 M
141.533 125.993 L
S
GR
GS
[0.75 0 0 0.75 0 0] CT
1 LJ
2.667 LW
N
156.293 131.475 M
150.326 160.143 L
S
GR
GS
[0.75 0 0 0.75 0 0] CT
1 LJ
2.667 LW
N
156.293 166.121 M
152.838 194.542 L
S
GR
GS
[0.75 0 0 0.75 0 0] CT
1 LJ
2.667 LW
N
156.293 200.768 M
163.046 228.071 L
S
GR
GS
[0.75 0 0 0.75 0 0] CT
1 LJ
2.667 LW
N
156.293 235.414 M
174.039 259.863 L
S
GR
GS
[0.75 0 0 0.75 0 0] CT
1 LJ
2.667 LW
N
156.293 270.061 M
178.12 286.318 L
S
GR
GS
[0.75 0 0 0.75 0 0] CT
1 LJ
2.667 LW
N
156.293 304.707 M
178.906 312.154 L
S
GR
GS
[0.75 0 0 0.75 0 0] CT
1 LJ
2.667 LW
N
156.293 339.353 M
179.22 344.318 L
S
GR
GS
[0.75 0 0 0.75 0 0] CT
1 LJ
2.667 LW
N
156.293 374 M
180.006 373.007 L
S
GR
GS
[0.75 0 0 0.75 0 0] CT
1 LJ
2.667 LW
N
200.131 62.182 M
173.591 85.017 L
S
GR
GS
[0.75 0 0 0.75 0 0] CT
1 LJ
2.667 LW
N
200.131 96.828 M
180.973 118.299 L
S
GR
GS
[0.75 0 0 0.75 0 0] CT
1 LJ
2.667 LW
N
200.131 131.475 M
187.725 152.821 L
S
GR
GS
[0.75 0 0 0.75 0 0] CT
1 LJ
2.667 LW
N
200.131 166.121 M
192.124 187.468 L
S
GR
GS
[0.75 0 0 0.75 0 0] CT
1 LJ
2.667 LW
N
200.131 200.768 M
203.743 221.494 L
S
GR
GS
[0.75 0 0 0.75 0 0] CT
1 LJ
2.667 LW
N
200.131 235.414 M
217.091 253.782 L
S
GR
GS
[0.75 0 0 0.75 0 0] CT
1 LJ
2.667 LW
N
200.131 270.061 M
222.586 281.23 L
S
GR
GS
[0.75 0 0 0.75 0 0] CT
1 LJ
2.667 LW
N
200.131 304.707 M
223.058 308.058 L
S
GR
GS
[0.75 0 0 0.75 0 0] CT
1 LJ
2.667 LW
N
200.131 339.353 M
223.215 341.588 L
S
GR
GS
[0.75 0 0 0.75 0 0] CT
1 LJ
2.667 LW
N
200.131 374 M
223.844 371.518 L
S
GR
GS
[0.75 0 0 0.75 0 0] CT
1 LJ
2.667 LW
N
243.968 62.182 M
215.86 82.535 L
S
GR
GS
[0.75 0 0 0.75 0 0] CT
1 LJ
2.667 LW
N
243.968 96.828 M
223.87 117.306 L
S
GR
GS
[0.75 0 0 0.75 0 0] CT
1 LJ
2.667 LW
N
243.968 131.475 M
225.911 149.843 L
S
GR
GS
[0.75 0 0 0.75 0 0] CT
1 LJ
2.667 LW
N
243.968 166.121 M
233.449 181.263 L
S
GR
GS
[0.75 0 0 0.75 0 0] CT
1 LJ
2.667 LW
N
243.968 200.768 M
244.44 213.426 L
S
GR
GS
[0.75 0 0 0.75 0 0] CT
1 LJ
2.667 LW
N
243.968 235.414 M
257.631 245.219 L
S
GR
GS
[0.75 0 0 0.75 0 0] CT
1 LJ
2.667 LW
N
243.968 270.061 M
264.698 273.288 L
S
GR
GS
[0.75 0 0 0.75 0 0] CT
1 LJ
2.667 LW
N
243.968 304.707 M
265.012 302.473 L
S
GR
GS
[0.75 0 0 0.75 0 0] CT
1 LJ
2.667 LW
N
243.968 339.353 M
265.327 334.265 L
S
GR
GS
[0.75 0 0 0.75 0 0] CT
1 LJ
2.667 LW
N
243.968 374 M
266.895 364.816 L
S
GR
GS
[0.75 0 0 0.75 0 0] CT
1 LJ
2.667 LW
N
287.809 62.182 M
255.303 72.607 L
S
GR
GS
[0.75 0 0 0.75 0 0] CT
1 LJ
2.667 LW
N
287.809 96.828 M
262.056 108.122 L
S
GR
GS
[0.75 0 0 0.75 0 0] CT
1 LJ
2.667 LW
N
287.809 131.475 M
266.136 143.265 L
S
GR
GS
[0.75 0 0 0.75 0 0] CT
1 LJ
2.667 LW
N
287.809 166.121 M
276.187 178.656 L
S
GR
GS
[0.75 0 0 0.75 0 0] CT
1 LJ
2.667 LW
N
287.809 200.768 M
287.966 212.31 L
S
GR
GS
[0.75 0 0 0.75 0 0] CT
1 LJ
2.667 LW
N
287.809 235.414 M
300.372 241.495 L
S
GR
GS
[0.75 0 0 0.75 0 0] CT
1 LJ
2.667 LW
N
287.809 270.061 M
304.298 264.972 L
S
GR
GS
[0.75 0 0 0.75 0 0] CT
1 LJ
2.667 LW
N
287.809 304.707 M
303.984 295.151 L
S
GR
GS
[0.75 0 0 0.75 0 0] CT
1 LJ
2.667 LW
N
287.809 339.353 M
306.496 325.329 L
S
GR
GS
[0.75 0 0 0.75 0 0] CT
1 LJ
2.667 LW
N
287.809 374 M
308.221 358.859 L
S
GR
GS
[0.75 0 0 0.75 0 0] CT
1 LJ
2.667 LW
N
331.647 62.182 M
295.686 62.058 L
S
GR
GS
[0.75 0 0 0.75 0 0] CT
1 LJ
2.667 LW
N
331.647 96.828 M
298.669 96.828 L
S
GR
GS
[0.75 0 0 0.75 0 0] CT
1 LJ
2.667 LW
N
331.647 131.475 M
307.619 131.723 L
S
GR
GS
[0.75 0 0 0.75 0 0] CT
1 LJ
2.667 LW
N
331.647 166.121 M
317.827 167.238 L
S
GR
GS
[0.75 0 0 0.75 0 0] CT
1 LJ
2.667 LW
N
331.647 200.768 M
329.292 202.381 L
S
GR
GS
[0.75 0 0 0.75 0 0] CT
1 LJ
2.667 LW
N
331.647 235.414 M
341.855 233.056 L
S
GR
GS
[0.75 0 0 0.75 0 0] CT
1 LJ
2.667 LW
N
331.647 270.061 M
345.152 262.987 L
S
GR
GS
[0.75 0 0 0.75 0 0] CT
1 LJ
2.667 LW
N
331.647 304.707 M
346.878 294.406 L
S
GR
GS
[0.75 0 0 0.75 0 0] CT
1 LJ
2.667 LW
N
331.647 339.353 M
349.076 323.22 L
S
GR
GS
[0.75 0 0 0.75 0 0] CT
1 LJ
2.667 LW
N
331.647 374 M
349.39 355.756 L
S
GR
GS
[0.75 0 0 0.75 0 0] CT
1 LJ
2.667 LW
N
375.485 62.182 M
337.012 54.736 L
S
GR
GS
[0.75 0 0 0.75 0 0] CT
1 LJ
2.667 LW
N
375.485 96.828 M
339.838 85.907 L
S
GR
GS
[0.75 0 0 0.75 0 0] CT
1 LJ
2.667 LW
N
375.485 131.475 M
349.574 118.319 L
S
GR
GS
[0.75 0 0 0.75 0 0] CT
1 LJ
2.667 LW
N
375.485 166.121 M
359.939 151.601 L
S
GR
GS
[0.75 0 0 0.75 0 0] CT
1 LJ
2.667 LW
N
375.485 200.768 M
371.558 183.517 L
S
GR
GS
[0.75 0 0 0.75 0 0] CT
1 LJ
2.667 LW
N
375.485 235.414 M
380.508 215.557 L
S
GR
GS
[0.75 0 0 0.75 0 0] CT
1 LJ
2.667 LW
N
375.485 270.061 M
382.237 249.831 L
S
GR
GS
[0.75 0 0 0.75 0 0] CT
1 LJ
2.667 LW
N
375.485 304.707 M
386.321 283.609 L
S
GR
GS
[0.75 0 0 0.75 0 0] CT
1 LJ
2.667 LW
N
375.485 339.353 M
390.087 318.503 L
S
GR
GS
[0.75 0 0 0.75 0 0] CT
1 LJ
2.667 LW
N
375.485 374 M
392.131 354.515 L
S
GR
GS
[0.75 0 0 0.75 0 0] CT
1 LJ
2.667 LW
N
419.322 62.182 M
377.237 52.874 L
S
GR
GS
[0.75 0 0 0.75 0 0] CT
1 LJ
2.667 LW
N
419.322 96.828 M
383.05 84.79 L
S
GR
GS
[0.75 0 0 0.75 0 0] CT
1 LJ
2.667 LW
N
419.322 131.475 M
392.629 114.845 L
S
GR
GS
[0.75 0 0 0.75 0 0] CT
1 LJ
2.667 LW
N
419.322 166.121 M
401.894 141.3 L
S
GR
GS
[0.75 0 0 0.75 0 0] CT
1 LJ
2.667 LW
N
419.322 200.768 M
411.315 168.872 L
S
GR
GS
[0.75 0 0 0.75 0 0] CT
1 LJ
2.667 LW
N
419.322 235.414 M
416.653 204.263 L
S
GR
GS
[0.75 0 0 0.75 0 0] CT
1 LJ
2.667 LW
N
419.322 270.061 M
419.48 240.027 L
S
GR
GS
[0.75 0 0 0.75 0 0] CT
1 LJ
2.667 LW
N
419.322 304.707 M
424.664 278.768 L
S
GR
GS
[0.75 0 0 0.75 0 0] CT
1 LJ
2.667 LW
N
419.322 339.353 M
428.587 315.649 L
S
GR
GS
[0.75 0 0 0.75 0 0] CT
1 LJ
2.667 LW
N
419.322 374 M
431.259 352.033 L
S
GR
GS
[0.75 0 0 0.75 0 0] CT
1 LJ
2.667 LW
N
463.16 62.182 M
421.078 46.42 L
S
GR
GS
[0.75 0 0 0.75 0 0] CT
1 LJ
2.667 LW
N
463.16 96.828 M
426.259 76.351 L
S
GR
GS
[0.75 0 0 0.75 0 0] CT
1 LJ
2.667 LW
N
463.16 131.475 M
434.895 106.654 L
S
GR
GS
[0.75 0 0 0.75 0 0] CT
1 LJ
2.667 LW
N
463.16 166.121 M
444.788 136.832 L
S
GR
GS
[0.75 0 0 0.75 0 0] CT
1 LJ
2.667 LW
N
463.16 200.768 M
454.524 167.755 L
S
GR
GS
[0.75 0 0 0.75 0 0] CT
1 LJ
2.667 LW
N
463.16 235.414 M
456.254 202.029 L
S
GR
GS
[0.75 0 0 0.75 0 0] CT
1 LJ
2.667 LW
N
463.16 270.061 M
459.237 236.428 L
S
GR
GS
[0.75 0 0 0.75 0 0] CT
1 LJ
2.667 LW
N
463.16 304.707 M
464.261 274.053 L
S
GR
GS
[0.75 0 0 0.75 0 0] CT
1 LJ
2.667 LW
N
463.16 339.353 M
468.501 314.16 L
S
GR
GS
[0.75 0 0 0.75 0 0] CT
1 LJ
2.667 LW
N
463.16 374 M
470.856 351.661 L
S
GR
GS
[0.75 0 0 0.75 0 0] CT
1 LJ
2.667 LW
N
507.001 62.182 M
466.013 42.821 L
S
GR
GS
[0.75 0 0 0.75 0 0] CT
1 LJ
2.667 LW
N
507.001 96.828 M
470.097 71.634 L
S
GR
GS
[0.75 0 0 0.75 0 0] CT
1 LJ
2.667 LW
N
507.001 131.475 M
476.85 100.572 L
S
GR
GS
[0.75 0 0 0.75 0 0] CT
1 LJ
2.667 LW
N
507.001 166.121 M
485.171 130.379 L
S
GR
GS
[0.75 0 0 0.75 0 0] CT
1 LJ
2.667 LW
N
507.001 200.768 M
493.024 163.536 L
S
GR
GS
[0.75 0 0 0.75 0 0] CT
1 LJ
2.667 LW
N
507.001 235.414 M
494.75 198.306 L
S
GR
GS
[0.75 0 0 0.75 0 0] CT
1 LJ
2.667 LW
N
507.001 270.061 M
501.345 234.938 L
S
GR
GS
[0.75 0 0 0.75 0 0] CT
1 LJ
2.667 LW
N
507.001 304.707 M
507.053 302.141 L
S
GR
GS
[0.75 0 0 0.75 0 0] CT
1 LJ
2.667 LW
N
507.001 339.353 M
507.053 339.018 L
S
GR
GS
[0.75 0 0 0.75 0 0] CT
1 LJ
2.667 LW
N
507.001 374 M
507.053 373.767 L
S
GR
%%Trailer
%%Pages: 1
%%EOF
