%!PS-Adobe-3.0 EPSF-3.0
%%Creator: (MATLAB, The Mathworks, Inc. Version 9.1.0.441655 \(R2016b\). Operating System: Linux)
%%Title: /home/ncaban/Thesis_materials/images/past_mf.eps
%%CreationDate: 2018-08-23T16:31:23
%%Pages: (atend)
%%BoundingBox:    18     5   388   288
%%LanguageLevel: 3
%%EndComments
%%BeginProlog
%%BeginResource: procset (Apache XML Graphics Std ProcSet) 1.2 0
%%Version: 1.2 0
%%Copyright: (Copyright 2001-2003,2010 The Apache Software Foundation. License terms: http://www.apache.org/licenses/LICENSE-2.0)
/bd{bind def}bind def
/ld{load def}bd
/GR/grestore ld
/M/moveto ld
/LJ/setlinejoin ld
/C/curveto ld
/f/fill ld
/LW/setlinewidth ld
/GC/setgray ld
/t/show ld
/N/newpath ld
/CT/concat ld
/cp/closepath ld
/S/stroke ld
/L/lineto ld
/CC/setcmykcolor ld
/A/ashow ld
/GS/gsave ld
/RC/setrgbcolor ld
/RM/rmoveto ld
/ML/setmiterlimit ld
/re {4 2 roll M
1 index 0 rlineto
0 exch rlineto
neg 0 rlineto
cp } bd
/_ctm matrix def
/_tm matrix def
/BT { _ctm currentmatrix pop matrix _tm copy pop 0 0 moveto } bd
/ET { _ctm setmatrix } bd
/iTm { _ctm setmatrix _tm concat } bd
/Tm { _tm astore pop iTm 0 0 moveto } bd
/ux 0.0 def
/uy 0.0 def
/F {
  /Tp exch def
  /Tf exch def
  Tf findfont Tp scalefont setfont
  /cf Tf def  /cs Tp def
} bd
/ULS {currentpoint /uy exch def /ux exch def} bd
/ULE {
  /Tcx currentpoint pop def
  gsave
  newpath
  cf findfont cs scalefont dup
  /FontMatrix get 0 get /Ts exch def /FontInfo get dup
  /UnderlinePosition get Ts mul /To exch def
  /UnderlineThickness get Ts mul /Tt exch def
  ux uy To add moveto  Tcx uy To add lineto
  Tt setlinewidth stroke
  grestore
} bd
/OLE {
  /Tcx currentpoint pop def
  gsave
  newpath
  cf findfont cs scalefont dup
  /FontMatrix get 0 get /Ts exch def /FontInfo get dup
  /UnderlinePosition get Ts mul /To exch def
  /UnderlineThickness get Ts mul /Tt exch def
  ux uy To add cs add moveto Tcx uy To add cs add lineto
  Tt setlinewidth stroke
  grestore
} bd
/SOE {
  /Tcx currentpoint pop def
  gsave
  newpath
  cf findfont cs scalefont dup
  /FontMatrix get 0 get /Ts exch def /FontInfo get dup
  /UnderlinePosition get Ts mul /To exch def
  /UnderlineThickness get Ts mul /Tt exch def
  ux uy To add cs 10 mul 26 idiv add moveto Tcx uy To add cs 10 mul 26 idiv add lineto
  Tt setlinewidth stroke
  grestore
} bd
/QT {
/Y22 exch store
/X22 exch store
/Y21 exch store
/X21 exch store
currentpoint
/Y21 load 2 mul add 3 div exch
/X21 load 2 mul add 3 div exch
/X21 load 2 mul /X22 load add 3 div
/Y21 load 2 mul /Y22 load add 3 div
/X22 load /Y22 load curveto
} bd
/SSPD {
dup length /d exch dict def
{
/v exch def
/k exch def
currentpagedevice k known {
/cpdv currentpagedevice k get def
v cpdv ne {
/upd false def
/nullv v type /nulltype eq def
/nullcpdv cpdv type /nulltype eq def
nullv nullcpdv or
{
/upd true def
} {
/sametype v type cpdv type eq def
sametype {
v type /arraytype eq {
/vlen v length def
/cpdvlen cpdv length def
vlen cpdvlen eq {
0 1 vlen 1 sub {
/i exch def
/obj v i get def
/cpdobj cpdv i get def
obj cpdobj ne {
/upd true def
exit
} if
} for
} {
/upd true def
} ifelse
} {
v type /dicttype eq {
v {
/dv exch def
/dk exch def
/cpddv cpdv dk get def
dv cpddv ne {
/upd true def
exit
} if
} forall
} {
/upd true def
} ifelse
} ifelse
} if
} ifelse
upd true eq {
d k v put
} if
} if
} if
} forall
d length 0 gt {
d setpagedevice
} if
} bd
/RE { % /NewFontName [NewEncodingArray] /FontName RE -
  findfont dup length dict begin
  {
    1 index /FID ne
    {def} {pop pop} ifelse
  } forall
  /Encoding exch def
  /FontName 1 index def
  currentdict definefont pop
  end
} bind def
%%EndResource
%%BeginResource: procset (Apache XML Graphics EPS ProcSet) 1.0 0
%%Version: 1.0 0
%%Copyright: (Copyright 2002-2003 The Apache Software Foundation. License terms: http://www.apache.org/licenses/LICENSE-2.0)
/BeginEPSF { %def
/b4_Inc_state save def         % Save state for cleanup
/dict_count countdictstack def % Count objects on dict stack
/op_count count 1 sub def      % Count objects on operand stack
userdict begin                 % Push userdict on dict stack
/showpage { } def              % Redefine showpage, { } = null proc
0 setgray 0 setlinecap         % Prepare graphics state
1 setlinewidth 0 setlinejoin
10 setmiterlimit [ ] 0 setdash newpath
/languagelevel where           % If level not equal to 1 then
{pop languagelevel             % set strokeadjust and
1 ne                           % overprint to their defaults.
{false setstrokeadjust false setoverprint
} if
} if
} bd
/EndEPSF { %def
count op_count sub {pop} repeat            % Clean up stacks
countdictstack dict_count sub {end} repeat
b4_Inc_state restore
} bd
%%EndResource
%FOPBeginFontDict
%%IncludeResource: font Courier-Bold
%%IncludeResource: font Helvetica
%%IncludeResource: font Courier-BoldOblique
%%IncludeResource: font Courier-Oblique
%%IncludeResource: font Times-Roman
%%IncludeResource: font Helvetica-BoldOblique
%%IncludeResource: font Helvetica-Bold
%%IncludeResource: font Helvetica-Oblique
%%IncludeResource: font Times-BoldItalic
%%IncludeResource: font Courier
%%IncludeResource: font Times-Italic
%%IncludeResource: font Times-Bold
%%IncludeResource: font Symbol
%%IncludeResource: font ZapfDingbats
%FOPEndFontDict
%%BeginResource: encoding WinAnsiEncoding
/WinAnsiEncoding [
/.notdef /.notdef /.notdef /.notdef /.notdef
/.notdef /.notdef /.notdef /.notdef /.notdef
/.notdef /.notdef /.notdef /.notdef /.notdef
/.notdef /.notdef /.notdef /.notdef /.notdef
/.notdef /.notdef /.notdef /.notdef /.notdef
/.notdef /.notdef /.notdef /.notdef /.notdef
/.notdef /.notdef /space /exclam /quotedbl
/numbersign /dollar /percent /ampersand /quotesingle
/parenleft /parenright /asterisk /plus /comma
/hyphen /period /slash /zero /one
/two /three /four /five /six
/seven /eight /nine /colon /semicolon
/less /equal /greater /question /at
/A /B /C /D /E
/F /G /H /I /J
/K /L /M /N /O
/P /Q /R /S /T
/U /V /W /X /Y
/Z /bracketleft /backslash /bracketright /asciicircum
/underscore /quoteleft /a /b /c
/d /e /f /g /h
/i /j /k /l /m
/n /o /p /q /r
/s /t /u /v /w
/x /y /z /braceleft /bar
/braceright /asciitilde /bullet /Euro /bullet
/quotesinglbase /florin /quotedblbase /ellipsis /dagger
/daggerdbl /circumflex /perthousand /Scaron /guilsinglleft
/OE /bullet /Zcaron /bullet /bullet
/quoteleft /quoteright /quotedblleft /quotedblright /bullet
/endash /emdash /asciitilde /trademark /scaron
/guilsinglright /oe /bullet /zcaron /Ydieresis
/space /exclamdown /cent /sterling /currency
/yen /brokenbar /section /dieresis /copyright
/ordfeminine /guillemotleft /logicalnot /sfthyphen /registered
/macron /degree /plusminus /twosuperior /threesuperior
/acute /mu /paragraph /middot /cedilla
/onesuperior /ordmasculine /guillemotright /onequarter /onehalf
/threequarters /questiondown /Agrave /Aacute /Acircumflex
/Atilde /Adieresis /Aring /AE /Ccedilla
/Egrave /Eacute /Ecircumflex /Edieresis /Igrave
/Iacute /Icircumflex /Idieresis /Eth /Ntilde
/Ograve /Oacute /Ocircumflex /Otilde /Odieresis
/multiply /Oslash /Ugrave /Uacute /Ucircumflex
/Udieresis /Yacute /Thorn /germandbls /agrave
/aacute /acircumflex /atilde /adieresis /aring
/ae /ccedilla /egrave /eacute /ecircumflex
/edieresis /igrave /iacute /icircumflex /idieresis
/eth /ntilde /ograve /oacute /ocircumflex
/otilde /odieresis /divide /oslash /ugrave
/uacute /ucircumflex /udieresis /yacute /thorn
/ydieresis
] def
%%EndResource
%FOPBeginFontReencode
/Courier-Bold findfont
dup length dict begin
  {1 index /FID ne {def} {pop pop} ifelse} forall
  /Encoding WinAnsiEncoding def
  currentdict
end
/Courier-Bold exch definefont pop
/Helvetica findfont
dup length dict begin
  {1 index /FID ne {def} {pop pop} ifelse} forall
  /Encoding WinAnsiEncoding def
  currentdict
end
/Helvetica exch definefont pop
/Courier-BoldOblique findfont
dup length dict begin
  {1 index /FID ne {def} {pop pop} ifelse} forall
  /Encoding WinAnsiEncoding def
  currentdict
end
/Courier-BoldOblique exch definefont pop
/Courier-Oblique findfont
dup length dict begin
  {1 index /FID ne {def} {pop pop} ifelse} forall
  /Encoding WinAnsiEncoding def
  currentdict
end
/Courier-Oblique exch definefont pop
/Times-Roman findfont
dup length dict begin
  {1 index /FID ne {def} {pop pop} ifelse} forall
  /Encoding WinAnsiEncoding def
  currentdict
end
/Times-Roman exch definefont pop
/Helvetica-BoldOblique findfont
dup length dict begin
  {1 index /FID ne {def} {pop pop} ifelse} forall
  /Encoding WinAnsiEncoding def
  currentdict
end
/Helvetica-BoldOblique exch definefont pop
/Helvetica-Bold findfont
dup length dict begin
  {1 index /FID ne {def} {pop pop} ifelse} forall
  /Encoding WinAnsiEncoding def
  currentdict
end
/Helvetica-Bold exch definefont pop
/Helvetica-Oblique findfont
dup length dict begin
  {1 index /FID ne {def} {pop pop} ifelse} forall
  /Encoding WinAnsiEncoding def
  currentdict
end
/Helvetica-Oblique exch definefont pop
/Times-BoldItalic findfont
dup length dict begin
  {1 index /FID ne {def} {pop pop} ifelse} forall
  /Encoding WinAnsiEncoding def
  currentdict
end
/Times-BoldItalic exch definefont pop
/Courier findfont
dup length dict begin
  {1 index /FID ne {def} {pop pop} ifelse} forall
  /Encoding WinAnsiEncoding def
  currentdict
end
/Courier exch definefont pop
/Times-Italic findfont
dup length dict begin
  {1 index /FID ne {def} {pop pop} ifelse} forall
  /Encoding WinAnsiEncoding def
  currentdict
end
/Times-Italic exch definefont pop
/Times-Bold findfont
dup length dict begin
  {1 index /FID ne {def} {pop pop} ifelse} forall
  /Encoding WinAnsiEncoding def
  currentdict
end
/Times-Bold exch definefont pop
%FOPEndFontReencode
%%EndProlog
%%Page: 1 1
%%PageBoundingBox: 0 0 426 308
%%BeginPageSetup
[1 0 0 -1 0 308] CT
%%EndPageSetup
GS
[0.75 0 0 0.75 0 0.5] CT
N
0 0 M
568 0 L
568 410 L
0 410 L
0 0 L
cp
clip
1 GC
N
0 0 568 410 re
f
GR
GS
[0.75 0 0 0.75 0 0.5] CT
1 GC
N
0 0 568 410 re
f
GR
GS
[0.75 0 0 0.75 0 0.5] CT
1 GC
N
74 365 M
514 365 L
514 31 L
74 31 L
cp
f
GR
GS
[0.75 0 0 0.75 0 0.5] CT
0.149 GC
2 setlinecap
1 LJ
0.667 LW
N
74 365 M
514 365 L
S
GR
GS
[0.75 0 0 0.75 0 0.5] CT
0.149 GC
2 setlinecap
1 LJ
0.667 LW
N
74 31 M
514 31 L
S
GR
GS
[0.75 0 0 0.75 0 0.5] CT
0.149 GC
2 setlinecap
1 LJ
0.667 LW
N
74 365 M
74 360.6 L
S
GR
GS
[0.75 0 0 0.75 0 0.5] CT
0.149 GC
2 setlinecap
1 LJ
0.667 LW
N
118 365 M
118 360.6 L
S
GR
GS
[0.75 0 0 0.75 0 0.5] CT
0.149 GC
2 setlinecap
1 LJ
0.667 LW
N
162 365 M
162 360.6 L
S
GR
GS
[0.75 0 0 0.75 0 0.5] CT
0.149 GC
2 setlinecap
1 LJ
0.667 LW
N
206 365 M
206 360.6 L
S
GR
GS
[0.75 0 0 0.75 0 0.5] CT
0.149 GC
2 setlinecap
1 LJ
0.667 LW
N
250 365 M
250 360.6 L
S
GR
GS
[0.75 0 0 0.75 0 0.5] CT
0.149 GC
2 setlinecap
1 LJ
0.667 LW
N
294 365 M
294 360.6 L
S
GR
GS
[0.75 0 0 0.75 0 0.5] CT
0.149 GC
2 setlinecap
1 LJ
0.667 LW
N
338 365 M
338 360.6 L
S
GR
GS
[0.75 0 0 0.75 0 0.5] CT
0.149 GC
2 setlinecap
1 LJ
0.667 LW
N
382 365 M
382 360.6 L
S
GR
GS
[0.75 0 0 0.75 0 0.5] CT
0.149 GC
2 setlinecap
1 LJ
0.667 LW
N
426 365 M
426 360.6 L
S
GR
GS
[0.75 0 0 0.75 0 0.5] CT
0.149 GC
2 setlinecap
1 LJ
0.667 LW
N
470 365 M
470 360.6 L
S
GR
GS
[0.75 0 0 0.75 0 0.5] CT
0.149 GC
2 setlinecap
1 LJ
0.667 LW
N
514 365 M
514 360.6 L
S
GR
GS
[0.75 0 0 0.75 0 0.5] CT
0.149 GC
2 setlinecap
1 LJ
0.667 LW
N
74 31 M
74 35.4 L
S
GR
GS
[0.75 0 0 0.75 0 0.5] CT
0.149 GC
2 setlinecap
1 LJ
0.667 LW
N
118 31 M
118 35.4 L
S
GR
GS
[0.75 0 0 0.75 0 0.5] CT
0.149 GC
2 setlinecap
1 LJ
0.667 LW
N
162 31 M
162 35.4 L
S
GR
GS
[0.75 0 0 0.75 0 0.5] CT
0.149 GC
2 setlinecap
1 LJ
0.667 LW
N
206 31 M
206 35.4 L
S
GR
GS
[0.75 0 0 0.75 0 0.5] CT
0.149 GC
2 setlinecap
1 LJ
0.667 LW
N
250 31 M
250 35.4 L
S
GR
GS
[0.75 0 0 0.75 0 0.5] CT
0.149 GC
2 setlinecap
1 LJ
0.667 LW
N
294 31 M
294 35.4 L
S
GR
GS
[0.75 0 0 0.75 0 0.5] CT
0.149 GC
2 setlinecap
1 LJ
0.667 LW
N
338 31 M
338 35.4 L
S
GR
GS
[0.75 0 0 0.75 0 0.5] CT
0.149 GC
2 setlinecap
1 LJ
0.667 LW
N
382 31 M
382 35.4 L
S
GR
GS
[0.75 0 0 0.75 0 0.5] CT
0.149 GC
2 setlinecap
1 LJ
0.667 LW
N
426 31 M
426 35.4 L
S
GR
GS
[0.75 0 0 0.75 0 0.5] CT
0.149 GC
2 setlinecap
1 LJ
0.667 LW
N
470 31 M
470 35.4 L
S
GR
GS
[0.75 0 0 0.75 0 0.5] CT
0.149 GC
2 setlinecap
1 LJ
0.667 LW
N
514 31 M
514 35.4 L
S
GR
GS
[0.75 0 0 0.75 55.5 278.25001] CT
0.149 GC
/Helvetica-Bold 13.333 F
GS
[1 0 0 1 0 0] CT
-5 13 moveto 
1 -1 scale
(0) t 
GR
GR
GS
[0.75 0 0 0.75 88.5 278.25001] CT
0.149 GC
/Helvetica-Bold 13.333 F
GS
[1 0 0 1 0 0] CT
-12 13 moveto 
1 -1 scale
(0.1) t 
GR
GR
GS
[0.75 0 0 0.75 121.5 278.25001] CT
0.149 GC
/Helvetica-Bold 13.333 F
GS
[1 0 0 1 0 0] CT
-12 13 moveto 
1 -1 scale
(0.2) t 
GR
GR
GS
[0.75 0 0 0.75 154.5 278.25001] CT
0.149 GC
/Helvetica-Bold 13.333 F
GS
[1 0 0 1 0 0] CT
-12 13 moveto 
1 -1 scale
(0.3) t 
GR
GR
GS
[0.75 0 0 0.75 187.5 278.25001] CT
0.149 GC
/Helvetica-Bold 13.333 F
GS
[1 0 0 1 0 0] CT
-12 13 moveto 
1 -1 scale
(0.4) t 
GR
GR
GS
[0.75 0 0 0.75 220.5 278.25001] CT
0.149 GC
/Helvetica-Bold 13.333 F
GS
[1 0 0 1 0 0] CT
-12 13 moveto 
1 -1 scale
(0.5) t 
GR
GR
GS
[0.75 0 0 0.75 253.5 278.25001] CT
0.149 GC
/Helvetica-Bold 13.333 F
GS
[1 0 0 1 0 0] CT
-12 13 moveto 
1 -1 scale
(0.6) t 
GR
GR
GS
[0.75 0 0 0.75 286.5 278.25001] CT
0.149 GC
/Helvetica-Bold 13.333 F
GS
[1 0 0 1 0 0] CT
-12 13 moveto 
1 -1 scale
(0.7) t 
GR
GR
GS
[0.75 0 0 0.75 319.5 278.25001] CT
0.149 GC
/Helvetica-Bold 13.333 F
GS
[1 0 0 1 0 0] CT
-12 13 moveto 
1 -1 scale
(0.8) t 
GR
GR
GS
[0.75 0 0 0.75 352.5 278.25001] CT
0.149 GC
/Helvetica-Bold 13.333 F
GS
[1 0 0 1 0 0] CT
-12 13 moveto 
1 -1 scale
(0.9) t 
GR
GR
GS
[0.75 0 0 0.75 385.5 278.25001] CT
0.149 GC
/Helvetica-Bold 13.333 F
GS
[1 0 0 1 0 0] CT
-5 13 moveto 
1 -1 scale
(1) t 
GR
GR
GS
[0.75 0 0 0.75 220.50016 291.99999] CT
0.149 GC
/Helvetica-Bold 14.667 F
GS
[1 0 0 1 0 0] CT
-96 14 moveto 
1 -1 scale
(Correlation Coefficient) t 
GR
GR
GS
[0.75 0 0 0.75 0 0.5] CT
0.149 GC
2 setlinecap
1 LJ
0.667 LW
N
74 365 M
74 31 L
S
GR
GS
[0.75 0 0 0.75 0 0.5] CT
0.149 GC
2 setlinecap
1 LJ
0.667 LW
N
514 365 M
514 31 L
S
GR
GS
[0.75 0 0 0.75 0 0.5] CT
0.149 GC
2 setlinecap
1 LJ
0.667 LW
N
74 365 M
78.4 365 L
S
GR
GS
[0.75 0 0 0.75 0 0.5] CT
0.149 GC
2 setlinecap
1 LJ
0.667 LW
N
74 331.6 M
78.4 331.6 L
S
GR
GS
[0.75 0 0 0.75 0 0.5] CT
0.149 GC
2 setlinecap
1 LJ
0.667 LW
N
74 298.2 M
78.4 298.2 L
S
GR
GS
[0.75 0 0 0.75 0 0.5] CT
0.149 GC
2 setlinecap
1 LJ
0.667 LW
N
74 264.8 M
78.4 264.8 L
S
GR
GS
[0.75 0 0 0.75 0 0.5] CT
0.149 GC
2 setlinecap
1 LJ
0.667 LW
N
74 231.4 M
78.4 231.4 L
S
GR
GS
[0.75 0 0 0.75 0 0.5] CT
0.149 GC
2 setlinecap
1 LJ
0.667 LW
N
74 198 M
78.4 198 L
S
GR
GS
[0.75 0 0 0.75 0 0.5] CT
0.149 GC
2 setlinecap
1 LJ
0.667 LW
N
74 164.6 M
78.4 164.6 L
S
GR
GS
[0.75 0 0 0.75 0 0.5] CT
0.149 GC
2 setlinecap
1 LJ
0.667 LW
N
74 131.2 M
78.4 131.2 L
S
GR
GS
[0.75 0 0 0.75 0 0.5] CT
0.149 GC
2 setlinecap
1 LJ
0.667 LW
N
74 97.8 M
78.4 97.8 L
S
GR
GS
[0.75 0 0 0.75 0 0.5] CT
0.149 GC
2 setlinecap
1 LJ
0.667 LW
N
74 64.4 M
78.4 64.4 L
S
GR
GS
[0.75 0 0 0.75 0 0.5] CT
0.149 GC
2 setlinecap
1 LJ
0.667 LW
N
74 31 M
78.4 31 L
S
GR
GS
[0.75 0 0 0.75 0 0.5] CT
0.149 GC
2 setlinecap
1 LJ
0.667 LW
N
514 365 M
509.6 365 L
S
GR
GS
[0.75 0 0 0.75 0 0.5] CT
0.149 GC
2 setlinecap
1 LJ
0.667 LW
N
514 331.6 M
509.6 331.6 L
S
GR
GS
[0.75 0 0 0.75 0 0.5] CT
0.149 GC
2 setlinecap
1 LJ
0.667 LW
N
514 298.2 M
509.6 298.2 L
S
GR
GS
[0.75 0 0 0.75 0 0.5] CT
0.149 GC
2 setlinecap
1 LJ
0.667 LW
N
514 264.8 M
509.6 264.8 L
S
GR
GS
[0.75 0 0 0.75 0 0.5] CT
0.149 GC
2 setlinecap
1 LJ
0.667 LW
N
514 231.4 M
509.6 231.4 L
S
GR
GS
[0.75 0 0 0.75 0 0.5] CT
0.149 GC
2 setlinecap
1 LJ
0.667 LW
N
514 198 M
509.6 198 L
S
GR
GS
[0.75 0 0 0.75 0 0.5] CT
0.149 GC
2 setlinecap
1 LJ
0.667 LW
N
514 164.6 M
509.6 164.6 L
S
GR
GS
[0.75 0 0 0.75 0 0.5] CT
0.149 GC
2 setlinecap
1 LJ
0.667 LW
N
514 131.2 M
509.6 131.2 L
S
GR
GS
[0.75 0 0 0.75 0 0.5] CT
0.149 GC
2 setlinecap
1 LJ
0.667 LW
N
514 97.8 M
509.6 97.8 L
S
GR
GS
[0.75 0 0 0.75 0 0.5] CT
0.149 GC
2 setlinecap
1 LJ
0.667 LW
N
514 64.4 M
509.6 64.4 L
S
GR
GS
[0.75 0 0 0.75 0 0.5] CT
0.149 GC
2 setlinecap
1 LJ
0.667 LW
N
514 31 M
509.6 31 L
S
GR
GS
[0.75 0 0 0.75 51.5 274.25] CT
0.149 GC
/Helvetica-Bold 13.333 F
GS
[1 0 0 1 0 0] CT
-10 4.5 moveto 
1 -1 scale
(0) t 
GR
GR
GS
[0.75 0 0 0.75 51.5 249.2] CT
0.149 GC
/Helvetica-Bold 13.333 F
GS
[1 0 0 1 0 0] CT
-24 4.5 moveto 
1 -1 scale
(0.1) t 
GR
GR
GS
[0.75 0 0 0.75 51.5 224.15001] CT
0.149 GC
/Helvetica-Bold 13.333 F
GS
[1 0 0 1 0 0] CT
-24 4.5 moveto 
1 -1 scale
(0.2) t 
GR
GR
GS
[0.75 0 0 0.75 51.5 199.09999] CT
0.149 GC
/Helvetica-Bold 13.333 F
GS
[1 0 0 1 0 0] CT
-24 4.5 moveto 
1 -1 scale
(0.3) t 
GR
GR
GS
[0.75 0 0 0.75 51.5 174.05] CT
0.149 GC
/Helvetica-Bold 13.333 F
GS
[1 0 0 1 0 0] CT
-24 4.5 moveto 
1 -1 scale
(0.4) t 
GR
GR
GS
[0.75 0 0 0.75 51.5 149] CT
0.149 GC
/Helvetica-Bold 13.333 F
GS
[1 0 0 1 0 0] CT
-24 4.5 moveto 
1 -1 scale
(0.5) t 
GR
GR
GS
[0.75 0 0 0.75 51.5 123.94999] CT
0.149 GC
/Helvetica-Bold 13.333 F
GS
[1 0 0 1 0 0] CT
-24 4.5 moveto 
1 -1 scale
(0.6) t 
GR
GR
GS
[0.75 0 0 0.75 51.5 98.9] CT
0.149 GC
/Helvetica-Bold 13.333 F
GS
[1 0 0 1 0 0] CT
-24 4.5 moveto 
1 -1 scale
(0.7) t 
GR
GR
GS
[0.75 0 0 0.75 51.5 73.85] CT
0.149 GC
/Helvetica-Bold 13.333 F
GS
[1 0 0 1 0 0] CT
-24 4.5 moveto 
1 -1 scale
(0.8) t 
GR
GR
GS
[0.75 0 0 0.75 51.5 48.80001] CT
0.149 GC
/Helvetica-Bold 13.333 F
GS
[1 0 0 1 0 0] CT
-24 4.5 moveto 
1 -1 scale
(0.9) t 
GR
GR
GS
[0.75 0 0 0.75 51.5 23.75] CT
0.149 GC
/Helvetica-Bold 13.333 F
GS
[1 0 0 1 0 0] CT
-10 4.5 moveto 
1 -1 scale
(1) t 
GR
GR
GS
[0 -0.75 0.75 0 30.5 148.99989] CT
0.149 GC
/Helvetica-Bold 14.667 F
GS
[1 0 0 1 0 0] CT
-96.5 -4 moveto 
1 -1 scale
(Degree of Membership) t 
GR
GR
GS
[0.75 0 0 0.75 0 0.5] CT
0 0.447 0.741 RC
1 LJ
4 LW
N
74 365 M
74.88 365 L
75.76 365 L
76.64 365 L
77.52 365 L
78.4 365 L
79.28 365 L
80.16 365 L
81.04 365 L
81.92 365 L
82.8 365 L
83.68 365 L
84.56 365 L
85.44 365 L
86.32 365 L
87.2 365 L
88.08 365 L
88.96 365 L
89.84 365 L
90.72 365 L
91.6 365 L
92.48 365 L
93.36 365 L
94.24 365 L
95.12 365 L
96 365 L
96.88 365 L
97.76 365 L
98.64 365 L
99.52 365 L
100.4 365 L
101.28 365 L
102.16 365 L
103.04 365 L
103.92 365 L
104.8 365 L
105.68 365 L
106.56 365 L
107.44 365 L
108.32 365 L
109.2 365 L
110.08 365 L
110.96 365 L
111.84 365 L
112.72 365 L
113.6 365 L
114.48 365 L
115.36 365 L
116.24 365 L
117.12 365 L
118 365 L
118.88 365 L
119.76 365 L
120.64 365 L
121.52 365 L
122.4 365 L
123.28 365 L
124.16 365 L
125.04 365 L
125.92 365 L
126.8 365 L
127.68 365 L
128.56 365 L
129.44 365 L
130.32 365 L
131.2 365 L
132.08 365 L
132.96 365 L
133.84 365 L
134.72 365 L
135.6 365 L
136.48 365 L
137.36 365 L
138.24 365 L
139.12 365 L
140 365 L
140.88 365 L
141.76 365 L
142.64 365 L
143.52 365 L
144.4 365 L
145.28 365 L
146.16 365 L
147.04 365 L
147.92 365 L
148.8 365 L
149.68 365 L
150.56 365 L
151.44 365 L
152.32 365 L
153.2 365 L
154.08 365 L
154.96 365 L
155.84 365 L
156.72 365 L
157.6 365 L
158.48 365 L
159.36 365 L
160.24 365 L
161.12 365 L
162 365 L
162.88 365 L
163.76 365 L
164.64 365 L
165.52 365 L
166.4 365 L
167.28 365 L
168.16 365 L
169.04 365 L
169.92 365 L
170.8 365 L
171.68 365 L
172.56 365 L
173.44 365 L
174.32 365 L
175.2 365 L
176.08 365 L
176.96 365 L
177.84 365 L
178.72 365 L
179.6 365 L
180.48 365 L
181.36 365 L
182.24 365 L
183.12 365 L
184 365 L
184.88 365 L
185.76 365 L
186.64 365 L
187.52 365 L
188.4 365 L
189.28 365 L
190.16 365 L
191.04 365 L
191.92 365 L
192.8 365 L
193.68 365 L
194.56 365 L
195.44 365 L
196.32 365 L
197.2 365 L
198.08 365 L
198.96 365 L
199.84 365 L
200.72 365 L
201.6 365 L
202.48 365 L
203.36 365 L
204.24 365 L
205.12 365 L
206 365 L
206.88 365 L
207.76 365 L
208.64 365 L
209.52 365 L
210.4 365 L
211.28 365 L
212.16 365 L
213.04 365 L
213.92 365 L
214.8 365 L
215.68 365 L
216.56 365 L
217.44 365 L
218.32 365 L
219.2 365 L
220.08 365 L
220.96 365 L
221.84 365 L
222.72 365 L
223.6 365 L
224.48 365 L
225.36 365 L
226.24 365 L
227.12 365 L
228 365 L
228.88 365 L
229.76 365 L
230.64 365 L
231.52 365 L
232.4 365 L
233.28 365 L
234.16 365 L
235.04 365 L
235.92 365 L
236.8 365 L
237.68 365 L
238.56 365 L
239.44 365 L
240.32 365 L
241.2 365 L
242.08 365 L
242.96 365 L
243.84 365 L
244.72 365 L
245.6 365 L
246.48 365 L
247.36 365 L
248.24 365 L
249.12 365 L
250 365 L
250.88 365 L
251.76 365 L
252.64 365 L
253.52 365 L
254.4 365 L
255.28 365 L
256.16 365 L
257.04 365 L
257.92 365 L
258.8 365 L
259.68 365 L
260.56 365 L
261.44 365 L
262.32 365 L
263.2 365 L
264.08 365 L
264.96 365 L
265.84 365 L
266.72 365 L
267.6 365 L
268.48 365 L
269.36 365 L
270.24 365 L
271.12 365 L
272 365 L
272.88 365 L
273.76 365 L
274.64 365 L
275.52 365 L
276.4 365 L
277.28 365 L
278.16 365 L
279.04 365 L
279.92 365 L
280.8 365 L
281.68 365 L
282.56 365 L
283.44 365 L
284.32 365 L
285.2 365 L
286.08 365 L
286.96 365 L
287.84 365 L
288.72 365 L
289.6 365 L
290.48 365 L
291.36 365 L
292.24 365 L
293.12 365 L
294 365 L
294.88 363.664 L
295.76 362.328 L
296.64 360.992 L
297.52 359.656 L
298.4 358.32 L
299.28 356.984 L
300.16 355.648 L
301.04 354.312 L
301.92 352.976 L
302.8 351.64 L
303.68 350.304 L
304.56 348.968 L
305.44 347.632 L
306.32 346.296 L
307.2 344.96 L
308.08 343.624 L
308.96 342.288 L
309.84 340.952 L
310.72 339.616 L
311.6 338.28 L
312.48 336.944 L
313.36 335.608 L
314.24 334.272 L
315.12 332.936 L
316 331.6 L
316.88 330.264 L
317.76 328.928 L
318.64 327.592 L
319.52 326.256 L
320.4 324.92 L
321.28 323.584 L
322.16 322.248 L
323.04 320.912 L
323.92 319.576 L
324.8 318.24 L
325.68 316.904 L
326.56 315.568 L
327.44 314.232 L
328.32 312.896 L
329.2 311.56 L
330.08 310.224 L
330.96 308.888 L
331.84 307.552 L
332.72 306.216 L
333.6 304.88 L
334.48 303.544 L
335.36 302.208 L
336.24 300.872 L
337.12 299.536 L
338 298.2 L
338.88 296.864 L
339.76 295.528 L
340.64 294.192 L
341.52 292.856 L
342.4 291.52 L
343.28 290.184 L
344.16 288.848 L
345.04 287.512 L
345.92 286.176 L
346.8 284.84 L
347.68 283.504 L
348.56 282.168 L
349.44 280.832 L
350.32 279.496 L
351.2 278.16 L
352.08 276.824 L
352.96 275.488 L
353.84 274.152 L
354.72 272.816 L
355.6 271.48 L
356.48 270.144 L
357.36 268.808 L
358.24 267.472 L
359.12 266.136 L
360 264.8 L
360.88 263.464 L
361.76 262.128 L
362.64 260.792 L
363.52 259.456 L
364.4 258.12 L
365.28 256.784 L
366.16 255.448 L
367.04 254.112 L
367.92 252.776 L
368.8 251.44 L
369.68 250.104 L
370.56 248.768 L
371.44 247.432 L
372.32 246.096 L
373.2 244.76 L
374.08 243.424 L
374.96 242.088 L
375.84 240.752 L
376.72 239.416 L
377.6 238.08 L
378.48 236.744 L
379.36 235.408 L
380.24 234.072 L
381.12 232.736 L
382 231.4 L
382.88 230.064 L
383.76 228.728 L
384.64 227.392 L
385.52 226.056 L
386.4 224.72 L
387.28 223.384 L
388.16 222.048 L
389.04 220.712 L
389.92 219.376 L
390.8 218.04 L
391.68 216.704 L
392.56 215.368 L
393.44 214.032 L
394.32 212.696 L
395.2 211.36 L
396.08 210.024 L
396.96 208.688 L
397.84 207.352 L
398.72 206.016 L
399.6 204.68 L
400.48 203.344 L
401.36 202.008 L
402.24 200.672 L
403.12 199.336 L
404 198 L
404.88 196.664 L
405.76 195.328 L
406.64 193.992 L
407.52 192.656 L
408.4 191.32 L
409.28 189.984 L
410.16 188.648 L
411.04 187.312 L
411.92 185.976 L
412.8 184.64 L
413.68 183.304 L
414.56 181.968 L
415.44 180.632 L
416.32 179.296 L
417.2 177.96 L
418.08 176.624 L
418.96 175.288 L
419.84 173.952 L
420.72 172.616 L
421.6 171.28 L
422.48 169.944 L
423.36 168.608 L
424.24 167.272 L
425.12 165.936 L
426 164.6 L
426.88 163.264 L
427.76 161.928 L
428.64 160.592 L
429.52 159.256 L
430.4 157.92 L
431.28 156.584 L
432.16 155.248 L
433.04 153.912 L
433.92 152.576 L
434.8 151.24 L
435.68 149.904 L
436.56 148.568 L
437.44 147.232 L
438.32 145.896 L
439.2 144.56 L
440.08 143.224 L
440.96 141.888 L
441.84 140.552 L
442.72 139.216 L
443.6 137.88 L
444.48 136.544 L
445.36 135.208 L
446.24 133.872 L
447.12 132.536 L
448 131.2 L
448.88 129.864 L
449.76 128.528 L
450.64 127.192 L
451.52 125.856 L
452.4 124.52 L
453.28 123.184 L
454.16 121.848 L
455.04 120.512 L
455.92 119.176 L
456.8 117.84 L
457.68 116.504 L
458.56 115.168 L
459.44 113.832 L
460.32 112.496 L
461.2 111.16 L
462.08 109.824 L
462.96 108.488 L
463.84 107.152 L
464.72 105.816 L
465.6 104.48 L
466.48 103.144 L
467.36 101.808 L
468.24 100.472 L
469.12 99.136 L
470 97.8 L
470.88 96.464 L
471.76 95.128 L
472.64 93.792 L
473.52 92.456 L
474.4 91.12 L
475.28 89.784 L
476.16 88.448 L
477.04 87.112 L
477.92 85.776 L
478.8 84.44 L
479.68 83.104 L
480.56 81.768 L
481.44 80.432 L
482.32 79.096 L
483.2 77.76 L
484.08 76.424 L
484.96 75.088 L
485.84 73.752 L
486.72 72.416 L
487.6 71.08 L
488.48 69.744 L
489.36 68.408 L
490.24 67.072 L
491.12 65.736 L
492 64.4 L
492.88 63.064 L
493.76 61.728 L
494.64 60.392 L
495.52 59.056 L
496.4 57.72 L
497.28 56.384 L
498.16 55.048 L
499.04 53.712 L
499.92 52.376 L
500.8 51.04 L
501.68 49.704 L
502.56 48.368 L
503.44 47.032 L
504.32 45.696 L
505.2 44.36 L
506.08 43.024 L
506.96 41.688 L
507.84 40.352 L
508.72 39.016 L
509.6 37.68 L
510.48 36.344 L
511.36 35.008 L
512.24 33.672 L
513.12 32.336 L
514 31 L
S
GR
GS
[0.75 0 0 0.75 0 0.5] CT
1 GC
N
224 69 M
224 44 L
364 44 L
364 69 L
cp
f
GR
GS
[0.75 0 0 0.75 195.75 44.75] CT
/Helvetica-Bold 12 F
GS
[1 0 0 1 0 0] CT
0 0 moveto 
1 -1 scale
(w) t 
GR
GR
GS
[0.75 0 0 0.75 204.75 49.25] CT
/Helvetica-Bold 9.6 F
GS
[1 0 0 1 0 0] CT
0 0 moveto 
1 -1 scale
(3) t 
GR
GR
GS
[0.75 0 0 0.75 210 44.75] CT
/Helvetica-Bold 12 F
GS
[1 0 0 1 0 0] CT
0 0 moveto 
1 -1 scale
( through w) t 
GR
GR
GS
[0.75 0 0 0.75 265.5 49.25] CT
/Helvetica-Bold 9.6 F
GS
[1 0 0 1 0 0] CT
0 0 moveto 
1 -1 scale
(5) t 
GR
GR
GS
[0.75 0 0 0.75 0 0.5] CT
0 0.447 0.741 RC
1 LJ
4 LW
N
227.972 56.5 M
257.759 56.5 L
S
GR
GS
[0.75 0 0 0.75 0 0.5] CT
0.149 GC
10.0 ML
0.667 LW
N
224 69 M
224 44 L
364 44 L
364 69 L
cp
S
GR
%%Trailer
%%Pages: 1
%%EOF
