\relax 
\newlabel{abstract}{{}{ii}}
\@writefile{toc}{\contentsline {part}{ABSTRACT}{ii}}
\newlabel{acknowledgements}{{}{iii}}
\@writefile{toc}{\contentsline {part}{ACKNOWLEDGEMENTS}{iii}}
\citation{Tang++14}
\citation{Lakshmanan++13}
\@writefile{toc}{\contentsline {part}{LIST OF FIGURES}{vi}}
\@writefile{toc}{\contentsline {part}{LIST OF TABLES}{viii}}
\citation{Best++73}
\citation{Whiton++98a}
\citation{Whiton++98b}
\@writefile{toc}{\noindent \mbox {Chapter}\par }
\@writefile{lof}{\noindent \mbox {Figure}\hfill \makebox [1em]{Page}\par }
\@writefile{lot}{\noindent \mbox {Table}\hfill \makebox [1em]{Page}\par }
\@writefile{toc}{\contentsline {chapter}{\numberline {1.}Introduction}{1}}
\@writefile{lof}{\addvspace {10\p@ }}
\@writefile{lot}{\addvspace {10\p@ }}
\newlabel{chap:Introduction}{{1}{1}}
\citation{Whiton++98b}
\@writefile{toc}{\noindent \vskip \baselineskip \par }
\@writefile{toc}{\contentsline {section}{\numberline {1.1}Objective}{2}}
\@writefile{toc}{\contentsline {section}{\numberline {1.2}Organization of Thesis}{2}}
\citation{NEXRADtech}
\citation{Doviak++93}
\citation{NEXRADtech}
\citation{Skolnik++01}
\@writefile{toc}{\contentsline {chapter}{\numberline {2.}Literature Review}{4}}
\@writefile{lof}{\addvspace {10\p@ }}
\@writefile{lot}{\addvspace {10\p@ }}
\newlabel{chap:Background}{{2}{4}}
\@writefile{toc}{\noindent \vskip \baselineskip \par }
\@writefile{toc}{\contentsline {section}{\numberline {2.1}General Background}{4}}
\newlabel{s:GB}{{2.1}{4}}
\@writefile{lof}{\contentsline {figure}{\numberline {2.1}{\ignorespaces Illustration showing a two-dimensional (showing a singular elevation angle) radar bin. The range gate and azimuth angle are shown for a visual representation. \relax }}{4}}
\providecommand*\caption@xref[2]{\@setref\relax\@undefined{#1}}
\newlabel{f:raw radar}{{2.1}{4}}
\citation{Whiton++98b}
\citation{Doviak++93}
\@writefile{lof}{\contentsline {figure}{\numberline {2.2}{\ignorespaces The In-Phase and Quadrature Data Channels \relax }}{5}}
\newlabel{f:IQ}{{2.2}{5}}
\citation{Seliga++76}
\citation{Doviak++00}
\newlabel{eq: reflectivity}{{2.1}{6}}
\newlabel{eq: velocity}{{2.2}{6}}
\newlabel{spectrum width}{{2.3}{6}}
\citation{Istok++09}
\@writefile{lof}{\contentsline {figure}{\numberline {2.3}{\ignorespaces Conventional vs. Dual Polarization radar. Notice how the dual polarization radar waves are orthogonal to each other. (Courtesy of NOAA (National Oceanic and Atmospheric Administration) and NWS (National Weather Service))\relax }}{7}}
\newlabel{f:dual_pol}{{2.3}{7}}
\citation{Tang++14,Lakshmanan++13,Park++09}
\citation{Tang++14}
\citation{Lakshmanan++13}
\citation{Park++09}
\citation{Tang++14}
\citation{Lakshmanan++13}
\citation{Tang++14}
\citation{Lakshmanan++13}
\citation{Tang++14}
\citation{Tang++14}
\@writefile{toc}{\contentsline {section}{\numberline {2.2}Quantitative Precipitation Estimation}{8}}
\@writefile{toc}{\contentsline {subsection}{\numberline {2.2.1}Radar data quality control}{8}}
\newlabel{s:QC}{{2.2.1}{8}}
\@writefile{lof}{\contentsline {figure}{\numberline {2.4}{\ignorespaces Before and after the quality control of the precipitation echoes. Courtesy of \citep  {Tang++14}. (a) Raw Z (b) $ \rho _{HV}$ measurements (c) Z field after neural network\citep  {Lakshmanan++13} (d) Z field after the $ \rho _{HV}$ filter (threshold = 0.95)\relax }}{9}}
\newlabel{f:quality control}{{2.4}{9}}
\citation{Zhang++16}
\citation{Zhang++05}
\citation{Zhang++16}
\citation{Giangrande++08}
\citation{Zrnic++95}
\@writefile{toc}{\contentsline {subsection}{\numberline {2.2.2}Radar data mosaic}{10}}
\newlabel{s:Mosaic}{{2.2.2}{10}}
\citation{Giangrande++08}
\@writefile{toc}{\contentsline {subsection}{\numberline {2.2.3}Quantitative precipitation estimation }{11}}
\newlabel{s:QPE}{{2.2.3}{11}}
\newlabel{eq:rainrate Z}{{2.4}{11}}
\newlabel{eq:rainrate K}{{2.5}{11}}
\newlabel{eq:rainrate Z_DR}{{2.6}{11}}
\citation{Zhang++16,Wang++11}
\newlabel{eq:rainrate stratiform}{{2.7}{12}}
\newlabel{eq:rainrate convective}{{2.8}{12}}
\@writefile{toc}{\contentsline {section}{\numberline {2.3}Summary}{12}}
\newlabel{s:Background Summary}{{2.3}{12}}
\citation{Mandapaka++12,Lin++05,Hwang++15}
\citation{Skamarock++08}
\citation{Benjamin++16}
\@writefile{toc}{\contentsline {chapter}{\numberline {3.}Quantitative Precipitation Forecasting}{13}}
\@writefile{lof}{\addvspace {10\p@ }}
\@writefile{lot}{\addvspace {10\p@ }}
\newlabel{chap:Method}{{3}{13}}
\@writefile{toc}{\noindent \vskip \baselineskip \par }
\@writefile{toc}{\contentsline {section}{\numberline {3.1}Background}{13}}
\newlabel{s:QPF}{{3.1}{13}}
\@writefile{toc}{\contentsline {subsection}{\numberline {3.1.1}Numerical weather prediction}{13}}
\newlabel{s:NWP}{{3.1.1}{13}}
\citation{Benjamin++16}
\citation{Rossi++15}
\citation{Wang++10}
\citation{Peckham++16}
\citation{Benjamin++16}
\citation{Griffin++17}
\citation{Pierce++04}
\citation{Tuttle++90}
\@writefile{toc}{\contentsline {subsection}{\numberline {3.1.2}Radar based extrapolation}{15}}
\newlabel{s:Extrapolation}{{3.1.2}{15}}
\newlabel{s:Cross Correlation}{{3.1.2}{15}}
\@writefile{toc}{\contentsline {subsubsection}{\textbf  {Cross Correlation.}}{15}}
\citation{Rinehart++79,Tuttle++90}
\citation{Rinehart++79}
\citation{Tuttle++90}
\citation{Li++95}
\citation{Li++95}
\citation{Wang++12}
\citation{Wang++12}
\newlabel{eq:R}{{3.1}{16}}
\@writefile{lof}{\contentsline {figure}{\numberline {3.1}{\ignorespaces Calculation of TREC vectors based on the cross correlation showing the search radius. (a) first image that shows the original array in question (b) second image that shows the array with the highest correlation coefficient as well as the corresponding TREC vector \relax }}{17}}
\newlabel{f:calc TREC}{{3.1}{17}}
\citation{Liang++10}
\citation{Chen++08}
\citation{Liang++10}
\citation{Dixon++93}
\newlabel{s: Centroid Tracking}{{3.1.2}{18}}
\@writefile{toc}{\contentsline {subsubsection}{\textbf  {Centroid Tracking.}}{18}}
\citation{Han++09}
\citation{Umbaugh++11}
\citation{Han++09}
\citation{Hwang++15}
\citation{Wolberg++98}
\citation{Hwang++15}
\citation{Grundland++06}
\citation{Hwang++15}
\@writefile{toc}{\contentsline {subsection}{\numberline {3.1.3}NWP-Extrapolation hybrid}{20}}
\newlabel{s:NWP-Extrapolation Hybrid}{{3.1.3}{20}}
\citation{Zadeh++65}
\citation{Zadeh++73}
\@writefile{toc}{\contentsline {section}{\numberline {3.2}Proposed Fuzzy Logic Radar Based Extrapolation QPF Approach}{21}}
\newlabel{s:Fuzzy}{{3.2}{21}}
\@writefile{lof}{\contentsline {figure}{\numberline {3.2}{\ignorespaces Flowchart showing the steps involved in the approach presented in this paper. The fuzzy logic portion is described in section\nobreakspace  {}3.2.5\hbox {}, COTREC is described in section\nobreakspace  {}3.2.6\hbox {}, Prediction is described in section\nobreakspace  {}3.2.7\hbox {}, and Dilation and Smoothing is discussed in section\nobreakspace  {}3.2.8\hbox {}\relax }}{21}}
\newlabel{f:flowchart}{{3.2}{21}}
\citation{Park++09,Thompson++14}
\citation{Giangrande++08}
\citation{Liang++10}
\@writefile{lof}{\contentsline {figure}{\numberline {3.3}{\ignorespaces Comparison between a fuzzy set and a crisp set \relax }}{22}}
\newlabel{f:crisp_fuzzy}{{3.3}{22}}
\@writefile{toc}{\contentsline {subsection}{\numberline {3.2.1}Fuzzy sets and fuzzy logic}{22}}
\newlabel{s:Fuzzy Sets}{{3.2.1}{22}}
\citation{Ecklund++88}
\citation{Chrisman++09}
\citation{Benjamin++16}
\@writefile{toc}{\contentsline {subsection}{\numberline {3.2.2}Model windfield vectors}{23}}
\newlabel{s:windfield vectors}{{3.2.2}{23}}
\citation{Tuttle++90}
\citation{Cangialosi++18}
\@writefile{lof}{\contentsline {figure}{\numberline {3.4}{\ignorespaces Weighting factor used to decrease the impact of the model windfield vectors as the difference between the current time and RAP update time increases. The weighting factor is calculated using: $0.8^{difference/10}$\relax }}{24}}
\newlabel{f:w2_weights}{{3.4}{24}}
\@writefile{toc}{\contentsline {subsection}{\numberline {3.2.3}Initial setup}{24}}
\newlabel{s: setup}{{3.2.3}{24}}
\@writefile{toc}{\contentsline {subsection}{\numberline {3.2.4}Motion vector calculation}{25}}
\newlabel{s: calc vectors}{{3.2.4}{25}}
\citation{Negnevitsky++04}
\@writefile{lof}{\contentsline {figure}{\numberline {3.5}{\ignorespaces Mosaic image divided into 10 km x 10 km arrays \relax }}{26}}
\newlabel{f:image_array}{{3.5}{26}}
\@writefile{toc}{\contentsline {subsection}{\numberline {3.2.5}Fuzzy logic}{26}}
\newlabel{s:Fuzzy_Logic}{{3.2.5}{26}}
\@writefile{lof}{\contentsline {figure}{\numberline {3.6}{\ignorespaces  (a) Before and (b) after threshold on correlation coefficient for each 10 km x 10 km grid. Notice how there is not much change except for the area within the red ellipse. The area around the red ellipse is zoomed in for a more detailed view.\relax }}{27}}
\newlabel{f:cross correlation coefficient}{{3.6}{27}}
\@writefile{lof}{\contentsline {figure}{\numberline {3.7}{\ignorespaces Steps involved in the fuzzy logic framework used in the approach presented in this paper.\relax }}{28}}
\newlabel{f:flowchart_fuzzy}{{3.7}{28}}
\@writefile{lof}{\contentsline {figure}{\numberline {3.8}{\ignorespaces Fuzzy membership functions for each of the motion fields used in this paper. (a) Membership function for the TREC motion field vectors and the RAP model motion field vectors (b) Membership function for most recent previously computed motion field vectors (c) Membership function for 2nd most recent previously computed motion field vectors (d) Membership function for 3rd most recent previously computed motion field vectors.\relax }}{29}}
\newlabel{f:mem_fun}{{3.8}{29}}
\citation{Takagi++85}
\citation{Li++95}
\newlabel{eq:sugeno}{{3.3}{30}}
\@writefile{toc}{\contentsline {subsection}{\numberline {3.2.6}COTREC implementation}{30}}
\newlabel{s:COTREC}{{3.2.6}{30}}
\citation{Li++95}
\citation{Sherman++78}
\newlabel{eq:cost}{{3.4}{31}}
\newlabel{eq:constraint}{{3.5}{31}}
\newlabel{eq:combined}{{3.6}{31}}
\newlabel{eq:u_solution}{{3.7}{31}}
\newlabel{eq:v_solution}{{3.8}{31}}
\newlabel{eq:partial_diff_eq}{{3.9}{32}}
\newlabel{eq:finite}{{3.10}{32}}
\newlabel{eq:epsilon}{{3.11}{32}}
\newlabel{eq:finite3}{{3.12}{32}}
\newlabel{eq:finite4}{{3.13}{32}}
\citation{Barrett++94}
\citation{Sherman++78}
\newlabel{eq:lin1}{{3.14}{33}}
\newlabel{eq:lin2}{{3.15}{33}}
\newlabel{eq:lin3}{{3.16}{33}}
\newlabel{eq:lin4}{{3.17}{33}}
\newlabel{eq:matrix}{{3.18}{33}}
\newlabel{eq:SOR_matrix}{{3.19}{33}}
\citation{Dixon++93,Han++09}
\citation{Germann++02}
\newlabel{eq:U}{{3.20}{34}}
\newlabel{eq:V}{{3.21}{34}}
\@writefile{toc}{\contentsline {subsection}{\numberline {3.2.7}Extrapolation using motion field}{34}}
\newlabel{s: making prediction}{{3.2.7}{34}}
\@writefile{lof}{\contentsline {figure}{\numberline {3.9}{\ignorespaces The different motion fields. Areas enclosed by the red contours are areas where the rainfall rate is zero or minimal. Notice how noisy the TREC motion field is compared to the other motion fields. (a)TREC motion field (b) COTREC motion field (c) RAP model motion field (d) proposed fuzzy motion field. \relax }}{35}}
\newlabel{f:wind vectors}{{3.9}{35}}
\citation{Umbaugh++11}
\@writefile{toc}{\contentsline {subsection}{\numberline {3.2.8}Dilation and smoothing}{36}}
\newlabel{s: dilation_smoothing}{{3.2.8}{36}}
\@writefile{lof}{\contentsline {figure}{\numberline {3.10}{\ignorespaces Comparison between linear and non-linear extrapolation techniques. (a) initial location (b) location after 10 minutes using either extrapolation technique (either way both produce same result) (c) location after 20 minutes using linear extrapolation (d) location after 20 minutes using non-linear extrapolation (e) location after 30 minutes using linear extrapolation (f) location after 30 minutes using non-linear extrapolation.\relax }}{37}}
\newlabel{f:comp_storm_movement}{{3.10}{37}}
\@writefile{lof}{\contentsline {figure}{\numberline {3.11}{\ignorespaces Output of the prediction with and without the combined dilation and smoothing operation. Notice how much the combined operation fills in gaps in the prediction (a) Output without the combined operation. (b) Output with the combined operation\relax }}{38}}
\newlabel{f:filter}{{3.11}{38}}
\@writefile{toc}{\contentsline {section}{\numberline {3.3}Summary}{39}}
\newlabel{s:Method Summary}{{3.3}{39}}
\@writefile{lof}{\contentsline {figure}{\numberline {3.12}{\ignorespaces Example of a masking operation. The mask, the red block in the image, is placed over the intended image, the blue block. Where the mask and image overlap, the average is computed and it is placed in the center of the overlap. (a) initial location of the mask. (b) location of the mask as it moves from left to right (c) location of the mask after it reaches the right side of the image. Notice how the mask is relocated to start in the next row of the image. This process continues until the mask reaches the lower right corner of the image.\relax }}{40}}
\newlabel{f:mask}{{3.12}{40}}
\citation{Donaldson++75}
\citation{Blake++18}
\citation{Cangialosi++18}
\@writefile{toc}{\contentsline {chapter}{\numberline {4.}Results and Analysis }{42}}
\@writefile{lof}{\addvspace {10\p@ }}
\@writefile{lot}{\addvspace {10\p@ }}
\newlabel{chap:R and A}{{4}{42}}
\newlabel{e:POD}{{4.1}{42}}
\newlabel{e:FAR}{{4.2}{42}}
\newlabel{e:CSI}{{4.3}{42}}
\citation{Mandapaka++12,Lin++05}
\@writefile{lof}{\contentsline {figure}{\numberline {4.1}{\ignorespaces Hourly prediction for Hurricane Harvey 2017-08-28 at 0200 UTC. (a) TREC (b) COTREC (c) model (d) HRRR (e) proposed fuzzy logic (f) observed location for 2017-08-28 at 0300 UTC\relax }}{44}}
\newlabel{f:Texas output}{{4.1}{44}}
\@writefile{lof}{\contentsline {figure}{\numberline {4.2}{\ignorespaces Hourly prediction for Hurricane Irma 2017-09-10 at 0200 UTC. (a) TREC (b) COTREC (c) model (d) HRRR (e) proposed fuzzy logic (f) observed location for 2017-09-10 at 0300 UTC\relax }}{45}}
\newlabel{f:Florida output}{{4.2}{45}}
\@writefile{toc}{\noindent \vskip \baselineskip \par }
\@writefile{lof}{\contentsline {figure}{\numberline {4.3}{\ignorespaces Evaluation parameters for Hurricane Harvey. (a) POD (b) FAR (c) CSI\relax }}{47}}
\newlabel{f:Evaluation for Texas}{{4.3}{47}}
\@writefile{lof}{\contentsline {figure}{\numberline {4.4}{\ignorespaces Evaluation parameters for Hurricane Irma. (a) POD (b) FAR (c) CSI\relax }}{48}}
\newlabel{f:Evaluation for Florida}{{4.4}{48}}
\@writefile{lot}{\contentsline {table}{\numberline {4.1}{\ignorespaces Average hourly prediction values for each hurricane over the two day period as well as the entire study period.\relax }}{49}}
\newlabel{t:average}{{4.1}{49}}
\@writefile{lot}{\contentsline {table}{\numberline {4.2}{\ignorespaces Percentage of the time that the proposed approach had a higher success rate than any of the other QPF techniques in each respective category.\relax }}{49}}
\newlabel{t:percentage_overall}{{4.2}{49}}
\@writefile{lot}{\contentsline {table}{\numberline {4.3}{\ignorespaces Percentage of the time that the proposed fuzzy logic approach had a higher success rate than COTREC in each respective category.\relax }}{49}}
\newlabel{t:percentage_cotrec}{{4.3}{49}}
\@writefile{toc}{\contentsline {section}{\numberline {4.1}Summary}{50}}
\newlabel{s:Results Summary}{{4.1}{50}}
\@writefile{toc}{\contentsline {chapter}{\numberline {5.}Conclusion and Future Works}{51}}
\@writefile{lof}{\addvspace {10\p@ }}
\@writefile{lot}{\addvspace {10\p@ }}
\newlabel{chap:Conclusion}{{5}{51}}
\@writefile{toc}{\noindent \vskip \baselineskip \par }
\@writefile{toc}{\contentsline {section}{\numberline {5.1}Summary and Conclusions}{51}}
\newlabel{s:Summary and Conclusions}{{5.1}{51}}
\@writefile{toc}{\contentsline {section}{\numberline {5.2}Future Work}{52}}
\newlabel{s:Future Work}{{5.2}{52}}
\bibstyle{ametsoc}
\bibdata{refer}
\bibcite{Barrett++94}{{1}{1994}{{Barrett et~al.}}{{Barrett, Berry, Chan, Demmel, Donato, Dongarra, Eijkhout, Pozo, Romine, and der Vorst}}}
\bibcite{Benjamin++16}{{2}{2016}{{Benjamin et~al.}}{{Benjamin, Weygandt, Brown, Hu, Alexander, Smirnova, Olson, James, Dowell, Grell, Lin, Peckham, Smith, Moninger, and Kenyon}}}
\bibcite{Best++73}{{3}{1973}{{Best}}{{}}}
\bibcite{Blake++18}{{4}{2018}{{Blake and Zelinsky}}{{}}}
\bibcite{Cangialosi++18}{{5}{2018}{{Cangialosi et~al.}}{{Cangialosi, Latto, and Berg}}}
\bibcite{Chen++08}{{6}{2008}{{Chen et~al.}}{{Chen, Xue, Yang, Zhang, Shen, Hu, Wang, Ji, and Chen}}}
\bibcite{Chrisman++09}{{7}{2009}{{Chrisman and Smith}}{{}}}
\bibcite{Dixon++93}{{8}{1993}{{Dixon and Wiener}}{{}}}
\bibcite{Donaldson++75}{{9}{1975}{{Donaldson et~al.}}{{Donaldson, Dyer, and Krauss}}}
\bibcite{Doviak++00}{{10}{2000}{{Doviak et~al.}}{{Doviak, Bringi, Ryzhkov, Zahrai, and Zrni\'c}}}
\bibcite{Doviak++93}{{11}{1993}{{Doviak and Zrni\'c}}{{}}}
\bibcite{Ecklund++88}{{12}{1988}{{Ecklund et~al.}}{{Ecklund, Carter, and Balsley}}}
\bibcite{Germann++02}{{13}{2002}{{Germann and Zawadzki}}{{}}}
\bibcite{Giangrande++08}{{14}{2008}{{Giangrande and Ryzhkov}}{{}}}
\bibcite{Griffin++17}{{15}{2017}{{Griffin et~al.}}{{Griffin, Otkin, Rozoff, Sieglaff, Cronce, Alexander, Jensen, and Wolff}}}
\@writefile{toc}{\noindent \vskip \baselineskip \par }
\@writefile{toc}{\contentsline {part}{REFERENCES}{54}}
\bibcite{Grundland++06}{{16}{2006}{{Grundland et~al.}}{{Grundland, Vohra, Williams, and Dodgson}}}
\bibcite{Han++09}{{17}{2009}{{Han et~al.}}{{Han, Fu, Zhao, Zheng, Wang, and Lin}}}
\bibcite{Hwang++15}{{18}{2015}{{Hwang et~al.}}{{Hwang, Clark, Lakshmanan, and Koch}}}
\bibcite{Istok++09}{{19}{2009}{{Istok et~al.}}{{Istok, Fresch, Smith, Jing, Murnan, Ryzhkov, Krause, Jain, Ferree, Schlatter, Klein, Stein, Cate, and Saffle}}}
\bibcite{Kaur++12}{{20}{2012}{{Kaur and Kaur}}{{}}}
\bibcite{Lakshmanan++13}{{21}{2013}{{Lakshmanan et~al.}}{{Lakshmanan, Karstens, Krause, and Tang}}}
\bibcite{Lakshmanan++07}{{22}{2007}{{Lakshmanan et~al.}}{{Lakshmanan, Smith, Stumpf, and Hondl}}}
\bibcite{Li++95}{{23}{1995}{{Li et~al.}}{{Li, Schmid, and Joss}}}
\bibcite{Liang++10}{{24}{2010}{{Liang et~al.}}{{Liang, Feng, Deng, Hu, Huang, Zeng, and Chen}}}
\bibcite{Lin++05}{{25}{2005}{{Lin et~al.}}{{Lin, Vasic, Kilambi, Turner, and Zawadzki}}}
\bibcite{Mandapaka++12}{{26}{2012}{{Mandapaka et~al.}}{{Mandapaka, Germann, Panziera, and Hering}}}
\bibcite{Negnevitsky++04}{{27}{2004}{{Negnevitsky}}{{}}}
\bibcite{NEXRADtech}{{28}{2017}{{NOAA Radar Operations Center}}{{}}}
\bibcite{Park++09}{{29}{2009}{{Park et~al.}}{{Park, Ryzhkov, Zrni\'c, and Kim}}}
\bibcite{Peckham++16}{{30}{2016}{{Peckham et~al.}}{{Peckham, Smirnova, Benjamin, Brown, and Kenyon}}}
\bibcite{Pierce++04}{{31}{2004}{{Pierce et~al.}}{{Pierce, Ebert, Seed, Sleigh, Collier, Fox, Donaldson, Wilson, Roberts, and Mueller}}}
\bibcite{Rinehart++79}{{32}{1979}{{Rinehart}}{{}}}
\bibcite{Rossi++15}{{33}{2015}{{Rossi et~al.}}{{Rossi, Chandrasekar, Hasu, and Moisseev}}}
\bibcite{Seliga++76}{{34}{1976}{{Seliga and Bringi}}{{}}}
\bibcite{Sherman++78}{{35}{1978}{{Sherman}}{{}}}
\bibcite{Skamarock++08}{{36}{2008}{{Skamarock et~al.}}{{Skamarock, Klemp, Dudhia, Gill, Barker, Duda, Huang, Wang, and Powers}}}
\bibcite{Skolnik++01}{{37}{2001}{{Skolnik}}{{}}}
\bibcite{Takagi++85}{{38}{1985}{{Takagi and Sugeno}}{{}}}
\bibcite{Tang++14}{{39}{2014}{{Tang et~al.}}{{Tang, Zhang, Langston, Krause, Howard, and Lakshmanan}}}
\bibcite{Thompson++14}{{40}{2014}{{Thompson et~al.}}{{Thompson, Rutledge, and Dolan}}}
\bibcite{Tuttle++90}{{41}{1990}{{Tuttle and Foote}}{{}}}
\bibcite{Umbaugh++11}{{42}{2011}{{Umbaugh}}{{}}}
\bibcite{Wang++11}{{43}{2011}{{Wang et~al.}}{{Wang, Liu, and Ding}}}
\bibcite{Wang++12}{{44}{2013}{{Wang et~al.}}{{Wang, Liu, and Wang}}}
\bibcite{Wang++10}{{45}{2010}{{Wang}}{{}}}
\bibcite{Wdssii}{{46}{2010}{{WDSS-II Quick Reference}}{{}}}
\bibcite{Whiton++98a}{{47}{1998{a}}{{Whiton et~al.}}{{Whiton, Smith, Bigler, Wilk, and Harbuck}}}
\bibcite{Whiton++98b}{{48}{1998{b}}{{Whiton et~al.}}{{Whiton, Smith, Bigler, Wilk, and Harbuck}}}
\bibcite{Wolberg++98}{{49}{1998}{{Wolberg}}{{}}}
\bibcite{Zadeh++65}{{50}{1965}{{Zadeh}}{{}}}
\bibcite{Zadeh++73}{{51}{1973}{{Zadeh}}{{}}}
\bibcite{Zhang++05}{{52}{2005}{{Zhang et~al.}}{{Zhang, Howard, and Gourley}}}
\bibcite{Zhang++16}{{53}{2016}{{Zhang et~al.}}{{Zhang, Howard, Langston, Kaney, Qi, Tang, Grams, Wang, Cocks, Martinaitis, Arthur, Cooper, Brogden, and Kitzmiller}}}
\bibcite{Zrnic++95}{{54}{1995}{{Zrni\'c and Ryzhkov}}{{}}}
\citation{Kaur++12}
\@writefile{toc}{\contentsline {part}{APPENDICES}{58}}
\@writefile{toc}{\vskip -\baselineskip }
\@writefile{toc}{\contentsline {chapter}{\numberline {A.}Successive Over Relaxation}{58}}
\@writefile{lof}{\addvspace {10\p@ }}
\@writefile{lot}{\addvspace {10\p@ }}
\newlabel{chap:SOR}{{A}{58}}
\newlabel{eq:setup}{{A.1}{58}}
\newlabel{eq:Jacobi}{{A.2}{58}}
\newlabel{eq:Gauss-Seidel}{{A.3}{58}}
\newlabel{eq:SOR}{{A.4}{58}}
\citation{Barrett++94}
\newlabel{eq:SOR_matrix1}{{A.5}{59}}
\citation{Lakshmanan++07}
\citation{Zhang++16}
\citation{Wdssii}
\citation{Hwang++15}
\citation{Umbaugh++11}
\citation{Lakshmanan++07}
\@writefile{toc}{\contentsline {chapter}{\numberline {B.}Segmotion}{60}}
\@writefile{lof}{\addvspace {10\p@ }}
\@writefile{lot}{\addvspace {10\p@ }}
\newlabel{chap:Segmotion}{{B}{60}}
\@writefile{toc}{\noindent \vskip \baselineskip \par }
\@writefile{toc}{\contentsline {section}{\numberline {B.1}Overview}{60}}
\newlabel{s:WDSS-II Overview}{{B.1}{60}}
\@writefile{toc}{\contentsline {section}{\numberline {B.2}Segmotion algorithm}{60}}
\newlabel{s:segmotion}{{B.2}{60}}
\citation{Lakshmanan++07}
